*W02 Full Bridge Rectifier
.SUBCKT W02 DC+ DC- AC1 AC2
D1 AC1 DC+ DI_DF1502S
D2 AC2 DC+ DI_DF1502S
D3 DC- AC1 DI_DF1502S
D4 DC- AC2 DI_DF1502S
*SRC=DF1502S;DI_DF1502S;Diodes;Si;  200V  1.50A  3.00us   Diodes Inc. Bridge -- for one element
.MODEL DI_DF1502S D  ( IS=2.06n RS=28.1m BV=200 IBV=10.0u
+ CJO=65.0p  M=0.333 N=1.70 TT=4.32u )
.ENDS W02