*----- Positive "Linear" Potentiometer, Panasonic. Type: B -------
*
* Author: Tim Thomas
* Date: Sept 16 2015
*
* Panasonic shows three piecewise linear functions in their datasheet
* for the resistance dependency.
*
* 0.0 ------> 1.0
*        |2
*      __V__
*  1--|_____|--3
*        
*  o--R1-o-R2--o
*
.SUBCKT pot_panasonicB 1 2 3 PARAMS: Rtot=10000 wiper=0.5
* Parameters: Rtot, wiper
.param w=limit(0.01m,wiper,0.99999)
*
R1 1 2 {Rtot*(w)}
R2 2 3 {Rtot*(1-w)}
.ENDS pot_panasonicB
