<eagle version="6.5.0" xmlns="eagle">
  <drawing>
    <library>
      <packages>
        <package name="2SB605" xmlns="eagle">
          <pad name="P$1" x="-1.7" y="0" drill="0.75" />
          <pad name="P$2" x="0" y="0" drill="0.75" />
          <pad name="P$3" x="1.7" y="0" drill="0.75" />
          <wire x1="-3.5" y1="0.8" x2="-3.5" y2="-0.6" width="0.127" layer="21" />
          <wire x1="-3.5" y1="-0.6" x2="-3.5" y2="-1.3" width="0.127" layer="21" />
          <wire x1="-3.5" y1="-1.3" x2="-2.8" y2="-1.3" width="0.127" layer="21" />
          <wire x1="-2.8" y1="-1.3" x2="2.8" y2="-1.3" width="0.127" layer="21" />
          <wire x1="2.8" y1="-1.3" x2="3.5" y2="-1.3" width="0.127" layer="21" />
          <wire x1="3.5" y1="-1.3" x2="3.5" y2="-0.6" width="0.127" layer="21" />
          <wire x1="3.5" y1="-0.6" x2="3.5" y2="0.8" width="0.127" layer="21" />
          <circle x="-3.8" y="0" radius="0.1542" width="0" layer="21" />
          <wire x1="-2.8" y1="-1.3" x2="-3.5" y2="-0.6" width="0.127" layer="21" />
          <wire x1="3.5" y1="-0.6" x2="2.8" y2="-1.3" width="0.127" layer="21" />
          <text x="-3.3" y="1.2" size="1.27" layer="25">&gt;NAME</text>
          <wire x1="-3.5" y1="0.8" x2="-2.7" y2="0.8" width="0.127" layer="21" />
          <wire x1="3.5" y1="0.8" x2="2.7" y2="0.8" width="0.127" layer="21" />
        </package>
      </packages>
      <symbols>
        <symbol name="PNP">
          <pin name="B" x="-10.16" y="2.54" length="middle" direction="pas" />
          <wire x1="-5.08" y1="7.62" x2="-5.08" y2="5.08" width="0.254" layer="94" />
          <wire x1="-5.08" y1="5.08" x2="-5.08" y2="0" width="0.254" layer="94" />
          <wire x1="-5.08" y1="0" x2="-5.08" y2="-2.54" width="0.254" layer="94" />
          <wire x1="-5.08" y1="5.08" x2="0" y2="10.16" width="0.254" layer="94" />
          <wire x1="-5.08" y1="0" x2="0" y2="-5.08" width="0.254" layer="94" />
          <pin name="C" x="5.08" y="10.16" length="middle" direction="pas" rot="R180" />
          <pin name="E" x="5.08" y="-5.08" length="middle" direction="pas" rot="R180" />
          <text x="-10.16" y="17.78" size="1.778" layer="95">&gt;NAME</text>
          <text x="-10.16" y="15.24" size="1.778" layer="96">&gt;VALUE</text>
          <wire x1="-5.08" y1="0" x2="-4.318" y2="-2.032" width="0.254" layer="94" />
          <wire x1="-4.318" y1="-2.032" x2="-3.048" y2="-0.762" width="0.254" layer="94" />
          <wire x1="-3.048" y1="-0.762" x2="-5.08" y2="0" width="0.254" layer="94" />
        </symbol>
      </symbols>
      <devicesets>
        <deviceset name="2SD571">
          <gates>
            <gate name="G$1" symbol="PNP" x="0" y="-2.54" />
          </gates>
          <devices>
            <device name="" package="2SB605" xmlns="eagle">
              <connects>
                <connect gate="G$1" pin="B" pad="P$3" />
                <connect gate="G$1" pin="C" pad="P$2" />
                <connect gate="G$1" pin="E" pad="P$1" />
              </connects>
              <technologies>
                <technology name="" />
              </technologies>
            </device>
          </devices>
        </deviceset>
      </devicesets>
    </library>
  </drawing>
</eagle>