{
  "boardWidth": 13.0,
  "boardHeight": 15.0,
  "numLayers": 2,
  "boardTemplate": null,
  "designRules": "MacroFab_2_Layer.dru",
  "omitBoundary": null,
  "packages": [
    {
      "name": "C1",
      "package": "C_0402",
      "pkg_idx": 0,
      "ComponentID": "d44c9b2b-0f65-4e49-a51e-ac29e70e4874",
      "RelComponentID": null,
      "width": 1.72,
      "height": 0.72,
      "koWidth": 1.72,
      "koHeight": 0.72,
      "originX": 0.0,
      "originY": 0.0,
      "x": 10.74,
      "y": 0.64,
      "rotation": 0,
      "layer": 1,
      "constraints": null,
      "multiLayer": null,
      "doNotPlace": null
    },
    {
      "name": "C2",
      "package": "C_0805",
      "pkg_idx": 1,
      "ComponentID": "d8f55417-7e14-4caf-ad50-b81a6664898d",
      "RelComponentID": null,
      "width": 3.35,
      "height": 1.55,
      "koWidth": 3.35,
      "koHeight": 1.55,
      "originX": 0.0,
      "originY": 0.0,
      "x": 0.425,
      "y": 4.225,
      "rotation": 0,
      "layer": 1,
      "constraints": null,
      "multiLayer": null,
      "doNotPlace": null
    },
    {
      "name": "C3",
      "package": "C_0402",
      "pkg_idx": 2,
      "ComponentID": "d3928898-4d1e-4358-a422-11436d324510",
      "RelComponentID": null,
      "width": 1.72,
      "height": 0.72,
      "koWidth": 1.72,
      "koHeight": 0.72,
      "originX": 0.0,
      "originY": 0.0,
      "x": 0.54,
      "y": 0.54,
      "rotation": 1,
      "layer": 1,
      "constraints": null,
      "multiLayer": null,
      "doNotPlace": null
    },
    {
      "name": "C4",
      "package": "C_0402",
      "pkg_idx": 3,
      "ComponentID": "2ad8a932-f163-4cde-b7a4-8737f36e0778",
      "RelComponentID": null,
      "width": 1.72,
      "height": 0.72,
      "koWidth": 1.72,
      "koHeight": 0.72,
      "originX": 0.0,
      "originY": 0.0,
      "x": 0.54,
      "y": 11.74,
      "rotation": 2,
      "layer": 1,
      "constraints": null,
      "multiLayer": null,
      "doNotPlace": null
    },
    {
      "name": "C5",
      "package": "C_0603",
      "pkg_idx": 4,
      "ComponentID": "a69447cb-f9fd-4c13-9639-bb669783e1d6",
      "RelComponentID": null,
      "width": 2.95,
      "height": 1.1,
      "koWidth": 2.95,
      "koHeight": 1.1,
      "originX": 0.0,
      "originY": 0.0,
      "x": 5.025,
      "y": 9.25,
      "rotation": 0,
      "layer": 1,
      "constraints": null,
      "multiLayer": null,
      "doNotPlace": null
    },
    {
      "name": "CBYP",
      "package": "C_0603",
      "pkg_idx": 5,
      "ComponentID": "83cfa0b3-0f39-4db7-a674-821ab5228da0",
      "RelComponentID": null,
      "width": 2.95,
      "height": 1.1,
      "koWidth": 2.95,
      "koHeight": 1.1,
      "originX": 0.0,
      "originY": 0.0,
      "x": 7.85,
      "y": 5.125,
      "rotation": 3,
      "layer": 1,
      "constraints": null,
      "multiLayer": null,
      "doNotPlace": null
    },
    {
      "name": "D1",
      "package": "SOD123",
      "pkg_idx": 6,
      "ComponentID": "08430cea-c6db-4018-95b0-32485fa9db8b",
      "RelComponentID": null,
      "width": 1.9324,
      "height": 4.15,
      "koWidth": 1.9324,
      "koHeight": 4.15,
      "originX": -0.1,
      "originY": 0.0,
      "x": 8.125,
      "y": 10.4338,
      "rotation": 3,
      "layer": 1,
      "constraints": null,
      "multiLayer": null,
      "doNotPlace": null
    },
    {
      "name": "D2",
      "package": "SOD123",
      "pkg_idx": 7,
      "ComponentID": "783f395f-95ed-47d7-ab14-fceaefd71dee",
      "RelComponentID": null,
      "width": 1.9324,
      "height": 4.15,
      "koWidth": 1.9324,
      "koHeight": 4.15,
      "originX": -0.1,
      "originY": 0.0,
      "x": 3.325,
      "y": 10.4338,
      "rotation": 3,
      "layer": 1,
      "constraints": null,
      "multiLayer": null,
      "doNotPlace": null
    },
    {
      "name": "D3",
      "package": "SOD123",
      "pkg_idx": 8,
      "ComponentID": "6eb36943-1790-4aab-adea-ce38db47965e",
      "RelComponentID": null,
      "width": 1.9324,
      "height": 4.15,
      "koWidth": 1.9324,
      "koHeight": 4.15,
      "originX": -0.1,
      "originY": 0.0,
      "x": 8.125,
      "y": 12.5338,
      "rotation": 3,
      "layer": 1,
      "constraints": null,
      "multiLayer": null,
      "doNotPlace": null
    },
    {
      "name": "D4",
      "package": "SOD123",
      "pkg_idx": 9,
      "ComponentID": "a7d697b4-e996-43d5-a799-ecb4bf44a0b5",
      "RelComponentID": null,
      "width": 1.9324,
      "height": 4.15,
      "koWidth": 1.9324,
      "koHeight": 4.15,
      "originX": -0.1,
      "originY": 0.0,
      "x": 3.325,
      "y": 12.5338,
      "rotation": 3,
      "layer": 1,
      "constraints": null,
      "multiLayer": null,
      "doNotPlace": null
    },
    {
      "name": "DistGain",
      "package": "EVUFXL",
      "pkg_idx": 10,
      "ComponentID": "a9dcaaa8-89c3-431e-8498-66049de6bb2b",
      "RelComponentID": null,
      "width": 11.8,
      "height": 13.7382,
      "koWidth": 11.8,
      "koHeight": 13.7382,
      "originX": 0.0,
      "originY": -1.0,
      "x": 0.5,
      "y": 0.4309,
      "rotation": 0,
      "layer": 0,
      "constraints": null,
      "multiLayer": null,
      "doNotPlace": null
    },
    {
      "name": "OPA344",
      "package": "SOT23-5",
      "pkg_idx": 11,
      "ComponentID": "051710a4-2ecd-4f9f-9cff-506837cb1fb7",
      "RelComponentID": null,
      "width": 3.2024,
      "height": 3.8274,
      "koWidth": 3.3424,
      "koHeight": 3.9674,
      "originX": -0.4,
      "originY": -0.1,
      "x": 4.8988,
      "y": 4.1863,
      "rotation": 0,
      "layer": 1,
      "constraints": null,
      "multiLayer": null,
      "doNotPlace": null
    },
    {
      "name": "R1",
      "package": "R_0603",
      "pkg_idx": 12,
      "ComponentID": "8153e4f2-a0ca-4935-8d59-afb3d542497d",
      "RelComponentID": null,
      "width": 2.4,
      "height": 0.8,
      "koWidth": 2.4,
      "koHeight": 0.8,
      "originX": 0.0,
      "originY": 0.0,
      "x": 10.3,
      "y": 1.9,
      "rotation": 0,
      "layer": 1,
      "constraints": null,
      "multiLayer": null,
      "doNotPlace": null
    },
    {
      "name": "R2",
      "package": "R_0603",
      "pkg_idx": 13,
      "ComponentID": "77b9c2d3-60f5-485e-a965-210bf6c82dae",
      "RelComponentID": null,
      "width": 2.4,
      "height": 0.8,
      "koWidth": 2.4,
      "koHeight": 0.8,
      "originX": 0.0,
      "originY": 0.0,
      "x": 1.8,
      "y": 0.4,
      "rotation": 3,
      "layer": 1,
      "constraints": null,
      "multiLayer": null,
      "doNotPlace": null
    },
    {
      "name": "R3",
      "package": "R_0603",
      "pkg_idx": 14,
      "ComponentID": "bdf9895f-2092-4e27-bc40-646d6cd4429c",
      "RelComponentID": null,
      "width": 2.4,
      "height": 0.8,
      "koWidth": 2.4,
      "koHeight": 0.8,
      "originX": 0.0,
      "originY": 0.0,
      "x": 0.3,
      "y": 13.0,
      "rotation": 2,
      "layer": 1,
      "constraints": null,
      "multiLayer": null,
      "doNotPlace": null
    },
    {
      "name": "R4",
      "package": "R_0603",
      "pkg_idx": 15,
      "ComponentID": "8734e90b-c4a2-466e-aa1a-ea24f4d2d615",
      "RelComponentID": null,
      "width": 2.4,
      "height": 0.8,
      "koWidth": 2.4,
      "koHeight": 0.8,
      "originX": 0.0,
      "originY": 0.0,
      "x": 1.6,
      "y": 3.1,
      "rotation": 0,
      "layer": 1,
      "constraints": null,
      "multiLayer": null,
      "doNotPlace": null
    },
    {
      "name": "R5",
      "package": "R_0603",
      "pkg_idx": 16,
      "ComponentID": "54f1885a-faee-4e5d-83d3-fcac276f9971",
      "RelComponentID": null,
      "width": 2.4,
      "height": 0.8,
      "koWidth": 2.4,
      "koHeight": 0.8,
      "originX": 0.0,
      "originY": 0.0,
      "x": 10.3,
      "y": 3.1,
      "rotation": 0,
      "layer": 1,
      "constraints": null,
      "multiLayer": null,
      "doNotPlace": null
    }
  ],
  "signals": [
    {
      "name": "N$0",
      "length": 8.3413423704355676,
      "bends": 9,
      "RelComponentID": null,
      "pins": [
        {
          "name": "P$2",
          "gate": "G$1",
          "pad": "2",
          "package": "C1"
        },
        {
          "name": "2",
          "gate": "G$1",
          "pad": "P$2",
          "package": "R1"
        },
        {
          "name": "+IN",
          "gate": "G$1",
          "pad": "3",
          "package": "OPA344"
        }
      ],
      "wires": [
        {
          "x1": 10.9728,
          "y1": 2.1336,
          "x2": 10.9728,
          "y2": 1.0668,
          "width": 0.1524,
          "layer": 16,
          "curve": 0.0
        },
        {
          "x1": 10.8204,
          "y1": 2.286,
          "x2": 10.9728,
          "y2": 2.1336,
          "width": 0.1524,
          "layer": 16,
          "curve": 0.0
        },
        {
          "x1": 10.9728,
          "y1": 1.0668,
          "x2": 11.1,
          "y2": 1.0,
          "width": 0.1524,
          "layer": 16,
          "curve": 0.0
        },
        {
          "x1": 10.8204,
          "y1": 2.286,
          "x2": 10.7,
          "y2": 2.3,
          "width": 0.1524,
          "layer": 16,
          "curve": 0.0
        },
        {
          "x1": 5.4864,
          "y1": 4.4196,
          "x2": 5.1816,
          "y2": 4.7244,
          "width": 0.1524,
          "layer": 16,
          "curve": 0.0
        },
        {
          "x1": 5.4864,
          "y1": 4.2672,
          "x2": 5.4864,
          "y2": 4.4196,
          "width": 0.1524,
          "layer": 16,
          "curve": 0.0
        },
        {
          "x1": 7.3152,
          "y1": 2.4384,
          "x2": 5.4864,
          "y2": 4.2672,
          "width": 0.1524,
          "layer": 16,
          "curve": 0.0
        },
        {
          "x1": 10.668,
          "y1": 2.4384,
          "x2": 7.3152,
          "y2": 2.4384,
          "width": 0.1524,
          "layer": 16,
          "curve": 0.0
        },
        {
          "x1": 5.1816,
          "y1": 4.7244,
          "x2": 5.15,
          "y2": 4.85,
          "width": 0.1524,
          "layer": 16,
          "curve": 0.0
        },
        {
          "x1": 10.668,
          "y1": 2.4384,
          "x2": 10.7,
          "y2": 2.3,
          "width": 0.1524,
          "layer": 16,
          "curve": 0.0
        }
      ],
      "vias": [],
      "polygons": []
    },
    {
      "name": "N$1",
      "length": 37.651921345497918,
      "bends": 34,
      "RelComponentID": null,
      "pins": [
        {
          "name": "P$2",
          "gate": "G$1",
          "pad": "2",
          "package": "C2"
        },
        {
          "name": "A",
          "gate": "G$1",
          "pad": "1",
          "package": "DistGain"
        },
        {
          "name": "A",
          "gate": "G$1",
          "pad": "P$2",
          "package": "D3"
        },
        {
          "name": "C",
          "gate": "G$1",
          "pad": "P$1",
          "package": "D2"
        },
        {
          "name": "P$2",
          "gate": "G$1",
          "pad": "2",
          "package": "C5"
        },
        {
          "name": "1",
          "gate": "G$1",
          "pad": "P$1",
          "package": "R5"
        },
        {
          "name": "2",
          "gate": "G$1",
          "pad": "P$2",
          "package": "R4"
        },
        {
          "name": "1",
          "gate": "G$1",
          "pad": "P$1",
          "package": "R1"
        }
      ],
      "wires": [
        {
          "x1": 5.4864,
          "y1": 9.7536,
          "x2": 5.334,
          "y2": 9.906,
          "width": 0.1524,
          "layer": 16,
          "curve": 0.0
        },
        {
          "x1": 5.334,
          "y1": 9.906,
          "x2": 3.81,
          "y2": 11.43,
          "width": 0.1524,
          "layer": 16,
          "curve": 0.0
        },
        {
          "x1": 3.81,
          "y1": 11.43,
          "x2": 3.765,
          "y2": 11.5,
          "width": 0.1524,
          "layer": 16,
          "curve": 0.0
        },
        {
          "x1": 5.4864,
          "y1": 9.7536,
          "x2": 5.6,
          "y2": 9.8,
          "width": 0.1524,
          "layer": 16,
          "curve": 0.0
        },
        {
          "x1": 12.3444,
          "y1": 3.3528,
          "x2": 12.3444,
          "y2": 2.4384,
          "width": 0.1524,
          "layer": 16,
          "curve": 0.0
        },
        {
          "x1": 12.3444,
          "y1": 2.4384,
          "x2": 12.3,
          "y2": 2.3,
          "width": 0.1524,
          "layer": 16,
          "curve": 0.0
        },
        {
          "x1": 12.3444,
          "y1": 3.3528,
          "x2": 12.3,
          "y2": 3.5,
          "width": 0.1524,
          "layer": 16,
          "curve": 0.0
        },
        {
          "x1": 11.8872,
          "y1": 12.8016,
          "x2": 11.8872,
          "y2": 13.5636,
          "width": 0.1524,
          "layer": 16,
          "curve": 0.0
        },
        {
          "x1": 12.6492,
          "y1": 12.0396,
          "x2": 11.8872,
          "y2": 12.8016,
          "width": 0.1524,
          "layer": 16,
          "curve": 0.0
        },
        {
          "x1": 12.6492,
          "y1": 3.81,
          "x2": 12.6492,
          "y2": 10.668,
          "width": 0.1524,
          "layer": 16,
          "curve": 0.0
        },
        {
          "x1": 12.6492,
          "y1": 10.668,
          "x2": 12.6492,
          "y2": 12.0396,
          "width": 0.1524,
          "layer": 16,
          "curve": 0.0
        },
        {
          "x1": 12.3444,
          "y1": 3.5052,
          "x2": 12.6492,
          "y2": 3.81,
          "width": 0.1524,
          "layer": 16,
          "curve": 0.0
        },
        {
          "x1": 11.8872,
          "y1": 13.5636,
          "x2": 11.835,
          "y2": 13.6,
          "width": 0.1524,
          "layer": 16,
          "curve": 0.0
        },
        {
          "x1": 12.3444,
          "y1": 3.5052,
          "x2": 12.3,
          "y2": 3.5,
          "width": 0.1524,
          "layer": 16,
          "curve": 0.0
        },
        {
          "x1": 5.9436,
          "y1": 9.906,
          "x2": 5.6388,
          "y2": 9.906,
          "width": 0.1524,
          "layer": 16,
          "curve": 0.0
        },
        {
          "x1": 6.7056,
          "y1": 10.668,
          "x2": 5.9436,
          "y2": 9.906,
          "width": 0.1524,
          "layer": 16,
          "curve": 0.0
        },
        {
          "x1": 12.6492,
          "y1": 10.668,
          "x2": 6.7056,
          "y2": 10.668,
          "width": 0.1524,
          "layer": 16,
          "curve": 0.0
        },
        {
          "x1": 5.6388,
          "y1": 9.906,
          "x2": 5.6,
          "y2": 9.8,
          "width": 0.1524,
          "layer": 16,
          "curve": 0.0
        },
        {
          "x1": 3.9624,
          "y1": 8.5344,
          "x2": 3.9624,
          "y2": 1.3716,
          "width": 0.1524,
          "layer": 1,
          "curve": 0.0
        },
        {
          "x1": 4.2672,
          "y1": 8.8392,
          "x2": 3.9624,
          "y2": 8.5344,
          "width": 0.1524,
          "layer": 1,
          "curve": 0.0
        },
        {
          "x1": 5.334,
          "y1": 9.906,
          "x2": 4.2672,
          "y2": 8.8392,
          "width": 0.1524,
          "layer": 16,
          "curve": 0.0
        },
        {
          "x1": 3.9624,
          "y1": 1.3716,
          "x2": 3.9,
          "y2": 1.3,
          "width": 0.1524,
          "layer": 1,
          "curve": 0.0
        },
        {
          "x1": 5.334,
          "y1": 9.906,
          "x2": 5.6,
          "y2": 9.8,
          "width": 0.1524,
          "layer": 16,
          "curve": 0.0
        },
        {
          "x1": 1.9812,
          "y1": 4.1148,
          "x2": 1.9812,
          "y2": 3.5052,
          "width": 0.1524,
          "layer": 16,
          "curve": 0.0
        },
        {
          "x1": 1.2192,
          "y1": 4.8768,
          "x2": 1.9812,
          "y2": 4.1148,
          "width": 0.1524,
          "layer": 16,
          "curve": 0.0
        },
        {
          "x1": 1.9812,
          "y1": 3.5052,
          "x2": 2.0,
          "y2": 3.5,
          "width": 0.1524,
          "layer": 16,
          "curve": 0.0
        },
        {
          "x1": 1.2192,
          "y1": 4.8768,
          "x2": 1.1,
          "y2": 5.0,
          "width": 0.1524,
          "layer": 16,
          "curve": 0.0
        },
        {
          "x1": 1.524,
          "y1": 2.8956,
          "x2": 1.9812,
          "y2": 3.3528,
          "width": 0.1524,
          "layer": 16,
          "curve": 0.0
        },
        {
          "x1": 1.524,
          "y1": 1.8288,
          "x2": 1.524,
          "y2": 2.8956,
          "width": 0.1524,
          "layer": 16,
          "curve": 0.0
        },
        {
          "x1": 1.8288,
          "y1": 1.524,
          "x2": 1.524,
          "y2": 1.8288,
          "width": 0.1524,
          "layer": 16,
          "curve": 0.0
        },
        {
          "x1": 3.6576,
          "y1": 1.524,
          "x2": 1.8288,
          "y2": 1.524,
          "width": 0.1524,
          "layer": 16,
          "curve": 0.0
        },
        {
          "x1": 3.81,
          "y1": 1.3716,
          "x2": 3.6576,
          "y2": 1.524,
          "width": 0.1524,
          "layer": 16,
          "curve": 0.0
        },
        {
          "x1": 1.9812,
          "y1": 3.3528,
          "x2": 2.0,
          "y2": 3.5,
          "width": 0.1524,
          "layer": 16,
          "curve": 0.0
        },
        {
          "x1": 3.81,
          "y1": 1.3716,
          "x2": 3.9,
          "y2": 1.3,
          "width": 0.1524,
          "layer": 16,
          "curve": 0.0
        }
      ],
      "vias": [
        {
          "x": 4.2672,
          "y": 8.8392,
          "drill": 0.3048,
          "layerBegin": 1,
          "layerEnd": 16
        }
      ],
      "polygons": []
    },
    {
      "name": "N$2",
      "length": 9.8123847829707671,
      "bends": 18,
      "RelComponentID": null,
      "pins": [
        {
          "name": "P$1",
          "gate": "G$1",
          "pad": "1",
          "package": "C2"
        },
        {
          "name": "1",
          "gate": "G$1",
          "pad": "P$1",
          "package": "R4"
        },
        {
          "name": "P$2",
          "gate": "G$1",
          "pad": "2",
          "package": "CBYP"
        },
        {
          "name": "V-",
          "gate": "G$1",
          "pad": "2",
          "package": "OPA344"
        }
      ],
      "wires": [
        {
          "x1": 3.048,
          "y1": 4.8768,
          "x2": 2.8956,
          "y2": 4.7244,
          "width": 0.1524,
          "layer": 16,
          "curve": 0.0
        },
        {
          "x1": 3.048,
          "y1": 4.8768,
          "x2": 3.1,
          "y2": 5.0,
          "width": 0.1524,
          "layer": 16,
          "curve": 0.0
        },
        {
          "x1": 6.096,
          "y1": 5.1816,
          "x2": 6.096,
          "y2": 4.8768,
          "width": 0.1524,
          "layer": 16,
          "curve": 0.0
        },
        {
          "x1": 5.6388,
          "y1": 5.6388,
          "x2": 6.096,
          "y2": 5.1816,
          "width": 0.1524,
          "layer": 16,
          "curve": 0.0
        },
        {
          "x1": 3.81,
          "y1": 5.6388,
          "x2": 5.6388,
          "y2": 5.6388,
          "width": 0.1524,
          "layer": 16,
          "curve": 0.0
        },
        {
          "x1": 3.2004,
          "y1": 5.0292,
          "x2": 3.81,
          "y2": 5.6388,
          "width": 0.1524,
          "layer": 16,
          "curve": 0.0
        },
        {
          "x1": 6.096,
          "y1": 4.8768,
          "x2": 6.1,
          "y2": 4.85,
          "width": 0.1524,
          "layer": 16,
          "curve": 0.0
        },
        {
          "x1": 3.2004,
          "y1": 5.0292,
          "x2": 3.1,
          "y2": 5.0,
          "width": 0.1524,
          "layer": 16,
          "curve": 0.0
        },
        {
          "x1": 8.382,
          "y1": 5.0292,
          "x2": 8.382,
          "y2": 5.6388,
          "width": 0.1524,
          "layer": 16,
          "curve": 0.0
        },
        {
          "x1": 7.3152,
          "y1": 3.9624,
          "x2": 8.382,
          "y2": 5.0292,
          "width": 0.1524,
          "layer": 16,
          "curve": 0.0
        },
        {
          "x1": 6.7056,
          "y1": 3.9624,
          "x2": 7.3152,
          "y2": 3.9624,
          "width": 0.1524,
          "layer": 16,
          "curve": 0.0
        },
        {
          "x1": 6.2484,
          "y1": 4.4196,
          "x2": 6.7056,
          "y2": 3.9624,
          "width": 0.1524,
          "layer": 16,
          "curve": 0.0
        },
        {
          "x1": 6.2484,
          "y1": 4.7244,
          "x2": 6.2484,
          "y2": 4.4196,
          "width": 0.1524,
          "layer": 16,
          "curve": 0.0
        },
        {
          "x1": 8.382,
          "y1": 5.6388,
          "x2": 8.4,
          "y2": 5.7,
          "width": 0.1524,
          "layer": 16,
          "curve": 0.0
        },
        {
          "x1": 6.2484,
          "y1": 4.7244,
          "x2": 6.1,
          "y2": 4.85,
          "width": 0.1524,
          "layer": 16,
          "curve": 0.0
        },
        {
          "x1": 3.5052,
          "y1": 4.572,
          "x2": 3.5052,
          "y2": 3.5052,
          "width": 0.1524,
          "layer": 16,
          "curve": 0.0
        },
        {
          "x1": 3.2004,
          "y1": 4.8768,
          "x2": 3.5052,
          "y2": 4.572,
          "width": 0.1524,
          "layer": 16,
          "curve": 0.0
        },
        {
          "x1": 3.5052,
          "y1": 3.5052,
          "x2": 3.6,
          "y2": 3.5,
          "width": 0.1524,
          "layer": 16,
          "curve": 0.0
        },
        {
          "x1": 3.2004,
          "y1": 4.8768,
          "x2": 3.1,
          "y2": 5.0,
          "width": 0.1524,
          "layer": 16,
          "curve": 0.0
        }
      ],
      "vias": [],
      "polygons": []
    },
    {
      "name": "N$3",
      "length": 1.3718383310274975,
      "bends": 2,
      "RelComponentID": null,
      "pins": [
        {
          "name": "P$1",
          "gate": "G$1",
          "pad": "1",
          "package": "C3"
        },
        {
          "name": "2",
          "gate": "G$1",
          "pad": "P$2",
          "package": "R2"
        }
      ],
      "wires": [
        {
          "x1": 2.1336,
          "y1": 0.9144,
          "x2": 0.9144,
          "y2": 0.9144,
          "width": 0.1524,
          "layer": 16,
          "curve": 0.0
        },
        {
          "x1": 0.9144,
          "y1": 0.9144,
          "x2": 0.9,
          "y2": 0.9,
          "width": 0.1524,
          "layer": 16,
          "curve": 0.0
        },
        {
          "x1": 2.1336,
          "y1": 0.9144,
          "x2": 2.2,
          "y2": 0.8,
          "width": 0.1524,
          "layer": 16,
          "curve": 0.0
        }
      ],
      "vias": [],
      "polygons": []
    },
    {
      "name": "N$4",
      "length": 17.339467838513038,
      "bends": 19,
      "RelComponentID": null,
      "pins": [
        {
          "name": "P$2",
          "gate": "G$1",
          "pad": "2",
          "package": "C3"
        },
        {
          "name": "-IN",
          "gate": "G$1",
          "pad": "4",
          "package": "OPA344"
        },
        {
          "name": "1",
          "gate": "G$1",
          "pad": "P$1",
          "package": "R3"
        },
        {
          "name": "P$1",
          "gate": "G$1",
          "pad": "1",
          "package": "C4"
        }
      ],
      "wires": [
        {
          "x1": 0.762,
          "y1": 13.2588,
          "x2": 0.762,
          "y2": 12.192,
          "width": 0.1524,
          "layer": 16,
          "curve": 0.0
        },
        {
          "x1": 0.762,
          "y1": 12.192,
          "x2": 0.9,
          "y2": 12.1,
          "width": 0.1524,
          "layer": 16,
          "curve": 0.0
        },
        {
          "x1": 0.762,
          "y1": 13.2588,
          "x2": 0.7,
          "y2": 13.4,
          "width": 0.1524,
          "layer": 16,
          "curve": 0.0
        },
        {
          "x1": 5.0292,
          "y1": 8.6868,
          "x2": 5.0292,
          "y2": 7.62,
          "width": 0.1524,
          "layer": 16,
          "curve": 0.0
        },
        {
          "x1": 5.0292,
          "y1": 8.8392,
          "x2": 5.0292,
          "y2": 8.6868,
          "width": 0.1524,
          "layer": 1,
          "curve": 0.0
        },
        {
          "x1": 2.5908,
          "y1": 11.2776,
          "x2": 4.2672,
          "y2": 9.6012,
          "width": 0.1524,
          "layer": 1,
          "curve": 0.0
        },
        {
          "x1": 4.2672,
          "y1": 9.6012,
          "x2": 5.0292,
          "y2": 8.8392,
          "width": 0.1524,
          "layer": 1,
          "curve": 0.0
        },
        {
          "x1": 1.6764,
          "y1": 11.2776,
          "x2": 2.5908,
          "y2": 11.2776,
          "width": 0.1524,
          "layer": 1,
          "curve": 0.0
        },
        {
          "x1": 0.9144,
          "y1": 12.0396,
          "x2": 1.6764,
          "y2": 11.2776,
          "width": 0.1524,
          "layer": 16,
          "curve": 0.0
        },
        {
          "x1": 5.0292,
          "y1": 7.62,
          "x2": 5.15,
          "y2": 7.55,
          "width": 0.1524,
          "layer": 16,
          "curve": 0.0
        },
        {
          "x1": 0.9144,
          "y1": 12.0396,
          "x2": 0.9,
          "y2": 12.1,
          "width": 0.1524,
          "layer": 16,
          "curve": 0.0
        },
        {
          "x1": 0.9144,
          "y1": 3.6576,
          "x2": 0.9144,
          "y2": 1.9812,
          "width": 0.1524,
          "layer": 16,
          "curve": 0.0
        },
        {
          "x1": 0.9144,
          "y1": 4.1148,
          "x2": 0.9144,
          "y2": 3.6576,
          "width": 0.1524,
          "layer": 1,
          "curve": 0.0
        },
        {
          "x1": 3.6576,
          "y1": 6.858,
          "x2": 0.9144,
          "y2": 4.1148,
          "width": 0.1524,
          "layer": 1,
          "curve": 0.0
        },
        {
          "x1": 3.6576,
          "y1": 8.9916,
          "x2": 3.6576,
          "y2": 6.858,
          "width": 0.1524,
          "layer": 1,
          "curve": 0.0
        },
        {
          "x1": 4.2672,
          "y1": 9.6012,
          "x2": 3.6576,
          "y2": 8.9916,
          "width": 0.1524,
          "layer": 1,
          "curve": 0.0
        },
        {
          "x1": 0.9144,
          "y1": 1.9812,
          "x2": 0.9,
          "y2": 1.9,
          "width": 0.1524,
          "layer": 16,
          "curve": 0.0
        }
      ],
      "vias": [
        {
          "x": 5.0292,
          "y": 8.6868,
          "drill": 0.3048,
          "layerBegin": 1,
          "layerEnd": 16
        },
        {
          "x": 1.6764,
          "y": 11.2776,
          "drill": 0.3048,
          "layerBegin": 1,
          "layerEnd": 16
        },
        {
          "x": 0.9144,
          "y": 3.6576,
          "drill": 0.3048,
          "layerBegin": 1,
          "layerEnd": 16
        }
      ],
      "polygons": []
    },
    {
      "name": "N$5",
      "length": 26.007240493910619,
      "bends": 26,
      "RelComponentID": null,
      "pins": [
        {
          "name": "P$2",
          "gate": "G$1",
          "pad": "2",
          "package": "C4"
        },
        {
          "name": "C",
          "gate": "G$1",
          "pad": "P$1",
          "package": "D4"
        },
        {
          "name": "A",
          "gate": "G$1",
          "pad": "P$2",
          "package": "D1"
        },
        {
          "name": "P$1",
          "gate": "G$1",
          "pad": "1",
          "package": "C5"
        },
        {
          "name": "OUT",
          "gate": "G$1",
          "pad": "1",
          "package": "OPA344"
        },
        {
          "name": "2",
          "gate": "G$1",
          "pad": "P$2",
          "package": "R3"
        }
      ],
      "wires": [
        {
          "x1": 7.0104,
          "y1": 6.4008,
          "x2": 7.0104,
          "y2": 4.8768,
          "width": 0.1524,
          "layer": 16,
          "curve": 0.0
        },
        {
          "x1": 6.4008,
          "y1": 7.0104,
          "x2": 7.0104,
          "y2": 6.4008,
          "width": 0.1524,
          "layer": 16,
          "curve": 0.0
        },
        {
          "x1": 6.4008,
          "y1": 8.8392,
          "x2": 6.4008,
          "y2": 7.0104,
          "width": 0.1524,
          "layer": 16,
          "curve": 0.0
        },
        {
          "x1": 7.3152,
          "y1": 9.7536,
          "x2": 6.4008,
          "y2": 8.8392,
          "width": 0.1524,
          "layer": 16,
          "curve": 0.0
        },
        {
          "x1": 7.0104,
          "y1": 4.8768,
          "x2": 7.05,
          "y2": 4.85,
          "width": 0.1524,
          "layer": 16,
          "curve": 0.0
        },
        {
          "x1": 7.3152,
          "y1": 9.7536,
          "x2": 7.4,
          "y2": 9.8,
          "width": 0.1524,
          "layer": 16,
          "curve": 0.0
        },
        {
          "x1": 1.9812,
          "y1": 12.954,
          "x2": 1.9812,
          "y2": 12.192,
          "width": 0.1524,
          "layer": 16,
          "curve": 0.0
        },
        {
          "x1": 2.286,
          "y1": 13.2588,
          "x2": 1.9812,
          "y2": 12.954,
          "width": 0.1524,
          "layer": 16,
          "curve": 0.0
        },
        {
          "x1": 1.9812,
          "y1": 12.192,
          "x2": 1.9,
          "y2": 12.1,
          "width": 0.1524,
          "layer": 16,
          "curve": 0.0
        },
        {
          "x1": 2.286,
          "y1": 13.2588,
          "x2": 2.3,
          "y2": 13.4,
          "width": 0.1524,
          "layer": 16,
          "curve": 0.0
        },
        {
          "x1": 2.5908,
          "y1": 13.5636,
          "x2": 3.6576,
          "y2": 13.5636,
          "width": 0.1524,
          "layer": 16,
          "curve": 0.0
        },
        {
          "x1": 2.4384,
          "y1": 13.4112,
          "x2": 2.5908,
          "y2": 13.5636,
          "width": 0.1524,
          "layer": 16,
          "curve": 0.0
        },
        {
          "x1": 3.6576,
          "y1": 13.5636,
          "x2": 3.765,
          "y2": 13.6,
          "width": 0.1524,
          "layer": 16,
          "curve": 0.0
        },
        {
          "x1": 2.4384,
          "y1": 13.4112,
          "x2": 2.3,
          "y2": 13.4,
          "width": 0.1524,
          "layer": 16,
          "curve": 0.0
        },
        {
          "x1": 9.906,
          "y1": 11.5824,
          "x2": 11.7348,
          "y2": 11.5824,
          "width": 0.1524,
          "layer": 16,
          "curve": 0.0
        },
        {
          "x1": 8.6868,
          "y1": 12.8016,
          "x2": 9.906,
          "y2": 11.5824,
          "width": 0.1524,
          "layer": 16,
          "curve": 0.0
        },
        {
          "x1": 4.572,
          "y1": 12.8016,
          "x2": 8.6868,
          "y2": 12.8016,
          "width": 0.1524,
          "layer": 16,
          "curve": 0.0
        },
        {
          "x1": 3.81,
          "y1": 13.5636,
          "x2": 4.572,
          "y2": 12.8016,
          "width": 0.1524,
          "layer": 16,
          "curve": 0.0
        },
        {
          "x1": 11.7348,
          "y1": 11.5824,
          "x2": 11.835,
          "y2": 11.5,
          "width": 0.1524,
          "layer": 16,
          "curve": 0.0
        },
        {
          "x1": 3.81,
          "y1": 13.5636,
          "x2": 3.765,
          "y2": 13.6,
          "width": 0.1524,
          "layer": 16,
          "curve": 0.0
        },
        {
          "x1": 5.7912,
          "y1": 7.0104,
          "x2": 6.4008,
          "y2": 7.0104,
          "width": 0.1524,
          "layer": 16,
          "curve": 0.0
        },
        {
          "x1": 5.4864,
          "y1": 6.7056,
          "x2": 5.7912,
          "y2": 7.0104,
          "width": 0.1524,
          "layer": 16,
          "curve": 0.0
        },
        {
          "x1": 4.7244,
          "y1": 6.7056,
          "x2": 5.4864,
          "y2": 6.7056,
          "width": 0.1524,
          "layer": 16,
          "curve": 0.0
        },
        {
          "x1": 3.6576,
          "y1": 7.7724,
          "x2": 4.7244,
          "y2": 6.7056,
          "width": 0.1524,
          "layer": 16,
          "curve": 0.0
        },
        {
          "x1": 3.6576,
          "y1": 10.2108,
          "x2": 3.6576,
          "y2": 7.7724,
          "width": 0.1524,
          "layer": 16,
          "curve": 0.0
        },
        {
          "x1": 1.8288,
          "y1": 12.0396,
          "x2": 3.6576,
          "y2": 10.2108,
          "width": 0.1524,
          "layer": 16,
          "curve": 0.0
        },
        {
          "x1": 1.8288,
          "y1": 12.0396,
          "x2": 1.9,
          "y2": 12.1,
          "width": 0.1524,
          "layer": 16,
          "curve": 0.0
        }
      ],
      "vias": [],
      "polygons": []
    },
    {
      "name": "N$6",
      "length": 6.490133313790226,
      "bends": 6,
      "RelComponentID": null,
      "pins": [
        {
          "name": "P$1",
          "gate": "G$1",
          "pad": "1",
          "package": "CBYP"
        },
        {
          "name": "V+",
          "gate": "G$1",
          "pad": "5",
          "package": "OPA344"
        },
        {
          "name": "2",
          "gate": "G$1",
          "pad": "P$2",
          "package": "R5"
        }
      ],
      "wires": [
        {
          "x1": 10.668,
          "y1": 5.334,
          "x2": 10.668,
          "y2": 3.5052,
          "width": 0.1524,
          "layer": 16,
          "curve": 0.0
        },
        {
          "x1": 8.5344,
          "y1": 7.4676,
          "x2": 10.668,
          "y2": 5.334,
          "width": 0.1524,
          "layer": 16,
          "curve": 0.0
        },
        {
          "x1": 10.668,
          "y1": 3.5052,
          "x2": 10.7,
          "y2": 3.5,
          "width": 0.1524,
          "layer": 16,
          "curve": 0.0
        },
        {
          "x1": 8.5344,
          "y1": 7.4676,
          "x2": 8.4,
          "y2": 7.5,
          "width": 0.1524,
          "layer": 16,
          "curve": 0.0
        },
        {
          "x1": 8.382,
          "y1": 7.62,
          "x2": 7.1628,
          "y2": 7.62,
          "width": 0.1524,
          "layer": 16,
          "curve": 0.0
        },
        {
          "x1": 7.1628,
          "y1": 7.62,
          "x2": 7.05,
          "y2": 7.55,
          "width": 0.1524,
          "layer": 16,
          "curve": 0.0
        },
        {
          "x1": 8.382,
          "y1": 7.62,
          "x2": 8.4,
          "y2": 7.5,
          "width": 0.1524,
          "layer": 16,
          "curve": 0.0
        }
      ],
      "vias": [],
      "polygons": []
    },
    {
      "name": "N$7",
      "length": 1.6115595222840107,
      "bends": 2,
      "RelComponentID": null,
      "pins": [
        {
          "name": "C",
          "gate": "G$1",
          "pad": "P$1",
          "package": "D1"
        },
        {
          "name": "A",
          "gate": "G$1",
          "pad": "P$2",
          "package": "D2"
        }
      ],
      "wires": [
        {
          "x1": 8.5344,
          "y1": 11.5824,
          "x2": 7.1628,
          "y2": 11.5824,
          "width": 0.1524,
          "layer": 16,
          "curve": 0.0
        },
        {
          "x1": 7.1628,
          "y1": 11.5824,
          "x2": 7.035,
          "y2": 11.5,
          "width": 0.1524,
          "layer": 16,
          "curve": 0.0
        },
        {
          "x1": 8.5344,
          "y1": 11.5824,
          "x2": 8.565,
          "y2": 11.5,
          "width": 0.1524,
          "layer": 16,
          "curve": 0.0
        }
      ],
      "vias": [],
      "polygons": []
    },
    {
      "name": "N$8",
      "length": 1.5520359934743282,
      "bends": 2,
      "RelComponentID": null,
      "pins": [
        {
          "name": "C",
          "gate": "G$1",
          "pad": "P$1",
          "package": "D3"
        },
        {
          "name": "A",
          "gate": "G$1",
          "pad": "P$2",
          "package": "D4"
        }
      ],
      "wires": [
        {
          "x1": 8.5344,
          "y1": 13.5636,
          "x2": 7.1628,
          "y2": 13.5636,
          "width": 0.1524,
          "layer": 16,
          "curve": 0.0
        },
        {
          "x1": 7.1628,
          "y1": 13.5636,
          "x2": 7.035,
          "y2": 13.6,
          "width": 0.1524,
          "layer": 16,
          "curve": 0.0
        },
        {
          "x1": 8.5344,
          "y1": 13.5636,
          "x2": 8.565,
          "y2": 13.6,
          "width": 0.1524,
          "layer": 16,
          "curve": 0.0
        }
      ],
      "vias": [],
      "polygons": []
    },
    {
      "name": "N$9",
      "length": 4.6661244253403886,
      "bends": 3,
      "RelComponentID": null,
      "pins": [
        {
          "name": "S",
          "gate": "G$1",
          "pad": "2",
          "package": "DistGain"
        },
        {
          "name": "1",
          "gate": "G$1",
          "pad": "P$1",
          "package": "R2"
        }
      ],
      "wires": [
        {
          "x1": 5.1816,
          "y1": 2.4384,
          "x2": 2.286,
          "y2": 2.4384,
          "width": 0.1524,
          "layer": 16,
          "curve": 0.0
        },
        {
          "x1": 6.2484,
          "y1": 1.3716,
          "x2": 5.1816,
          "y2": 2.4384,
          "width": 0.1524,
          "layer": 16,
          "curve": 0.0
        },
        {
          "x1": 2.286,
          "y1": 2.4384,
          "x2": 2.2,
          "y2": 2.4,
          "width": 0.1524,
          "layer": 16,
          "curve": 0.0
        },
        {
          "x1": 6.2484,
          "y1": 1.3716,
          "x2": 6.4,
          "y2": 1.3,
          "width": 0.1524,
          "layer": 16,
          "curve": 0.0
        }
      ],
      "vias": [],
      "polygons": []
    }
  ],
  "constraints": null,
  "border": null
}