<eagle version="6.5.0" xmlns="eagle">
  <drawing>
    <library>
      <packages>
        <package name="AYZ0203AGRLC" xmlns="eagle">
          <smd name="P$1" x="-4" y="2.825" dx="1" dy="1.15" layer="1" />
          <smd name="P$2" x="-2" y="2.825" dx="1" dy="1.15" layer="1" />
          <smd name="P$3" x="4" y="2.825" dx="1" dy="1.15" layer="1" />
          <smd name="P$4" x="-4" y="-2.825" dx="1" dy="1.15" layer="1" />
          <smd name="P$5" x="-2" y="-2.825" dx="1" dy="1.15" layer="1" />
          <smd name="P$6" x="4" y="-2.825" dx="1" dy="1.15" layer="1" />
          <smd name="P$7" x="0" y="2.825" dx="1" dy="1.15" layer="1" />
          <smd name="P$8" x="0" y="-2.825" dx="1" dy="1.15" layer="1" />
          <hole x="-2.75" y="0" drill="0.85" />
          <hole x="2.75" y="0" drill="0.85" />
          <wire x1="-4.9" y1="1.7" x2="-4.9" y2="-1.7" width="0.127" layer="21" />
          <wire x1="-4.9" y1="-1.7" x2="-2.3" y2="-1.7" width="0.127" layer="21" />
          <wire x1="-2.3" y1="-1.7" x2="-1.5" y2="-1.7" width="0.127" layer="21" />
          <wire x1="-1.5" y1="-1.7" x2="0" y2="-1.7" width="0.127" layer="21" />
          <wire x1="0" y1="-1.7" x2="2.2" y2="-1.7" width="0.127" layer="21" />
          <wire x1="2.2" y1="-1.7" x2="4.9" y2="-1.7" width="0.127" layer="21" />
          <wire x1="4.9" y1="-1.7" x2="4.9" y2="1.7" width="0.127" layer="21" />
          <wire x1="4.9" y1="1.7" x2="-4.9" y2="1.7" width="0.127" layer="21" />
          <wire x1="-2.3" y1="-1.7" x2="-2.3" y2="-0.7" width="0.127" layer="21" />
          <wire x1="-2.3" y1="-0.7" x2="-1.5" y2="-0.7" width="0.127" layer="21" />
          <wire x1="-1.5" y1="-0.7" x2="0" y2="-0.7" width="0.127" layer="21" />
          <wire x1="0" y1="-0.7" x2="2.2" y2="-0.7" width="0.127" layer="21" />
          <wire x1="2.2" y1="-0.7" x2="2.2" y2="-1.7" width="0.127" layer="21" />
          <wire x1="-1.5" y1="-1.7" x2="-1.5" y2="-0.7" width="0.127" layer="21" />
          <wire x1="0" y1="-1.7" x2="0" y2="-0.7" width="0.127" layer="21" />
          <text x="-4.5" y="4.25" size="1.27" layer="25">&gt;NAME</text>
          <circle x="-4.125" y="3.875" radius="0.125" width="0.3" layer="21" />
        </package>
      </packages>
      <symbols>
        <symbol name="AYZ0203AGRLC">
          <wire x1="-17.78" y1="10.16" x2="-17.78" y2="5.08" width="0.254" layer="94" />
          <wire x1="-17.78" y1="5.08" x2="-17.78" y2="0" width="0.254" layer="94" />
          <wire x1="-17.78" y1="0" x2="-17.78" y2="-5.08" width="0.254" layer="94" />
          <wire x1="-17.78" y1="-5.08" x2="-17.78" y2="-10.16" width="0.254" layer="94" />
          <wire x1="-17.78" y1="-10.16" x2="-2.54" y2="-10.16" width="0.254" layer="94" />
          <wire x1="-2.54" y1="-10.16" x2="2.54" y2="-10.16" width="0.254" layer="94" />
          <wire x1="2.54" y1="-10.16" x2="17.78" y2="-10.16" width="0.254" layer="94" />
          <wire x1="17.78" y1="-10.16" x2="17.78" y2="-5.08" width="0.254" layer="94" />
          <wire x1="17.78" y1="-5.08" x2="17.78" y2="0" width="0.254" layer="94" />
          <wire x1="17.78" y1="0" x2="17.78" y2="5.08" width="0.254" layer="94" />
          <wire x1="17.78" y1="5.08" x2="17.78" y2="10.16" width="0.254" layer="94" />
          <wire x1="17.78" y1="10.16" x2="-17.78" y2="10.16" width="0.254" layer="94" />
          <wire x1="-17.78" y1="5.08" x2="-10.16" y2="5.08" width="0.254" layer="94" />
          <wire x1="-17.78" y1="0" x2="-12.192" y2="0" width="0.254" layer="94" />
          <wire x1="-17.78" y1="-5.08" x2="-10.16" y2="-5.08" width="0.254" layer="94" />
          <wire x1="10.16" y1="5.08" x2="17.78" y2="5.08" width="0.254" layer="94" />
          <wire x1="12.192" y1="0" x2="17.78" y2="0" width="0.254" layer="94" />
          <wire x1="10.16" y1="-5.08" x2="17.78" y2="-5.08" width="0.254" layer="94" />
          <wire x1="-2.54" y1="-10.16" x2="-2.54" y2="0" width="0.254" layer="94" />
          <wire x1="2.54" y1="-10.16" x2="2.54" y2="0" width="0.254" layer="94" />
          <circle x="-5.08" y="0" radius="0.762" width="0.254" layer="94" />
          <circle x="5.08" y="0" radius="0.762" width="0.254" layer="94" />
          <wire x1="-5.588" y1="0.508" x2="-10.16" y2="5.08" width="0.254" layer="94" />
          <wire x1="5.588" y1="0.508" x2="10.16" y2="5.08" width="0.254" layer="94" />
          <wire x1="-4.318" y1="0" x2="-2.54" y2="0" width="0.254" layer="94" />
          <wire x1="2.54" y1="0" x2="4.318" y2="0" width="0.254" layer="94" />
          <pin name="1" x="-22.86" y="5.08" visible="pad" length="middle" />
          <pin name="2" x="-22.86" y="0" visible="pad" length="middle" />
          <pin name="3" x="-22.86" y="-5.08" visible="pad" length="middle" />
          <pin name="4" x="22.86" y="5.08" visible="pad" length="middle" rot="R180" />
          <pin name="5" x="22.86" y="0" visible="pad" length="middle" rot="R180" />
          <pin name="6" x="22.86" y="-5.08" visible="pad" length="middle" rot="R180" />
          <pin name="COMA" x="-2.54" y="-15.24" visible="pad" length="middle" rot="R90" />
          <pin name="COMB" x="2.54" y="-15.24" visible="pad" length="middle" rot="R90" />
          <text x="-16.51" y="6.35" size="1.27" layer="94">1</text>
          <text x="-16.51" y="1.27" size="1.27" layer="94">2</text>
          <text x="-16.51" y="-3.81" size="1.27" layer="94">3</text>
          <text x="15.24" y="6.35" size="1.27" layer="94">4</text>
          <text x="15.24" y="1.27" size="1.27" layer="94">5</text>
          <text x="15.24" y="-3.81" size="1.27" layer="94">6</text>
          <text x="-8.89" y="-8.89" size="1.27" layer="94">COMA</text>
          <text x="3.81" y="-8.89" size="1.27" layer="94">COMB</text>
          <text x="-17.78" y="13.97" size="1.778" layer="95">&gt;NAME</text>
          <text x="-17.78" y="11.43" size="1.778" layer="96">&gt;VALUE</text>
        </symbol>
      </symbols>
      <devicesets>
        <deviceset name="AYZ0203AGRLC">
          <gates>
            <gate name="G$1" symbol="AYZ0203AGRLC" x="0" y="0" />
          </gates>
          <devices>
            <device name="" package="AYZ0203AGRLC" xmlns="eagle">
              <connects>
                <connect gate="G$1" pin="1" pad="P$1" />
                <connect gate="G$1" pin="2" pad="P$2" />
                <connect gate="G$1" pin="3" pad="P$3" />
                <connect gate="G$1" pin="4" pad="P$4" />
                <connect gate="G$1" pin="5" pad="P$5" />
                <connect gate="G$1" pin="6" pad="P$6" />
                <connect gate="G$1" pin="COMA" pad="P$7" />
                <connect gate="G$1" pin="COMB" pad="P$8" />
              </connects>
              <technologies>
                <technology name="" />
              </technologies>
            </device>
          </devices>
        </deviceset>
      </devicesets>
    </library>
  </drawing>
</eagle>