<eagle version="6.5.0" xmlns="eagle">
  <drawing>
    <library>
      <packages>
        <package name="PHOTONSILK" xmlns="eagle">
          <wire x1="10.16" y1="-15.24" x2="10.16" y2="18.288" width="0.127" layer="21" />
          <wire x1="10.16" y1="18.288" x2="-10.16" y2="18.288" width="0.127" layer="21" />
          <wire x1="-10.16" y1="18.288" x2="-10.16" y2="-15.24" width="0.127" layer="21" />
          <wire x1="10.16" y1="-15.24" x2="8.636" y2="-18.288" width="0.127" layer="21" />
          <wire x1="8.636" y1="-18.288" x2="-8.636" y2="-18.288" width="0.127" layer="21" />
          <wire x1="-8.636" y1="-18.288" x2="-10.16" y2="-15.24" width="0.127" layer="21" />
        </package>
      </packages>
      <symbols />
      <devicesets>
        <deviceset name="PHOTONSILK">
          <gates />
          <devices>
            <device name="" package="PHOTONSILK" xmlns="eagle">
              <technologies>
                <technology name="" />
              </technologies>
            </device>
          </devices>
        </deviceset>
      </devicesets>
    </library>
  </drawing>
</eagle>