*Spice model for ksc1008ybu NPN Mosfet
.SUBCKT ksc1008ybu C B E
Q1 C B E 0 ksc1008
.model ksc1008 NPN (IS=1E-14 VAF=100 BF=200 IKF=0.3 XTB=1.5 BR=3 CJC=8E-12 CJE=25E-12 TR=100E-9 TF=400E-12 ITF=1 VTF=2 XTF=3 RB=10 RC=.3 RE=.2 Vceo=30 Icrating=800m  mfg=NXP)
.ENDS ksc1008ybu