<?xml version="1.0" encoding="utf-8"?>
<!DOCTYPE eagle SYSTEM "eagle.dtd">
<eagle version="6.6.0">
<drawing>
<settings>
<setting alwaysvectorfont="no"/>
<setting verticaltext="up"/>
</settings>
<grid distance="0.05" unitdist="inch" unit="inch" style="lines" multiple="1" display="yes" altdistance="0.025" altunitdist="inch" altunit="inch"/>
<layers>
</layers>
<library>
<packages>
<package name="3X12TERMINAL">
<pad name="1-1" x="0" y="0" drill="1.8" shape="square"/>
<pad name="2-1" x="-1.9" y="10.16" drill="1.8"/>
<pad name="3-1" x="0" y="19.05" drill="1.8"/>
<wire x1="-1.9" y1="-3.6" x2="47.62" y2="-3.6" width="0.1524" layer="21"/>
<wire x1="47.62" y1="-3.6" x2="47.62" y2="3.6" width="0.1524" layer="21"/>
<wire x1="47.62" y1="3.6" x2="45.72" y2="3.6" width="0.1524" layer="21"/>
<wire x1="45.72" y1="3.6" x2="45.72" y2="14.4" width="0.1524" layer="21"/>
<wire x1="45.72" y1="14.4" x2="47.62" y2="14.4" width="0.1524" layer="21"/>
<wire x1="47.62" y1="14.4" x2="47.62" y2="21.6" width="0.1524" layer="21"/>
<wire x1="47.62" y1="21.6" x2="-1.9" y2="21.6" width="0.1524" layer="21"/>
<wire x1="-1.9" y1="21.6" x2="-1.9" y2="14.4" width="0.1524" layer="21"/>
<wire x1="-1.9" y1="14.4" x2="-3.8" y2="14.4" width="0.1524" layer="21"/>
<wire x1="-3.8" y1="14.4" x2="-3.8" y2="3.6" width="0.1524" layer="21"/>
<wire x1="-3.8" y1="3.6" x2="-1.9" y2="3.6" width="0.1524" layer="21"/>
<wire x1="-1.9" y1="3.6" x2="-1.9" y2="-3.6" width="0.1524" layer="21"/>
<text x="-5.08" y="4.445" size="1.016" layer="25" font="vector" ratio="15" rot="R90">&gt;NAME</text>
<pad name="1-2" x="3.81" y="0" drill="1.8"/>
<pad name="1-3" x="7.62" y="0" drill="1.8"/>
<pad name="1-4" x="11.43" y="0" drill="1.8"/>
<pad name="1-5" x="15.24" y="0" drill="1.8"/>
<pad name="1-6" x="19.05" y="0" drill="1.8"/>
<pad name="1-7" x="22.86" y="0" drill="1.8"/>
<pad name="1-8" x="26.67" y="0" drill="1.8"/>
<pad name="1-9" x="30.48" y="0" drill="1.8"/>
<pad name="1-10" x="34.29" y="0" drill="1.8"/>
<pad name="1-11" x="38.1" y="0" drill="1.8"/>
<pad name="1-12" x="41.91" y="0" drill="1.8"/>
<pad name="2-2" x="1.91" y="10.16" drill="1.8"/>
<pad name="2-3" x="5.72" y="10.16" drill="1.8"/>
<pad name="2-4" x="9.53" y="10.16" drill="1.8"/>
<pad name="2-5" x="13.34" y="10.16" drill="1.8"/>
<pad name="2-6" x="17.15" y="10.16" drill="1.8"/>
<pad name="2-7" x="20.96" y="10.16" drill="1.8"/>
<pad name="2-8" x="24.77" y="10.16" drill="1.8"/>
<pad name="2-9" x="28.58" y="10.16" drill="1.8"/>
<pad name="2-10" x="32.39" y="10.16" drill="1.8"/>
<pad name="2-11" x="36.2" y="10.16" drill="1.8"/>
<pad name="2-12" x="40.01" y="10.16" drill="1.8"/>
<pad name="3-2" x="3.81" y="19.05" drill="1.8"/>
<pad name="3-3" x="7.62" y="19.05" drill="1.8"/>
<pad name="3-4" x="11.43" y="19.05" drill="1.8"/>
<pad name="3-5" x="15.24" y="19.05" drill="1.8"/>
<pad name="3-6" x="19.05" y="19.05" drill="1.8"/>
<pad name="3-7" x="22.86" y="19.05" drill="1.8"/>
<pad name="3-8" x="26.67" y="19.05" drill="1.8"/>
<pad name="3-9" x="30.48" y="19.05" drill="1.8"/>
<pad name="3-10" x="34.29" y="19.05" drill="1.8"/>
<pad name="3-11" x="38.1" y="19.05" drill="1.8"/>
<pad name="3-12" x="41.91" y="19.05" drill="1.8"/>
</package>
</packages>
<symbols>
<symbol name="36TERMINALBLOCK">
<pin name="1-1" x="-12.7" y="10.16" length="middle" direction="pas"/>
<pin name="2-1" x="0" y="10.16" length="middle" direction="pas"/>
<pin name="3-1" x="12.7" y="10.16" length="middle" direction="pas"/>
<pin name="1-2" x="-12.7" y="7.62" length="middle" direction="pas"/>
<pin name="2-2" x="0" y="7.62" length="middle" direction="pas"/>
<pin name="3-2" x="12.7" y="7.62" length="middle" direction="pas"/>
<pin name="1-3" x="-12.7" y="5.08" length="middle" direction="pas"/>
<pin name="2-3" x="0" y="5.08" length="middle" direction="pas"/>
<pin name="3-3" x="12.7" y="5.08" length="middle" direction="pas"/>
<pin name="1-4" x="-12.7" y="2.54" length="middle" direction="pas"/>
<pin name="2-4" x="0" y="2.54" length="middle" direction="pas"/>
<pin name="3-4" x="12.7" y="2.54" length="middle" direction="pas"/>
<pin name="1-5" x="-12.7" y="0" length="middle" direction="pas"/>
<pin name="2-5" x="0" y="0" length="middle" direction="pas"/>
<pin name="3-5" x="12.7" y="0" length="middle" direction="pas"/>
<pin name="1-6" x="-12.7" y="-2.54" length="middle" direction="pas"/>
<pin name="2-6" x="0" y="-2.54" length="middle" direction="pas"/>
<pin name="3-6" x="12.7" y="-2.54" length="middle" direction="pas"/>
<pin name="1-7" x="-12.7" y="-5.08" length="middle" direction="pas"/>
<pin name="2-7" x="0" y="-5.08" length="middle" direction="pas"/>
<pin name="3-7" x="12.7" y="-5.08" length="middle" direction="pas"/>
<pin name="1-8" x="-12.7" y="-7.62" length="middle" direction="pas"/>
<pin name="2-8" x="0" y="-7.62" length="middle" direction="pas"/>
<pin name="3-8" x="12.7" y="-7.62" length="middle" direction="pas"/>
<pin name="1-9" x="-12.7" y="-10.16" length="middle" direction="pas"/>
<pin name="2-9" x="0" y="-10.16" length="middle" direction="pas"/>
<pin name="3-9" x="12.7" y="-10.16" length="middle" direction="pas"/>
<pin name="1-10" x="-12.7" y="-12.7" length="middle" direction="pas"/>
<pin name="2-10" x="0" y="-12.7" length="middle" direction="pas"/>
<pin name="3-10" x="12.7" y="-12.7" length="middle" direction="pas"/>
<pin name="1-11" x="-12.7" y="-15.24" length="middle" direction="pas"/>
<pin name="2-11" x="0" y="-15.24" length="middle" direction="pas"/>
<pin name="3-11" x="12.7" y="-15.24" length="middle" direction="pas"/>
<pin name="1-12" x="-12.7" y="-17.78" length="middle" direction="pas"/>
<pin name="2-12" x="0" y="-17.78" length="middle" direction="pas"/>
<pin name="3-12" x="12.7" y="-17.78" length="middle" direction="pas"/>
<wire x1="-10.16" y1="12.7" x2="-10.16" y2="-20.32" width="0.254" layer="94"/>
<wire x1="-10.16" y1="-20.32" x2="-5.08" y2="-20.32" width="0.254" layer="94"/>
<wire x1="-10.16" y1="12.7" x2="-5.08" y2="12.7" width="0.254" layer="94"/>
<wire x1="2.54" y1="12.7" x2="2.54" y2="-20.32" width="0.254" layer="94"/>
<wire x1="2.54" y1="-20.32" x2="7.62" y2="-20.32" width="0.254" layer="94"/>
<wire x1="2.54" y1="12.7" x2="7.62" y2="12.7" width="0.254" layer="94"/>
<wire x1="15.24" y1="12.7" x2="15.24" y2="-20.32" width="0.254" layer="94"/>
<wire x1="15.24" y1="-20.32" x2="20.32" y2="-20.32" width="0.254" layer="94"/>
<wire x1="15.24" y1="12.7" x2="20.32" y2="12.7" width="0.254" layer="94"/>
<text x="-10.16" y="15.24" size="1.778" layer="95">&gt;NAME</text>
<text x="-10.16" y="12.7" size="1.778" layer="95">&gt;VALUE</text>
</symbol>
</symbols>
<devicesets>
<deviceset name="1727832">
<gates>
<gate name="G$1" symbol="36TERMINALBLOCK" x="0" y="0"/>
</gates>
<devices>
<device name="" package="3X12TERMINAL">
<connects>
<connect gate="G$1" pin="1-1" pad="1-1"/>
<connect gate="G$1" pin="1-10" pad="1-10"/>
<connect gate="G$1" pin="1-11" pad="1-11"/>
<connect gate="G$1" pin="1-12" pad="1-12"/>
<connect gate="G$1" pin="1-2" pad="1-2"/>
<connect gate="G$1" pin="1-3" pad="1-3"/>
<connect gate="G$1" pin="1-4" pad="1-4"/>
<connect gate="G$1" pin="1-5" pad="1-5"/>
<connect gate="G$1" pin="1-6" pad="1-6"/>
<connect gate="G$1" pin="1-7" pad="1-7"/>
<connect gate="G$1" pin="1-8" pad="1-8"/>
<connect gate="G$1" pin="1-9" pad="1-9"/>
<connect gate="G$1" pin="2-1" pad="2-1"/>
<connect gate="G$1" pin="2-10" pad="2-10"/>
<connect gate="G$1" pin="2-11" pad="2-11"/>
<connect gate="G$1" pin="2-12" pad="2-12"/>
<connect gate="G$1" pin="2-2" pad="2-2"/>
<connect gate="G$1" pin="2-3" pad="2-3"/>
<connect gate="G$1" pin="2-4" pad="2-4"/>
<connect gate="G$1" pin="2-5" pad="2-5"/>
<connect gate="G$1" pin="2-6" pad="2-6"/>
<connect gate="G$1" pin="2-7" pad="2-7"/>
<connect gate="G$1" pin="2-8" pad="2-8"/>
<connect gate="G$1" pin="2-9" pad="2-9"/>
<connect gate="G$1" pin="3-1" pad="3-1"/>
<connect gate="G$1" pin="3-10" pad="3-10"/>
<connect gate="G$1" pin="3-11" pad="3-11"/>
<connect gate="G$1" pin="3-12" pad="3-12"/>
<connect gate="G$1" pin="3-2" pad="3-2"/>
<connect gate="G$1" pin="3-3" pad="3-3"/>
<connect gate="G$1" pin="3-4" pad="3-4"/>
<connect gate="G$1" pin="3-5" pad="3-5"/>
<connect gate="G$1" pin="3-6" pad="3-6"/>
<connect gate="G$1" pin="3-7" pad="3-7"/>
<connect gate="G$1" pin="3-8" pad="3-8"/>
<connect gate="G$1" pin="3-9" pad="3-9"/>
</connects>
<technologies>
<technology name=""/>
</technologies>
</device>
</devices>
</deviceset>
</devicesets>
</library>
</drawing>
</eagle>
