<eagle version="6.5.0" xmlns="eagle">
  <drawing>
    <library>
      <packages>
        <package name="STACKING_MONO-JACK" xmlns="eagle">
          <pad name="G" x="-1.73" y="5.96" drill="1.5" shape="square" rot="R90" />
          <pad name="SB" x="-4.61" y="7.23" drill="1.5" />
          <pad name="ST" x="-7.78" y="8.5" drill="1.5" />
          <pad name="TB" x="-17.3" y="7.23" drill="1.5" />
          <pad name="TT" x="-20.48" y="8.5" drill="1.5" />
          <pad name="TNT" x="-20.48" y="-4.2" drill="1.5" />
          <pad name="SNT" x="-7.78" y="-4.2" drill="1.5" />
          <pad name="TNB" x="-17.3" y="-5.47" drill="1.5" />
          <pad name="SNB" x="-4.61" y="-5.47" drill="1.5" />
          <wire x1="0" y1="9.8" x2="-24.3" y2="9.8" width="0.15239999999999998" layer="21" />
          <wire x1="-24.3" y1="9.8" x2="-24.3" y2="-7.2" width="0.15239999999999998" layer="21" />
          <wire x1="-24.3" y1="-7.2" x2="0" y2="-7.2" width="0.15239999999999998" layer="21" />
          <wire x1="0" y1="-4" x2="8" y2="-4" width="0.15239999999999998" layer="51" />
          <wire x1="8" y1="-4" x2="8" y2="4" width="0.15239999999999998" layer="51" />
          <wire x1="8" y1="4" x2="0" y2="4" width="0.15239999999999998" layer="51" />
          <text x="-22" y="10" size="1.016" layer="25" ratio="15" font="vector">&gt;NAME</text>
          <wire x1="0" y1="9.8" x2="0" y2="-7.2" width="0.15239999999999998" layer="21" />
        </package>
      </packages>
      <symbols>
        <symbol name="DUALJACK">
          <pin name="TT" x="-12.7" y="12.7" length="middle" direction="pas" />
          <wire x1="-7.62" y1="12.7" x2="5.08" y2="12.7" width="0.254" layer="94" />
          <wire x1="5.08" y1="12.7" x2="7.62" y2="10.16" width="0.254" layer="94" />
          <wire x1="7.62" y1="10.16" x2="10.16" y2="12.7" width="0.254" layer="94" />
          <pin name="TNT" x="-12.7" y="7.62" length="middle" direction="pas" />
          <wire x1="-7.62" y1="7.62" x2="2.54" y2="7.62" width="0.254" layer="94" />
          <wire x1="2.54" y1="7.62" x2="2.54" y2="12.446" width="0.254" layer="94" />
          <wire x1="2.54" y1="12.446" x2="2.286" y2="12.192" width="0.254" layer="94" />
          <wire x1="2.286" y1="12.192" x2="2.794" y2="12.192" width="0.254" layer="94" />
          <wire x1="2.794" y1="12.192" x2="2.54" y2="12.446" width="0.254" layer="94" />
          <pin name="ST" x="-12.7" y="5.08" length="middle" direction="pas" />
          <wire x1="-7.62" y1="5.08" x2="10.16" y2="5.08" width="0.254" layer="94" />
          <pin name="G" x="-12.7" y="-15.24" length="middle" direction="pas" />
          <wire x1="-7.62" y1="-15.24" x2="5.08" y2="-15.24" width="0.254" layer="94" />
          <wire x1="5.08" y1="-15.24" x2="5.08" y2="-17.78" width="0.254" layer="94" />
          <wire x1="5.08" y1="-17.78" x2="2.54" y2="-17.78" width="0.254" layer="94" />
          <wire x1="5.08" y1="-17.78" x2="7.62" y2="-17.78" width="0.254" layer="94" />
          <wire x1="3.556" y1="-18.542" x2="6.604" y2="-18.542" width="0.254" layer="94" />
          <wire x1="4.318" y1="-19.304" x2="5.842" y2="-19.304" width="0.254" layer="94" />
          <wire x1="10.16" y1="5.08" x2="12.7" y2="2.54" width="0.254" layer="94" />
          <wire x1="12.7" y1="2.54" x2="15.24" y2="5.08" width="0.254" layer="94" />
          <pin name="SNT" x="-12.7" y="2.54" length="middle" direction="pas" />
          <wire x1="-7.62" y1="2.54" x2="7.62" y2="2.54" width="0.254" layer="94" />
          <wire x1="7.62" y1="2.54" x2="7.62" y2="4.826" width="0.254" layer="94" />
          <wire x1="7.62" y1="4.826" x2="7.366" y2="4.572" width="0.254" layer="94" />
          <wire x1="7.366" y1="4.572" x2="7.874" y2="4.572" width="0.254" layer="94" />
          <wire x1="7.874" y1="4.572" x2="7.62" y2="4.826" width="0.254" layer="94" />
          <pin name="TB" x="-12.7" y="-2.54" length="middle" direction="pas" />
          <wire x1="-7.62" y1="-2.54" x2="5.08" y2="-2.54" width="0.254" layer="94" />
          <wire x1="5.08" y1="-2.54" x2="7.62" y2="-5.08" width="0.254" layer="94" />
          <wire x1="7.62" y1="-5.08" x2="10.16" y2="-2.54" width="0.254" layer="94" />
          <pin name="TNB" x="-12.7" y="-7.62" length="middle" direction="pas" />
          <wire x1="-7.62" y1="-7.62" x2="2.54" y2="-7.62" width="0.254" layer="94" />
          <wire x1="2.54" y1="-7.62" x2="2.54" y2="-2.794" width="0.254" layer="94" />
          <wire x1="2.54" y1="-2.794" x2="2.286" y2="-3.048" width="0.254" layer="94" />
          <wire x1="2.286" y1="-3.048" x2="2.794" y2="-3.048" width="0.254" layer="94" />
          <wire x1="2.794" y1="-3.048" x2="2.54" y2="-2.794" width="0.254" layer="94" />
          <pin name="SB" x="-12.7" y="-10.16" length="middle" direction="pas" />
          <wire x1="-7.62" y1="-10.16" x2="10.16" y2="-10.16" width="0.254" layer="94" />
          <wire x1="10.16" y1="-10.16" x2="12.7" y2="-12.7" width="0.254" layer="94" />
          <wire x1="12.7" y1="-12.7" x2="15.24" y2="-10.16" width="0.254" layer="94" />
          <pin name="SNB" x="-12.7" y="-12.7" length="middle" direction="pas" />
          <wire x1="-7.62" y1="-12.7" x2="7.62" y2="-12.7" width="0.254" layer="94" />
          <wire x1="7.62" y1="-12.7" x2="7.62" y2="-10.414" width="0.254" layer="94" />
          <wire x1="7.62" y1="-10.414" x2="7.366" y2="-10.668" width="0.254" layer="94" />
          <wire x1="7.366" y1="-10.668" x2="7.874" y2="-10.668" width="0.254" layer="94" />
          <wire x1="7.874" y1="-10.668" x2="7.62" y2="-10.414" width="0.254" layer="94" />
          <wire x1="-7.62" y1="-13.97" x2="-7.62" y2="-1.27" width="0.254" layer="94" />
          <wire x1="-7.62" y1="-1.27" x2="17.78" y2="-1.27" width="0.254" layer="94" />
          <wire x1="17.78" y1="-1.27" x2="17.78" y2="-13.97" width="0.254" layer="94" />
          <wire x1="17.78" y1="-13.97" x2="-7.62" y2="-13.97" width="0.254" layer="94" />
          <wire x1="-7.62" y1="14.224" x2="-7.62" y2="1.27" width="0.254" layer="94" />
          <wire x1="-7.62" y1="1.27" x2="17.78" y2="1.27" width="0.254" layer="94" />
          <wire x1="17.78" y1="1.27" x2="17.78" y2="14.224" width="0.254" layer="94" />
          <wire x1="17.78" y1="14.224" x2="-7.62" y2="14.224" width="0.254" layer="94" />
          <text x="-7.62" y="15.24" size="1.778" layer="94">top</text>
          <text x="-7.62" y="-0.508" size="1.778" layer="94">bottom</text>
          <text x="-2.54" y="17.78" size="1.778" layer="95">&gt;NAME</text>
          <text x="-2.54" y="15.24" size="1.778" layer="95">&gt;VALUE</text>
        </symbol>
      </symbols>
      <devicesets>
        <deviceset name="NSJ8HC">
          <gates>
            <gate name="G$1" symbol="DUALJACK" x="-2.54" y="0" />
          </gates>
          <devices>
            <device name="" package="STACKING_MONO-JACK" xmlns="eagle">
              <connects>
                <connect gate="G$1" pin="G" pad="G" />
                <connect gate="G$1" pin="SB" pad="SB" />
                <connect gate="G$1" pin="SNB" pad="SNB" />
                <connect gate="G$1" pin="SNT" pad="SNT" />
                <connect gate="G$1" pin="ST" pad="ST" />
                <connect gate="G$1" pin="TB" pad="TB" />
                <connect gate="G$1" pin="TNB" pad="TNB" />
                <connect gate="G$1" pin="TNT" pad="TNT" />
                <connect gate="G$1" pin="TT" pad="TT" />
              </connects>
              <technologies>
                <technology name="" />
              </technologies>
            </device>
          </devices>
        </deviceset>
      </devicesets>
    </library>
  </drawing>
</eagle>