<?xml version="1.0" encoding="utf-8"?>
<!DOCTYPE eagle SYSTEM "eagle.dtd">
<eagle version="6.6.0">
<drawing>
<settings>
<setting alwaysvectorfont="no"/>
<setting verticaltext="up"/>
</settings>
<grid distance="0.1" unitdist="inch" unit="inch" style="lines" multiple="1" display="no" altdistance="0.01" altunitdist="inch" altunit="inch"/>
<layers>
</layers>
<library>
<packages>
<package name="K0002C">
<pad name="ADJ" x="-5.46" y="-1.815" drill="1.2" diameter="2"/>
<pad name="VOUT" x="5.46" y="-1.815" drill="1.2" diameter="2"/>
<hole x="0" y="15.075" drill="4"/>
<hole x="0" y="-15.075" drill="4"/>
<wire x1="-12.7" y1="0" x2="-12.065" y2="3.81" width="0.127" layer="21"/>
<wire x1="-12.065" y1="3.81" x2="-1.905" y2="17.78" width="0.127" layer="21" curve="-53.130102"/>
<wire x1="-1.905" y1="17.78" x2="1.905" y2="17.78" width="0.127" layer="21" curve="-54.815157"/>
<wire x1="12.7" y1="0" x2="12.065" y2="-3.81" width="0.127" layer="21"/>
<wire x1="12.065" y1="-3.81" x2="1.905" y2="-17.78" width="0.127" layer="21" curve="-53.130102"/>
<wire x1="1.905" y1="-17.78" x2="-1.905" y2="-17.78" width="0.127" layer="21" curve="-54.815157"/>
<wire x1="12.7" y1="0" x2="12.065" y2="3.81" width="0.127" layer="21"/>
<wire x1="12.065" y1="3.81" x2="1.905" y2="17.78" width="0.127" layer="21" curve="53.130102"/>
<wire x1="-12.7" y1="0" x2="-12.065" y2="-3.81" width="0.127" layer="21"/>
<wire x1="-12.065" y1="-3.81" x2="-1.905" y2="-17.78" width="0.127" layer="21" curve="53.130102"/>
<smd name="P$3" x="0" y="5.445" dx="10" dy="10" layer="1"/>
<smd name="P$4" x="0" y="-7.26" dx="10" dy="7" layer="1"/>
<smd name="P$5" x="0" y="-1.815" dx="10" dy="5" layer="1" rot="R90"/>
<text x="-3.175" y="19.05" size="1.27" layer="25">&gt;NAME</text>
</package>
</packages>
<symbols>
<symbol name="NCP1117">
<wire x1="-10.16" y1="-2.54" x2="-10.16" y2="5.08" width="0.254" layer="94"/>
<wire x1="-10.16" y1="5.08" x2="10.16" y2="5.08" width="0.254" layer="94"/>
<wire x1="10.16" y1="5.08" x2="10.16" y2="-2.54" width="0.254" layer="94"/>
<wire x1="10.16" y1="-2.54" x2="-10.16" y2="-2.54" width="0.254" layer="94"/>
<pin name="IN" x="-12.7" y="2.54" length="short" direction="pas"/>
<pin name="ADJ" x="0" y="-5.08" length="short" direction="pas" rot="R90"/>
<pin name="OUT" x="12.7" y="2.54" length="short" direction="pas" rot="R180"/>
<text x="-7.62" y="10.16" size="1.778" layer="95">&gt;NAME</text>
<text x="-7.62" y="7.62" size="1.778" layer="96">&gt;VALUE</text>
</symbol>
</symbols>
<devicesets>
<deviceset name="LM337H">
<gates>
<gate name="G$1" symbol="NCP1117" x="0" y="-2.54"/>
</gates>
<devices>
<device name="" package="K0002C">
<connects>
<connect gate="G$1" pin="ADJ" pad="ADJ"/>
<connect gate="G$1" pin="IN" pad="P$3 P$4 P$5" route="any"/>
<connect gate="G$1" pin="OUT" pad="VOUT"/>
</connects>
<technologies>
<technology name=""/>
</technologies>
</device>
</devices>
</deviceset>
</devicesets>
</library>
</drawing>
</eagle>
