Version 4
SHEET 1 1700 680
WIRE 112 -224 -80 -224
WIRE 288 -224 112 -224
WIRE 656 -224 288 -224
WIRE 832 -224 656 -224
WIRE 1328 -224 832 -224
WIRE 1520 -224 1328 -224
WIRE 192 -176 176 -176
WIRE 224 -176 192 -176
WIRE 736 -176 720 -176
WIRE 768 -176 736 -176
WIRE 112 -96 112 -128
WIRE 192 -96 192 -176
WIRE 192 -96 112 -96
WIRE 736 -96 736 -176
WIRE 832 -96 832 -128
WIRE 832 -96 736 -96
WIRE 1520 -96 1520 -224
WIRE 112 -64 112 -96
WIRE 832 -48 832 -96
WIRE 1120 -32 1120 -144
WIRE 288 -16 288 -128
WIRE 288 -16 176 -16
WIRE 656 0 656 -128
WIRE 656 0 592 0
WIRE 768 0 656 0
WIRE 288 96 288 -16
WIRE 592 96 592 0
WIRE 1328 96 1328 -224
WIRE 1520 112 1520 -16
WIRE 1632 112 1520 112
WIRE 224 144 -80 144
WIRE 704 144 656 144
WIRE 832 144 832 48
WIRE 944 144 832 144
WIRE 1264 144 1216 144
WIRE 832 176 832 144
WIRE 832 176 768 176
WIRE 592 192 288 192
WIRE 704 240 704 144
WIRE 704 240 -80 240
WIRE 1520 240 1520 112
WIRE 768 256 768 176
WIRE 1328 288 1328 192
WIRE 1456 288 1328 288
WIRE 112 304 112 32
WIRE 576 304 112 304
WIRE 704 304 576 304
WIRE 768 368 768 352
WIRE 768 368 672 368
WIRE 1120 368 1120 48
WIRE 1216 368 1120 368
WIRE 96 400 -80 400
WIRE 192 400 96 400
WIRE 288 400 288 192
WIRE 576 400 576 304
WIRE 768 400 768 368
WIRE 1120 400 1120 368
WIRE 1328 400 1328 288
WIRE 192 448 192 400
WIRE 192 448 160 448
WIRE 224 448 192 448
WIRE 672 448 672 368
WIRE 672 448 640 448
WIRE 704 448 672 448
WIRE 1216 448 1216 368
WIRE 1216 448 1184 448
WIRE 1264 448 1216 448
WIRE 96 496 -80 496
WIRE 288 496 96 496
WIRE 576 496 288 496
WIRE 768 496 576 496
WIRE 1120 496 768 496
WIRE 1328 496 1120 496
WIRE 1520 496 1520 336
WIRE 1520 496 1328 496
FLAG -80 -224 9
FLAG -80 144 2
FLAG -80 240 3
FLAG -80 400 1
FLAG -80 496 5
FLAG 1632 112 8
FLAG 1216 144 7
FLAG 1120 -144 4
FLAG 944 144 6
SYMBOL npn 224 96 R0
SYMATTR InstName Q1
SYMATTR Value QPMP4201Y
SYMBOL pnp 176 -128 R180
SYMATTR InstName Q2
SYMATTR Value QPMP5201Y
SYMBOL pnp 224 -128 M180
SYMATTR InstName Q3
SYMATTR Value QPMP5201Y
SYMBOL pnp 176 32 R180
SYMATTR InstName Q4
SYMATTR Value QPMP5201Y
SYMBOL pnp 720 -128 R180
SYMATTR InstName Q5
SYMATTR Value QPMP5201Y
SYMBOL pnp 768 -128 M180
SYMATTR InstName Q6
SYMATTR Value QPMP5201Y
SYMBOL npn 656 96 M0
SYMATTR InstName Q7
SYMATTR Value QPMP4201Y
SYMBOL pnp 768 48 M180
SYMATTR InstName Q8
SYMATTR Value QPMP5201Y
SYMBOL npn 160 400 M0
SYMATTR InstName Q9
SYMATTR Value QPMP4201Y
SYMBOL npn 224 400 R0
SYMATTR InstName Q10
SYMATTR Value QPMP4201Y
SYMBOL npn 640 400 M0
SYMATTR InstName Q11
SYMATTR Value QPMP4201Y
SYMBOL npn 704 400 R0
SYMATTR InstName Q12
SYMATTR Value QPMP4201Y
SYMBOL npn 704 256 R0
SYMATTR InstName Q13
SYMATTR Value QPMP4201Y
SYMBOL npn 1264 96 R0
SYMATTR InstName Q14
SYMATTR Value QPMP4201Y
SYMBOL pnp 1456 336 M180
SYMATTR InstName Q15
SYMATTR Value QPMP5201Y
SYMBOL npn 1264 400 R0
SYMATTR InstName Q16
SYMATTR Value QPMP4201Y
SYMBOL npn 1184 400 M0
SYMATTR InstName Q17
SYMATTR Value QPMP4201Y
SYMBOL res 1104 -48 R0
SYMATTR InstName R1
SYMATTR Value 47k
SYMBOL res 1504 -112 R0
SYMATTR InstName R2
SYMATTR Value 10k
