<eagle version="6.5.0" xmlns="eagle">
  <drawing>
    <library>
      <packages>
        <package name="PTA4544" xmlns="eagle">
          <pad name="X1" x="-29.25" y="1.75" drill="1.5" />
          <pad name="Y1" x="-29.25" y="-1.75" drill="1.5" />
          <pad name="X3" x="29.25" y="1.75" drill="1.5" />
          <hole x="-23.9" y="4.2" drill="2" />
          <hole x="23.9" y="4.2" drill="2" />
          <hole x="-25.1" y="-4.2" drill="2" />
          <hole x="25.1" y="-4.2" drill="2" />
          <wire x1="-30.7" y1="6" x2="-30.7" y2="3.2" width="0.127" layer="21" />
          <wire x1="-30.7" y1="3.2" x2="-30.7" y2="-6" width="0.127" layer="21" />
          <wire x1="-30.7" y1="-6" x2="30.7" y2="-6" width="0.127" layer="21" />
          <wire x1="30.7" y1="-6" x2="30.7" y2="6" width="0.127" layer="21" />
          <wire x1="30.7" y1="6" x2="-27.9" y2="6" width="0.127" layer="21" />
          <circle x="-31.1" y="2.8" radius="0.1542" width="0" layer="21" />
          <wire x1="-27.9" y1="6" x2="-30.7" y2="6" width="0.127" layer="21" />
          <wire x1="-30.7" y1="3.2" x2="-27.9" y2="6" width="0.127" layer="21" />
          <text x="-30.9" y="-6" size="1.27" layer="25" rot="R90">&gt;NAME</text>
          <pad name="Y3" x="29.17" y="-1.75" drill="1.5" />
          <pad name="X2" x="-24" y="1" drill="1.5" />
          <pad name="Y2" x="24" y="-1" drill="1.5" />
        </package>
      </packages>
      <symbols>
        <symbol name="DUALPOT">
          <wire x1="-8.382" y1="2.54" x2="-8.382" y2="-2.54" width="0.254" layer="94" />
          <wire x1="-6.858" y1="-2.54" x2="-6.858" y2="2.54" width="0.254" layer="94" />
          <wire x1="-5.08" y1="0" x2="-5.969" y2="0" width="0.1524" layer="94" />
          <wire x1="-6.858" y1="2.54" x2="-8.382" y2="2.54" width="0.254" layer="94" />
          <wire x1="-8.382" y1="-2.54" x2="-6.858" y2="-2.54" width="0.254" layer="94" />
          <wire x1="-10.16" y1="-3.683" x2="-10.16" y2="-1.143" width="0.1524" layer="94" />
          <wire x1="-10.16" y1="-1.143" x2="-10.795" y2="-2.413" width="0.1524" layer="94" />
          <wire x1="-10.795" y1="-2.413" x2="-9.525" y2="-2.413" width="0.1524" layer="94" />
          <wire x1="-9.525" y1="-2.413" x2="-10.16" y2="-1.143" width="0.1524" layer="94" />
          <wire x1="-5.969" y1="0" x2="-9.906" y2="2.54" width="0.1524" layer="94" />
          <wire x1="-10.287" y1="1.905" x2="-9.906" y2="2.54" width="0.1524" layer="94" />
          <wire x1="-9.906" y1="2.54" x2="-9.525" y2="3.175" width="0.1524" layer="94" />
          <text x="-13.335" y="-3.81" size="1.778" layer="95" ratio="10" rot="R90">&gt;NAME</text>
          <text x="-11.43" y="-3.81" size="1.778" layer="96" ratio="10" rot="R90">&gt;VALUE</text>
          <text x="-9.525" y="-4.953" size="1.778" layer="94" rot="R90">1</text>
          <text x="-9.525" y="-0.508" size="1.778" layer="94" rot="R90">3</text>
          <pin name="X1" x="-7.62" y="-5.08" visible="pad" length="short" direction="pas" rot="R90" />
          <pin name="X3" x="-7.62" y="5.08" visible="pad" length="short" direction="pas" rot="R270" />
          <pin name="X2" x="-2.54" y="0" visible="pad" length="short" direction="pas" rot="R180" />
          <wire x1="4.318" y1="2.54" x2="4.318" y2="-2.54" width="0.254" layer="94" />
          <wire x1="5.842" y1="-2.54" x2="5.842" y2="2.54" width="0.254" layer="94" />
          <wire x1="7.62" y1="0" x2="6.731" y2="0" width="0.1524" layer="94" />
          <wire x1="5.842" y1="2.54" x2="4.318" y2="2.54" width="0.254" layer="94" />
          <wire x1="4.318" y1="-2.54" x2="5.842" y2="-2.54" width="0.254" layer="94" />
          <wire x1="2.54" y1="-3.683" x2="2.54" y2="-1.143" width="0.1524" layer="94" />
          <wire x1="2.54" y1="-1.143" x2="1.905" y2="-2.413" width="0.1524" layer="94" />
          <wire x1="1.905" y1="-2.413" x2="3.175" y2="-2.413" width="0.1524" layer="94" />
          <wire x1="3.175" y1="-2.413" x2="2.54" y2="-1.143" width="0.1524" layer="94" />
          <wire x1="6.731" y1="0" x2="2.794" y2="2.54" width="0.1524" layer="94" />
          <wire x1="2.413" y1="1.905" x2="2.794" y2="2.54" width="0.1524" layer="94" />
          <wire x1="2.794" y1="2.54" x2="3.175" y2="3.175" width="0.1524" layer="94" />
          <text x="3.175" y="-4.953" size="1.778" layer="94" rot="R90">1</text>
          <text x="3.175" y="-0.508" size="1.778" layer="94" rot="R90">3</text>
          <pin name="Y1" x="5.08" y="-5.08" visible="pad" length="short" direction="pas" rot="R90" />
          <pin name="Y3" x="5.08" y="5.08" visible="pad" length="short" direction="pas" rot="R270" />
          <pin name="Y2" x="10.16" y="0" visible="pad" length="short" direction="pas" rot="R180" />
        </symbol>
      </symbols>
      <devicesets>
        <deviceset name="PTA4544-2015DP-A103">
          <gates>
            <gate name="G$1" symbol="DUALPOT" x="0" y="0" />
          </gates>
          <devices>
            <device name="" package="PTA4544" xmlns="eagle">
              <connects>
                <connect gate="G$1" pin="X1" pad="X1" />
                <connect gate="G$1" pin="X2" pad="X2" />
                <connect gate="G$1" pin="X3" pad="X3" />
                <connect gate="G$1" pin="Y1" pad="Y1" />
                <connect gate="G$1" pin="Y2" pad="Y2" />
                <connect gate="G$1" pin="Y3" pad="Y3" />
              </connects>
              <technologies>
                <technology name="" />
              </technologies>
            </device>
          </devices>
        </deviceset>
      </devicesets>
    </library>
  </drawing>
</eagle>