{
  "boardWidth": 14.0,
  "boardHeight": 15.0,
  "boardEdgeSpace": 0.0,
  "interChipSpace": 0.0,
  "numLayers": 2,
  "boardTemplate": null,
  "designRules": "MacroFab_2_Layer.dru",
  "omitBoundary": null,
  "packages": [
    {
      "name": "Audio Distortor",
      "package": "__spaceClaim__",
      "pkg_idx": 0,
      "ComponentID": "db2186a1-da19-4d33-95dd-d70b515c4a10",
      "RelComponentID": null,
      "width": 15.0,
      "height": 15.0,
      "koWidth": null,
      "koHeight": null,
      "originX": null,
      "originY": null,
      "x": 0.0,
      "y": 0.0,
      "rotation": 0,
      "layer": 0,
      "constraints": null,
      "multiLayer": null,
      "doNotPlace": null
    },
    {
      "name": "Audio Distortor",
      "package": "__spaceClaim__",
      "pkg_idx": 1,
      "ComponentID": "db2186a1-da19-4d33-95dd-d70b515c4a10.1",
      "RelComponentID": null,
      "width": 15.0,
      "height": 15.0,
      "koWidth": null,
      "koHeight": null,
      "originX": null,
      "originY": null,
      "x": 0.0,
      "y": 0.0,
      "rotation": 0,
      "layer": 1,
      "constraints": null,
      "multiLayer": null,
      "doNotPlace": null
    },
    {
      "name": "C1",
      "package": "C_0402",
      "pkg_idx": 2,
      "ComponentID": "d44c9b2b-0f65-4e49-a51e-ac29e70e4874",
      "RelComponentID": "db2186a1-da19-4d33-95dd-d70b515c4a10",
      "width": 1.72,
      "height": 0.72,
      "koWidth": 1.72,
      "koHeight": 0.72,
      "originX": 0.0,
      "originY": 0.0,
      "x": 11.94,
      "y": 4.84,
      "rotation": 0,
      "layer": 1,
      "constraints": null,
      "multiLayer": null,
      "doNotPlace": true
    },
    {
      "name": "C2",
      "package": "C_0805",
      "pkg_idx": 3,
      "ComponentID": "d8f55417-7e14-4caf-ad50-b81a6664898d",
      "RelComponentID": "db2186a1-da19-4d33-95dd-d70b515c4a10",
      "width": 3.35,
      "height": 1.55,
      "koWidth": 3.35,
      "koHeight": 1.55,
      "originX": 0.0,
      "originY": 0.0,
      "x": 0.825,
      "y": 4.825,
      "rotation": 2,
      "layer": 1,
      "constraints": null,
      "multiLayer": null,
      "doNotPlace": true
    },
    {
      "name": "C2$1",
      "package": "C_0402",
      "pkg_idx": 4,
      "ComponentID": "d3928898-4d1e-4358-a422-11436d324510",
      "RelComponentID": "db2186a1-da19-4d33-95dd-d70b515c4a10",
      "width": 1.72,
      "height": 0.72,
      "koWidth": 1.72,
      "koHeight": 0.72,
      "originX": 0.0,
      "originY": 0.0,
      "x": 9.74,
      "y": 10.24,
      "rotation": 0,
      "layer": 1,
      "constraints": null,
      "multiLayer": null,
      "doNotPlace": true
    },
    {
      "name": "C3",
      "package": "C_0402",
      "pkg_idx": 5,
      "ComponentID": "2ad8a932-f163-4cde-b7a4-8737f36e0778",
      "RelComponentID": "db2186a1-da19-4d33-95dd-d70b515c4a10",
      "width": 1.72,
      "height": 0.72,
      "koWidth": 1.72,
      "koHeight": 0.72,
      "originX": 0.0,
      "originY": 0.0,
      "x": 6.74,
      "y": 13.04,
      "rotation": 0,
      "layer": 1,
      "constraints": null,
      "multiLayer": null,
      "doNotPlace": true
    },
    {
      "name": "C4",
      "package": "C_0603",
      "pkg_idx": 6,
      "ComponentID": "a69447cb-f9fd-4c13-9639-bb669783e1d6",
      "RelComponentID": "db2186a1-da19-4d33-95dd-d70b515c4a10",
      "width": 2.95,
      "height": 1.1,
      "koWidth": 2.95,
      "koHeight": 1.1,
      "originX": 0.0,
      "originY": 0.0,
      "x": 1.15,
      "y": 0.625,
      "rotation": 1,
      "layer": 1,
      "constraints": null,
      "multiLayer": null,
      "doNotPlace": true
    },
    {
      "name": "CBYP",
      "package": "C_0603",
      "pkg_idx": 7,
      "ComponentID": "83cfa0b3-0f39-4db7-a674-821ab5228da0",
      "RelComponentID": null,
      "width": 2.95,
      "height": 1.1,
      "koWidth": 2.95,
      "koHeight": 1.1,
      "originX": 0.0,
      "originY": 0.0,
      "x": 12.1,
      "y": 10.35,
      "rotation": 1,
      "layer": 0,
      "constraints": null,
      "multiLayer": null,
      "doNotPlace": true
    },
    {
      "name": "D1",
      "package": "SOD123",
      "pkg_idx": 8,
      "ComponentID": "08430cea-c6db-4018-95b0-32485fa9db8b",
      "RelComponentID": "db2186a1-da19-4d33-95dd-d70b515c4a10",
      "width": 1.9324,
      "height": 4.15,
      "koWidth": 1.9324,
      "koHeight": 4.15,
      "originX": -0.1,
      "originY": 0.0,
      "x": 7.625,
      "y": 2.5338,
      "rotation": 3,
      "layer": 1,
      "constraints": null,
      "multiLayer": null,
      "doNotPlace": true
    },
    {
      "name": "D2",
      "package": "SOD123",
      "pkg_idx": 9,
      "ComponentID": "783f395f-95ed-47d7-ab14-fceaefd71dee",
      "RelComponentID": "db2186a1-da19-4d33-95dd-d70b515c4a10",
      "width": 1.9324,
      "height": 4.15,
      "koWidth": 1.9324,
      "koHeight": 4.15,
      "originX": -0.1,
      "originY": 0.0,
      "x": 2.725,
      "y": 2.4338,
      "rotation": 3,
      "layer": 1,
      "constraints": null,
      "multiLayer": null,
      "doNotPlace": true
    },
    {
      "name": "D3",
      "package": "SOD123",
      "pkg_idx": 10,
      "ComponentID": "6eb36943-1790-4aab-adea-ce38db47965e",
      "RelComponentID": "db2186a1-da19-4d33-95dd-d70b515c4a10",
      "width": 1.9324,
      "height": 4.15,
      "koWidth": 1.9324,
      "koHeight": 4.15,
      "originX": -0.1,
      "originY": 0.0,
      "x": 8.0338,
      "y": 5.425,
      "rotation": 0,
      "layer": 1,
      "constraints": null,
      "multiLayer": null,
      "doNotPlace": true
    },
    {
      "name": "D4",
      "package": "SOD123",
      "pkg_idx": 11,
      "ComponentID": "a7d697b4-e996-43d5-a799-ecb4bf44a0b5",
      "RelComponentID": "db2186a1-da19-4d33-95dd-d70b515c4a10",
      "width": 1.9324,
      "height": 4.15,
      "koWidth": 1.9324,
      "koHeight": 4.15,
      "originX": -0.1,
      "originY": 0.0,
      "x": 2.7338,
      "y": 10.325,
      "rotation": 0,
      "layer": 1,
      "constraints": null,
      "multiLayer": null,
      "doNotPlace": true
    },
    {
      "name": "DistGain",
      "package": "EVUFXL",
      "pkg_idx": 12,
      "ComponentID": "a9dcaaa8-89c3-431e-8498-66049de6bb2b",
      "RelComponentID": "db2186a1-da19-4d33-95dd-d70b515c4a10",
      "width": 13.4,
      "height": 13.7382,
      "koWidth": 13.4,
      "koHeight": 13.7382,
      "originX": 0.0,
      "originY": -1.0,
      "x": 0.1,
      "y": 0.5309,
      "rotation": 0,
      "layer": 0,
      "constraints": null,
      "multiLayer": null,
      "doNotPlace": true
    },
    {
      "name": "OPA344",
      "package": "SOT23-5",
      "pkg_idx": 13,
      "ComponentID": "051710a4-2ecd-4f9f-9cff-506837cb1fb7",
      "RelComponentID": "db2186a1-da19-4d33-95dd-d70b515c4a10",
      "width": 3.2024,
      "height": 3.8274,
      "koWidth": 3.3424,
      "koHeight": 3.9674,
      "originX": -0.4,
      "originY": -0.1,
      "x": 5.0988,
      "y": 7.2863,
      "rotation": 0,
      "layer": 1,
      "constraints": null,
      "multiLayer": null,
      "doNotPlace": true
    },
    {
      "name": "R1",
      "package": "R_0603",
      "pkg_idx": 14,
      "ComponentID": "8153e4f2-a0ca-4935-8d59-afb3d542497d",
      "RelComponentID": "db2186a1-da19-4d33-95dd-d70b515c4a10",
      "width": 2.4,
      "height": 0.8,
      "koWidth": 2.4,
      "koHeight": 0.8,
      "originX": 0.0,
      "originY": 0.0,
      "x": 4.8,
      "y": 4.7,
      "rotation": 1,
      "layer": 1,
      "constraints": null,
      "multiLayer": null,
      "doNotPlace": true
    },
    {
      "name": "R2",
      "package": "R_0603",
      "pkg_idx": 15,
      "ComponentID": "77b9c2d3-60f5-485e-a965-210bf6c82dae",
      "RelComponentID": "db2186a1-da19-4d33-95dd-d70b515c4a10",
      "width": 2.4,
      "height": 0.8,
      "koWidth": 2.4,
      "koHeight": 0.8,
      "originX": 0.0,
      "originY": 0.0,
      "x": 9.4,
      "y": 11.3,
      "rotation": 2,
      "layer": 1,
      "constraints": null,
      "multiLayer": null,
      "doNotPlace": true
    },
    {
      "name": "R3",
      "package": "R_0603",
      "pkg_idx": 16,
      "ComponentID": "bdf9895f-2092-4e27-bc40-646d6cd4429c",
      "RelComponentID": "db2186a1-da19-4d33-95dd-d70b515c4a10",
      "width": 2.4,
      "height": 0.8,
      "koWidth": 2.4,
      "koHeight": 0.8,
      "originX": 0.0,
      "originY": 0.0,
      "x": 4.9,
      "y": 11.4,
      "rotation": 1,
      "layer": 1,
      "constraints": null,
      "multiLayer": null,
      "doNotPlace": true
    },
    {
      "name": "R4",
      "package": "R_0603",
      "pkg_idx": 17,
      "ComponentID": "8734e90b-c4a2-466e-aa1a-ea24f4d2d615",
      "RelComponentID": "db2186a1-da19-4d33-95dd-d70b515c4a10",
      "width": 2.4,
      "height": 0.8,
      "koWidth": 2.4,
      "koHeight": 0.8,
      "originX": 0.0,
      "originY": 0.0,
      "x": 1.1,
      "y": 11.5,
      "rotation": 1,
      "layer": 1,
      "constraints": null,
      "multiLayer": null,
      "doNotPlace": true
    },
    {
      "name": "R5",
      "package": "R_0603",
      "pkg_idx": 18,
      "ComponentID": "54f1885a-faee-4e5d-83d3-fcac276f9971",
      "RelComponentID": "db2186a1-da19-4d33-95dd-d70b515c4a10",
      "width": 2.4,
      "height": 0.8,
      "koWidth": 2.4,
      "koHeight": 0.8,
      "originX": 0.0,
      "originY": 0.0,
      "x": 6.7,
      "y": 11.8,
      "rotation": 2,
      "layer": 1,
      "constraints": null,
      "multiLayer": null,
      "doNotPlace": true
    },
    {
      "name": "R6",
      "package": "R_0603",
      "pkg_idx": 19,
      "ComponentID": "a1613753-6460-4985-882c-da42b4a1afec",
      "RelComponentID": null,
      "width": 2.4,
      "height": 0.8,
      "koWidth": 2.4,
      "koHeight": 0.8,
      "originX": 0.0,
      "originY": 0.0,
      "x": 12.2,
      "y": 1.15,
      "rotation": 1,
      "layer": 0,
      "constraints": null,
      "multiLayer": null,
      "doNotPlace": true
    }
  ],
  "signals": [
    {
      "name": "N$0",
      "length": 9.243872835544769,
      "bends": 8,
      "RelComponentID": "db2186a1-da19-4d33-95dd-d70b515c4a10",
      "pins": [
        {
          "name": "P$2",
          "gate": "G$1",
          "pad": "2",
          "package": "C1"
        },
        {
          "name": "+IN",
          "gate": "G$1",
          "pad": "3",
          "package": "OPA344"
        },
        {
          "name": "2",
          "gate": "G$1",
          "pad": "P$2",
          "package": "R1"
        }
      ],
      "wires": [
        {
          "x1": 7.7724,
          "y1": 5.1816,
          "x2": 12.192,
          "y2": 5.1816,
          "width": 0.1524,
          "layer": 16,
          "curve": 0.0
        },
        {
          "x1": 7.62,
          "y1": 5.0292,
          "x2": 7.7724,
          "y2": 5.1816,
          "width": 0.1524,
          "layer": 16,
          "curve": 0.0
        },
        {
          "x1": 6.858,
          "y1": 5.0292,
          "x2": 7.62,
          "y2": 5.0292,
          "width": 0.1524,
          "layer": 16,
          "curve": 0.0
        },
        {
          "x1": 5.334,
          "y1": 6.5532,
          "x2": 6.858,
          "y2": 5.0292,
          "width": 0.1524,
          "layer": 16,
          "curve": 0.0
        },
        {
          "x1": 12.192,
          "y1": 5.1816,
          "x2": 12.3,
          "y2": 5.2,
          "width": 0.1524,
          "layer": 16,
          "curve": 0.0
        },
        {
          "x1": 5.334,
          "y1": 6.5532,
          "x2": 5.2,
          "y2": 6.7,
          "width": 0.1524,
          "layer": 16,
          "curve": 0.0
        },
        {
          "x1": 5.334,
          "y1": 6.7056,
          "x2": 5.334,
          "y2": 7.9248,
          "width": 0.1524,
          "layer": 16,
          "curve": 0.0
        },
        {
          "x1": 5.334,
          "y1": 7.9248,
          "x2": 5.35,
          "y2": 7.95,
          "width": 0.1524,
          "layer": 16,
          "curve": 0.0
        },
        {
          "x1": 5.334,
          "y1": 6.7056,
          "x2": 5.2,
          "y2": 6.7,
          "width": 0.1524,
          "layer": 16,
          "curve": 0.0
        }
      ],
      "vias": [],
      "polygons": []
    },
    {
      "name": "N$1",
      "length": 58.627649751378037,
      "bends": 45,
      "RelComponentID": "db2186a1-da19-4d33-95dd-d70b515c4a10",
      "pins": [
        {
          "name": "P$2",
          "gate": "G$1",
          "pad": "2",
          "package": "C2"
        },
        {
          "name": "A",
          "gate": "G$1",
          "pad": "1",
          "package": "DistGain"
        },
        {
          "name": "1",
          "gate": "G$1",
          "pad": "P$1",
          "package": "R1"
        },
        {
          "name": "1",
          "gate": "G$1",
          "pad": "P$1",
          "package": "R5"
        },
        {
          "name": "2",
          "gate": "G$1",
          "pad": "P$2",
          "package": "R4"
        },
        {
          "name": "C",
          "gate": "G$1",
          "pad": "P$1",
          "package": "D2"
        },
        {
          "name": "A",
          "gate": "G$1",
          "pad": "P$2",
          "package": "D3"
        },
        {
          "name": "P$2",
          "gate": "G$1",
          "pad": "2",
          "package": "C4"
        }
      ],
      "wires": [
        {
          "x1": 3.81,
          "y1": 5.1816,
          "x2": 5.1816,
          "y2": 5.1816,
          "width": 0.1524,
          "layer": 16,
          "curve": 0.0
        },
        {
          "x1": 3.5052,
          "y1": 5.4864,
          "x2": 3.81,
          "y2": 5.1816,
          "width": 0.1524,
          "layer": 16,
          "curve": 0.0
        },
        {
          "x1": 5.1816,
          "y1": 5.1816,
          "x2": 5.2,
          "y2": 5.1,
          "width": 0.1524,
          "layer": 16,
          "curve": 0.0
        },
        {
          "x1": 3.5052,
          "y1": 5.4864,
          "x2": 3.5,
          "y2": 5.6,
          "width": 0.1524,
          "layer": 16,
          "curve": 0.0
        },
        {
          "x1": 2.1336,
          "y1": 3.3528,
          "x2": 3.048,
          "y2": 3.3528,
          "width": 0.1524,
          "layer": 16,
          "curve": 0.0
        },
        {
          "x1": 1.8288,
          "y1": 3.048,
          "x2": 2.1336,
          "y2": 3.3528,
          "width": 0.1524,
          "layer": 16,
          "curve": 0.0
        },
        {
          "x1": 3.048,
          "y1": 3.3528,
          "x2": 3.165,
          "y2": 3.5,
          "width": 0.1524,
          "layer": 16,
          "curve": 0.0
        },
        {
          "x1": 1.8288,
          "y1": 3.048,
          "x2": 1.7,
          "y2": 3.0,
          "width": 0.1524,
          "layer": 16,
          "curve": 0.0
        },
        {
          "x1": 3.2004,
          "y1": 2.5908,
          "x2": 3.2004,
          "y2": 3.3528,
          "width": 0.1524,
          "layer": 16,
          "curve": 0.0
        },
        {
          "x1": 4.2672,
          "y1": 1.524,
          "x2": 3.2004,
          "y2": 2.5908,
          "width": 0.1524,
          "layer": 16,
          "curve": 0.0
        },
        {
          "x1": 3.2004,
          "y1": 3.3528,
          "x2": 3.165,
          "y2": 3.5,
          "width": 0.1524,
          "layer": 16,
          "curve": 0.0
        },
        {
          "x1": 4.2672,
          "y1": 1.524,
          "x2": 4.3,
          "y2": 1.4,
          "width": 0.1524,
          "layer": 16,
          "curve": 0.0
        },
        {
          "x1": 6.4008,
          "y1": 5.0292,
          "x2": 5.334,
          "y2": 5.0292,
          "width": 0.1524,
          "layer": 16,
          "curve": 0.0
        },
        {
          "x1": 6.7056,
          "y1": 4.7244,
          "x2": 6.4008,
          "y2": 5.0292,
          "width": 0.1524,
          "layer": 16,
          "curve": 0.0
        },
        {
          "x1": 11.5824,
          "y1": 4.7244,
          "x2": 6.7056,
          "y2": 4.7244,
          "width": 0.1524,
          "layer": 16,
          "curve": 0.0
        },
        {
          "x1": 12.192,
          "y1": 4.1148,
          "x2": 11.5824,
          "y2": 4.7244,
          "width": 0.1524,
          "layer": 16,
          "curve": 0.0
        },
        {
          "x1": 12.192,
          "y1": 2.4384,
          "x2": 12.192,
          "y2": 4.1148,
          "width": 0.1524,
          "layer": 16,
          "curve": 0.0
        },
        {
          "x1": 11.7348,
          "y1": 1.9812,
          "x2": 12.192,
          "y2": 2.4384,
          "width": 0.1524,
          "layer": 16,
          "curve": 0.0
        },
        {
          "x1": 10.3632,
          "y1": 1.9812,
          "x2": 11.7348,
          "y2": 1.9812,
          "width": 0.1524,
          "layer": 16,
          "curve": 0.0
        },
        {
          "x1": 9.7536,
          "y1": 2.5908,
          "x2": 10.3632,
          "y2": 1.9812,
          "width": 0.1524,
          "layer": 16,
          "curve": 0.0
        },
        {
          "x1": 5.4864,
          "y1": 2.5908,
          "x2": 9.7536,
          "y2": 2.5908,
          "width": 0.1524,
          "layer": 16,
          "curve": 0.0
        },
        {
          "x1": 4.4196,
          "y1": 1.524,
          "x2": 5.4864,
          "y2": 2.5908,
          "width": 0.1524,
          "layer": 16,
          "curve": 0.0
        },
        {
          "x1": 5.334,
          "y1": 5.0292,
          "x2": 5.2,
          "y2": 5.1,
          "width": 0.1524,
          "layer": 16,
          "curve": 0.0
        },
        {
          "x1": 4.4196,
          "y1": 1.524,
          "x2": 4.3,
          "y2": 1.4,
          "width": 0.1524,
          "layer": 16,
          "curve": 0.0
        },
        {
          "x1": 5.9436,
          "y1": 12.3444,
          "x2": 7.0104,
          "y2": 12.3444,
          "width": 0.1524,
          "layer": 16,
          "curve": 0.0
        },
        {
          "x1": 5.6388,
          "y1": 12.6492,
          "x2": 5.9436,
          "y2": 12.3444,
          "width": 0.1524,
          "layer": 16,
          "curve": 0.0
        },
        {
          "x1": 2.286,
          "y1": 12.6492,
          "x2": 4.572,
          "y2": 12.6492,
          "width": 0.1524,
          "layer": 16,
          "curve": 0.0
        },
        {
          "x1": 4.572,
          "y1": 12.6492,
          "x2": 5.6388,
          "y2": 12.6492,
          "width": 0.1524,
          "layer": 16,
          "curve": 0.0
        },
        {
          "x1": 1.524,
          "y1": 13.4112,
          "x2": 2.286,
          "y2": 12.6492,
          "width": 0.1524,
          "layer": 16,
          "curve": 0.0
        },
        {
          "x1": 7.0104,
          "y1": 12.3444,
          "x2": 7.1,
          "y2": 12.2,
          "width": 0.1524,
          "layer": 16,
          "curve": 0.0
        },
        {
          "x1": 1.524,
          "y1": 13.4112,
          "x2": 1.5,
          "y2": 13.5,
          "width": 0.1524,
          "layer": 16,
          "curve": 0.0
        },
        {
          "x1": 12.954,
          "y1": 5.9436,
          "x2": 8.9916,
          "y2": 5.9436,
          "width": 0.1524,
          "layer": 16,
          "curve": 0.0
        },
        {
          "x1": 13.5636,
          "y1": 6.5532,
          "x2": 12.954,
          "y2": 5.9436,
          "width": 0.1524,
          "layer": 16,
          "curve": 0.0
        },
        {
          "x1": 13.5636,
          "y1": 11.1252,
          "x2": 13.5636,
          "y2": 6.5532,
          "width": 0.1524,
          "layer": 16,
          "curve": 0.0
        },
        {
          "x1": 10.3632,
          "y1": 14.3256,
          "x2": 13.5636,
          "y2": 11.1252,
          "width": 0.1524,
          "layer": 16,
          "curve": 0.0
        },
        {
          "x1": 5.0292,
          "y1": 14.3256,
          "x2": 10.3632,
          "y2": 14.3256,
          "width": 0.1524,
          "layer": 16,
          "curve": 0.0
        },
        {
          "x1": 4.572,
          "y1": 13.8684,
          "x2": 5.0292,
          "y2": 14.3256,
          "width": 0.1524,
          "layer": 16,
          "curve": 0.0
        },
        {
          "x1": 4.572,
          "y1": 12.6492,
          "x2": 4.572,
          "y2": 13.8684,
          "width": 0.1524,
          "layer": 16,
          "curve": 0.0
        },
        {
          "x1": 8.9916,
          "y1": 5.9436,
          "x2": 8.9,
          "y2": 5.865,
          "width": 0.1524,
          "layer": 16,
          "curve": 0.0
        },
        {
          "x1": 4.4196,
          "y1": 2.5908,
          "x2": 4.4196,
          "y2": 1.524,
          "width": 0.1524,
          "layer": 1,
          "curve": 0.0
        },
        {
          "x1": 7.4676,
          "y1": 5.6388,
          "x2": 4.4196,
          "y2": 2.5908,
          "width": 0.1524,
          "layer": 1,
          "curve": 0.0
        },
        {
          "x1": 8.6868,
          "y1": 5.6388,
          "x2": 7.4676,
          "y2": 5.6388,
          "width": 0.1524,
          "layer": 16,
          "curve": 0.0
        },
        {
          "x1": 8.8392,
          "y1": 5.7912,
          "x2": 8.6868,
          "y2": 5.6388,
          "width": 0.1524,
          "layer": 16,
          "curve": 0.0
        },
        {
          "x1": 4.4196,
          "y1": 1.524,
          "x2": 4.3,
          "y2": 1.4,
          "width": 0.1524,
          "layer": 1,
          "curve": 0.0
        },
        {
          "x1": 8.8392,
          "y1": 5.7912,
          "x2": 8.9,
          "y2": 5.865,
          "width": 0.1524,
          "layer": 16,
          "curve": 0.0
        }
      ],
      "vias": [
        {
          "x": 7.4676,
          "y": 5.6388,
          "drill": 0.3048,
          "layerBegin": 1,
          "layerEnd": 16
        }
      ],
      "polygons": []
    },
    {
      "name": "N$2",
      "length": 24.951301446202422,
      "bends": 17,
      "RelComponentID": "db2186a1-da19-4d33-95dd-d70b515c4a10",
      "pins": [
        {
          "name": "P$1",
          "gate": "G$1",
          "pad": "1",
          "package": "C2"
        },
        {
          "name": "P$2",
          "gate": "G$1",
          "pad": "2",
          "package": "CBYP"
        },
        {
          "name": "V-",
          "gate": "G$1",
          "pad": "2",
          "package": "OPA344"
        },
        {
          "name": "1",
          "gate": "G$1",
          "pad": "P$1",
          "package": "R4"
        }
      ],
      "wires": [
        {
          "x1": 1.3716,
          "y1": 11.1252,
          "x2": 1.3716,
          "y2": 11.8872,
          "width": 0.1524,
          "layer": 16,
          "curve": 0.0
        },
        {
          "x1": 0.4572,
          "y1": 10.2108,
          "x2": 1.3716,
          "y2": 11.1252,
          "width": 0.1524,
          "layer": 16,
          "curve": 0.0
        },
        {
          "x1": 0.4572,
          "y1": 6.5532,
          "x2": 0.4572,
          "y2": 10.2108,
          "width": 0.1524,
          "layer": 16,
          "curve": 0.0
        },
        {
          "x1": 1.3716,
          "y1": 5.6388,
          "x2": 0.4572,
          "y2": 6.5532,
          "width": 0.1524,
          "layer": 16,
          "curve": 0.0
        },
        {
          "x1": 1.3716,
          "y1": 11.8872,
          "x2": 1.5,
          "y2": 11.9,
          "width": 0.1524,
          "layer": 16,
          "curve": 0.0
        },
        {
          "x1": 1.3716,
          "y1": 5.6388,
          "x2": 1.5,
          "y2": 5.6,
          "width": 0.1524,
          "layer": 16,
          "curve": 0.0
        },
        {
          "x1": 6.4008,
          "y1": 6.858,
          "x2": 6.4008,
          "y2": 7.9248,
          "width": 0.1524,
          "layer": 16,
          "curve": 0.0
        },
        {
          "x1": 6.4008,
          "y1": 10.0584,
          "x2": 6.4008,
          "y2": 6.858,
          "width": 0.1524,
          "layer": 1,
          "curve": 0.0
        },
        {
          "x1": 9.6012,
          "y1": 13.2588,
          "x2": 6.4008,
          "y2": 10.0584,
          "width": 0.1524,
          "layer": 1,
          "curve": 0.0
        },
        {
          "x1": 12.192,
          "y1": 13.2588,
          "x2": 9.6012,
          "y2": 13.2588,
          "width": 0.1524,
          "layer": 1,
          "curve": 0.0
        },
        {
          "x1": 12.6492,
          "y1": 12.8016,
          "x2": 12.192,
          "y2": 13.2588,
          "width": 0.1524,
          "layer": 1,
          "curve": 0.0
        },
        {
          "x1": 6.4008,
          "y1": 7.9248,
          "x2": 6.3,
          "y2": 7.95,
          "width": 0.1524,
          "layer": 16,
          "curve": 0.0
        },
        {
          "x1": 12.6492,
          "y1": 12.8016,
          "x2": 12.65,
          "y2": 12.725,
          "width": 0.1524,
          "layer": 1,
          "curve": 0.0
        },
        {
          "x1": 2.5908,
          "y1": 11.1252,
          "x2": 1.3716,
          "y2": 11.1252,
          "width": 0.1524,
          "layer": 16,
          "curve": 0.0
        },
        {
          "x1": 5.334,
          "y1": 11.1252,
          "x2": 2.5908,
          "y2": 11.1252,
          "width": 0.1524,
          "layer": 1,
          "curve": 0.0
        },
        {
          "x1": 6.4008,
          "y1": 10.0584,
          "x2": 5.334,
          "y2": 11.1252,
          "width": 0.1524,
          "layer": 1,
          "curve": 0.0
        }
      ],
      "vias": [
        {
          "x": 6.4008,
          "y": 6.858,
          "drill": 0.3048,
          "layerBegin": 1,
          "layerEnd": 16
        },
        {
          "x": 2.5908,
          "y": 11.1252,
          "drill": 0.3048,
          "layerBegin": 1,
          "layerEnd": 16
        }
      ],
      "polygons": []
    },
    {
      "name": "N$3",
      "length": 1.2197849509491672,
      "bends": 3,
      "RelComponentID": "db2186a1-da19-4d33-95dd-d70b515c4a10",
      "pins": [
        {
          "name": "P$1",
          "gate": "G$1",
          "pad": "1",
          "package": "C2$1"
        },
        {
          "name": "2",
          "gate": "G$1",
          "pad": "P$2",
          "package": "R2"
        }
      ],
      "wires": [
        {
          "x1": 11.1252,
          "y1": 11.43,
          "x2": 11.1252,
          "y2": 10.668,
          "width": 0.1524,
          "layer": 16,
          "curve": 0.0
        },
        {
          "x1": 11.2776,
          "y1": 11.5824,
          "x2": 11.1252,
          "y2": 11.43,
          "width": 0.1524,
          "layer": 16,
          "curve": 0.0
        },
        {
          "x1": 11.1252,
          "y1": 10.668,
          "x2": 11.1,
          "y2": 10.6,
          "width": 0.1524,
          "layer": 16,
          "curve": 0.0
        },
        {
          "x1": 11.2776,
          "y1": 11.5824,
          "x2": 11.4,
          "y2": 11.7,
          "width": 0.1524,
          "layer": 16,
          "curve": 0.0
        }
      ],
      "vias": [],
      "polygons": []
    },
    {
      "name": "N$4",
      "length": 8.6906759688684936,
      "bends": 11,
      "RelComponentID": "db2186a1-da19-4d33-95dd-d70b515c4a10",
      "pins": [
        {
          "name": "P$2",
          "gate": "G$1",
          "pad": "2",
          "package": "C2$1"
        },
        {
          "name": "P$1",
          "gate": "G$1",
          "pad": "1",
          "package": "C3"
        },
        {
          "name": "1",
          "gate": "G$1",
          "pad": "P$1",
          "package": "R3"
        },
        {
          "name": "-IN",
          "gate": "G$1",
          "pad": "4",
          "package": "OPA344"
        }
      ],
      "wires": [
        {
          "x1": 5.334,
          "y1": 10.668,
          "x2": 5.334,
          "y2": 11.43,
          "width": 0.1524,
          "layer": 16,
          "curve": 0.0
        },
        {
          "x1": 5.334,
          "y1": 11.43,
          "x2": 5.334,
          "y2": 11.7348,
          "width": 0.1524,
          "layer": 16,
          "curve": 0.0
        },
        {
          "x1": 5.334,
          "y1": 11.7348,
          "x2": 5.3,
          "y2": 11.8,
          "width": 0.1524,
          "layer": 16,
          "curve": 0.0
        },
        {
          "x1": 5.334,
          "y1": 10.668,
          "x2": 5.35,
          "y2": 10.65,
          "width": 0.1524,
          "layer": 16,
          "curve": 0.0
        },
        {
          "x1": 8.6868,
          "y1": 10.668,
          "x2": 10.0584,
          "y2": 10.668,
          "width": 0.1524,
          "layer": 16,
          "curve": 0.0
        },
        {
          "x1": 7.9248,
          "y1": 11.43,
          "x2": 8.6868,
          "y2": 10.668,
          "width": 0.1524,
          "layer": 16,
          "curve": 0.0
        },
        {
          "x1": 7.9248,
          "y1": 13.1064,
          "x2": 7.9248,
          "y2": 11.43,
          "width": 0.1524,
          "layer": 16,
          "curve": 0.0
        },
        {
          "x1": 8.0772,
          "y1": 13.2588,
          "x2": 7.9248,
          "y2": 13.1064,
          "width": 0.1524,
          "layer": 16,
          "curve": 0.0
        },
        {
          "x1": 10.0584,
          "y1": 10.668,
          "x2": 10.1,
          "y2": 10.6,
          "width": 0.1524,
          "layer": 16,
          "curve": 0.0
        },
        {
          "x1": 8.0772,
          "y1": 13.2588,
          "x2": 8.1,
          "y2": 13.4,
          "width": 0.1524,
          "layer": 16,
          "curve": 0.0
        },
        {
          "x1": 7.9248,
          "y1": 11.43,
          "x2": 5.334,
          "y2": 11.43,
          "width": 0.1524,
          "layer": 16,
          "curve": 0.0
        },
        {
          "x1": 5.334,
          "y1": 11.43,
          "x2": 5.3,
          "y2": 11.8,
          "width": 0.1524,
          "layer": 16,
          "curve": 0.0
        }
      ],
      "vias": [],
      "polygons": []
    },
    {
      "name": "N$5",
      "length": 26.84365647737787,
      "bends": 18,
      "RelComponentID": "db2186a1-da19-4d33-95dd-d70b515c4a10",
      "pins": [
        {
          "name": "P$2",
          "gate": "G$1",
          "pad": "2",
          "package": "C3"
        },
        {
          "name": "OUT",
          "gate": "G$1",
          "pad": "1",
          "package": "OPA344"
        },
        {
          "name": "2",
          "gate": "G$1",
          "pad": "P$2",
          "package": "R3"
        },
        {
          "name": "2",
          "gate": "G$1",
          "pad": "P$2",
          "package": "R6"
        }
      ],
      "wires": [
        {
          "x1": 5.334,
          "y1": 13.4112,
          "x2": 7.0104,
          "y2": 13.4112,
          "width": 0.1524,
          "layer": 16,
          "curve": 0.0
        },
        {
          "x1": 7.0104,
          "y1": 13.4112,
          "x2": 7.1,
          "y2": 13.4,
          "width": 0.1524,
          "layer": 16,
          "curve": 0.0
        },
        {
          "x1": 5.334,
          "y1": 13.4112,
          "x2": 5.3,
          "y2": 13.4,
          "width": 0.1524,
          "layer": 16,
          "curve": 0.0
        },
        {
          "x1": 8.0772,
          "y1": 7.62,
          "x2": 12.4968,
          "y2": 3.2004,
          "width": 0.1524,
          "layer": 1,
          "curve": 0.0
        },
        {
          "x1": 7.62,
          "y1": 7.62,
          "x2": 8.0772,
          "y2": 7.62,
          "width": 0.1524,
          "layer": 16,
          "curve": 0.0
        },
        {
          "x1": 7.3152,
          "y1": 7.9248,
          "x2": 7.62,
          "y2": 7.62,
          "width": 0.1524,
          "layer": 16,
          "curve": 0.0
        },
        {
          "x1": 12.4968,
          "y1": 3.2004,
          "x2": 12.6,
          "y2": 3.15,
          "width": 0.1524,
          "layer": 1,
          "curve": 0.0
        },
        {
          "x1": 7.3152,
          "y1": 7.9248,
          "x2": 7.25,
          "y2": 7.95,
          "width": 0.1524,
          "layer": 16,
          "curve": 0.0
        },
        {
          "x1": 7.4676,
          "y1": 13.716,
          "x2": 7.1628,
          "y2": 13.4112,
          "width": 0.1524,
          "layer": 16,
          "curve": 0.0
        },
        {
          "x1": 7.4676,
          "y1": 13.8684,
          "x2": 7.4676,
          "y2": 13.716,
          "width": 0.1524,
          "layer": 16,
          "curve": 0.0
        },
        {
          "x1": 7.62,
          "y1": 14.0208,
          "x2": 7.4676,
          "y2": 13.8684,
          "width": 0.1524,
          "layer": 16,
          "curve": 0.0
        },
        {
          "x1": 10.2108,
          "y1": 14.0208,
          "x2": 7.62,
          "y2": 14.0208,
          "width": 0.1524,
          "layer": 16,
          "curve": 0.0
        },
        {
          "x1": 13.2588,
          "y1": 10.9728,
          "x2": 10.2108,
          "y2": 14.0208,
          "width": 0.1524,
          "layer": 16,
          "curve": 0.0
        },
        {
          "x1": 13.2588,
          "y1": 6.7056,
          "x2": 13.2588,
          "y2": 10.9728,
          "width": 0.1524,
          "layer": 16,
          "curve": 0.0
        },
        {
          "x1": 13.1064,
          "y1": 6.5532,
          "x2": 13.2588,
          "y2": 6.7056,
          "width": 0.1524,
          "layer": 16,
          "curve": 0.0
        },
        {
          "x1": 9.144,
          "y1": 6.5532,
          "x2": 13.1064,
          "y2": 6.5532,
          "width": 0.1524,
          "layer": 16,
          "curve": 0.0
        },
        {
          "x1": 8.0772,
          "y1": 7.62,
          "x2": 9.144,
          "y2": 6.5532,
          "width": 0.1524,
          "layer": 16,
          "curve": 0.0
        },
        {
          "x1": 7.1628,
          "y1": 13.4112,
          "x2": 7.1,
          "y2": 13.4,
          "width": 0.1524,
          "layer": 16,
          "curve": 0.0
        }
      ],
      "vias": [
        {
          "x": 8.0772,
          "y": 7.62,
          "drill": 0.3048,
          "layerBegin": 1,
          "layerEnd": 16
        }
      ],
      "polygons": []
    },
    {
      "name": "N$6",
      "length": 39.516882862315349,
      "bends": 23,
      "RelComponentID": "db2186a1-da19-4d33-95dd-d70b515c4a10",
      "pins": [
        {
          "name": "P$1",
          "gate": "G$1",
          "pad": "1",
          "package": "C4"
        },
        {
          "name": "A",
          "gate": "G$1",
          "pad": "P$2",
          "package": "D1"
        },
        {
          "name": "C",
          "gate": "G$1",
          "pad": "P$1",
          "package": "D4"
        },
        {
          "name": "1",
          "gate": "G$1",
          "pad": "P$1",
          "package": "R6"
        }
      ],
      "wires": [
        {
          "x1": 11.5824,
          "y1": 2.5908,
          "x2": 12.4968,
          "y2": 1.6764,
          "width": 0.1524,
          "layer": 1,
          "curve": 0.0
        },
        {
          "x1": 11.5824,
          "y1": 3.3528,
          "x2": 11.5824,
          "y2": 2.5908,
          "width": 0.1524,
          "layer": 16,
          "curve": 0.0
        },
        {
          "x1": 11.43,
          "y1": 3.5052,
          "x2": 11.5824,
          "y2": 3.3528,
          "width": 0.1524,
          "layer": 16,
          "curve": 0.0
        },
        {
          "x1": 12.4968,
          "y1": 1.6764,
          "x2": 12.6,
          "y2": 1.55,
          "width": 0.1524,
          "layer": 1,
          "curve": 0.0
        },
        {
          "x1": 11.43,
          "y1": 3.5052,
          "x2": 11.335,
          "y2": 3.6,
          "width": 0.1524,
          "layer": 16,
          "curve": 0.0
        },
        {
          "x1": 4.4196,
          "y1": 14.1732,
          "x2": 3.6576,
          "y2": 14.1732,
          "width": 0.1524,
          "layer": 16,
          "curve": 0.0
        },
        {
          "x1": 4.8768,
          "y1": 14.6304,
          "x2": 4.4196,
          "y2": 14.1732,
          "width": 0.1524,
          "layer": 16,
          "curve": 0.0
        },
        {
          "x1": 12.3444,
          "y1": 14.6304,
          "x2": 4.8768,
          "y2": 14.6304,
          "width": 0.1524,
          "layer": 16,
          "curve": 0.0
        },
        {
          "x1": 13.1064,
          "y1": 13.8684,
          "x2": 12.3444,
          "y2": 14.6304,
          "width": 0.1524,
          "layer": 16,
          "curve": 0.0
        },
        {
          "x1": 13.5636,
          "y1": 13.4112,
          "x2": 13.1064,
          "y2": 13.8684,
          "width": 0.1524,
          "layer": 1,
          "curve": 0.0
        },
        {
          "x1": 13.5636,
          "y1": 2.5908,
          "x2": 13.5636,
          "y2": 13.4112,
          "width": 0.1524,
          "layer": 1,
          "curve": 0.0
        },
        {
          "x1": 12.6492,
          "y1": 1.6764,
          "x2": 13.5636,
          "y2": 2.5908,
          "width": 0.1524,
          "layer": 1,
          "curve": 0.0
        },
        {
          "x1": 3.6576,
          "y1": 14.1732,
          "x2": 3.6,
          "y2": 14.035,
          "width": 0.1524,
          "layer": 16,
          "curve": 0.0
        },
        {
          "x1": 12.6492,
          "y1": 1.6764,
          "x2": 12.6,
          "y2": 1.55,
          "width": 0.1524,
          "layer": 1,
          "curve": 0.0
        },
        {
          "x1": 1.6764,
          "y1": 1.524,
          "x2": 1.6764,
          "y2": 1.2192,
          "width": 0.1524,
          "layer": 16,
          "curve": 0.0
        },
        {
          "x1": 0.9144,
          "y1": 2.286,
          "x2": 1.6764,
          "y2": 1.524,
          "width": 0.1524,
          "layer": 16,
          "curve": 0.0
        },
        {
          "x1": 0.9144,
          "y1": 3.81,
          "x2": 0.9144,
          "y2": 2.286,
          "width": 0.1524,
          "layer": 16,
          "curve": 0.0
        },
        {
          "x1": 1.524,
          "y1": 4.4196,
          "x2": 0.9144,
          "y2": 3.81,
          "width": 0.1524,
          "layer": 16,
          "curve": 0.0
        },
        {
          "x1": 10.5156,
          "y1": 4.4196,
          "x2": 1.524,
          "y2": 4.4196,
          "width": 0.1524,
          "layer": 16,
          "curve": 0.0
        },
        {
          "x1": 11.2776,
          "y1": 3.6576,
          "x2": 10.5156,
          "y2": 4.4196,
          "width": 0.1524,
          "layer": 16,
          "curve": 0.0
        },
        {
          "x1": 1.6764,
          "y1": 1.2192,
          "x2": 1.7,
          "y2": 1.2,
          "width": 0.1524,
          "layer": 16,
          "curve": 0.0
        },
        {
          "x1": 11.2776,
          "y1": 3.6576,
          "x2": 11.335,
          "y2": 3.6,
          "width": 0.1524,
          "layer": 16,
          "curve": 0.0
        }
      ],
      "vias": [
        {
          "x": 11.5824,
          "y": 2.5908,
          "drill": 0.3048,
          "layerBegin": 1,
          "layerEnd": 16
        },
        {
          "x": 13.1064,
          "y": 13.8684,
          "drill": 0.3048,
          "layerBegin": 1,
          "layerEnd": 16
        }
      ],
      "polygons": []
    },
    {
      "name": "N$7",
      "length": 7.0268994701931922,
      "bends": 9,
      "RelComponentID": "db2186a1-da19-4d33-95dd-d70b515c4a10",
      "pins": [
        {
          "name": "P$1",
          "gate": "G$1",
          "pad": "1",
          "package": "CBYP"
        },
        {
          "name": "2",
          "gate": "G$1",
          "pad": "P$2",
          "package": "R5"
        },
        {
          "name": "V+",
          "gate": "G$1",
          "pad": "5",
          "package": "OPA344"
        }
      ],
      "wires": [
        {
          "x1": 8.8392,
          "y1": 11.2776,
          "x2": 8.8392,
          "y2": 12.192,
          "width": 0.1524,
          "layer": 16,
          "curve": 0.0
        },
        {
          "x1": 12.3444,
          "y1": 11.2776,
          "x2": 8.8392,
          "y2": 11.2776,
          "width": 0.1524,
          "layer": 1,
          "curve": 0.0
        },
        {
          "x1": 12.6492,
          "y1": 10.9728,
          "x2": 12.3444,
          "y2": 11.2776,
          "width": 0.1524,
          "layer": 1,
          "curve": 0.0
        },
        {
          "x1": 8.8392,
          "y1": 12.192,
          "x2": 8.7,
          "y2": 12.2,
          "width": 0.1524,
          "layer": 16,
          "curve": 0.0
        },
        {
          "x1": 12.6492,
          "y1": 10.9728,
          "x2": 12.65,
          "y2": 10.925,
          "width": 0.1524,
          "layer": 1,
          "curve": 0.0
        },
        {
          "x1": 8.0772,
          "y1": 10.5156,
          "x2": 7.3152,
          "y2": 10.5156,
          "width": 0.1524,
          "layer": 16,
          "curve": 0.0
        },
        {
          "x1": 8.8392,
          "y1": 11.2776,
          "x2": 8.0772,
          "y2": 10.5156,
          "width": 0.1524,
          "layer": 1,
          "curve": 0.0
        },
        {
          "x1": 7.3152,
          "y1": 10.5156,
          "x2": 7.25,
          "y2": 10.65,
          "width": 0.1524,
          "layer": 16,
          "curve": 0.0
        }
      ],
      "vias": [
        {
          "x": 8.8392,
          "y": 11.2776,
          "drill": 0.3048,
          "layerBegin": 1,
          "layerEnd": 16
        },
        {
          "x": 8.0772,
          "y": 10.5156,
          "drill": 0.3048,
          "layerBegin": 1,
          "layerEnd": 16
        }
      ],
      "polygons": []
    },
    {
      "name": "N$8",
      "length": 1.6591569931275458,
      "bends": 2,
      "RelComponentID": "db2186a1-da19-4d33-95dd-d70b515c4a10",
      "pins": [
        {
          "name": "C",
          "gate": "G$1",
          "pad": "P$1",
          "package": "D1"
        },
        {
          "name": "A",
          "gate": "G$1",
          "pad": "P$2",
          "package": "D2"
        }
      ],
      "wires": [
        {
          "x1": 7.9248,
          "y1": 3.5052,
          "x2": 6.5532,
          "y2": 3.5052,
          "width": 0.1524,
          "layer": 16,
          "curve": 0.0
        },
        {
          "x1": 6.5532,
          "y1": 3.5052,
          "x2": 6.435,
          "y2": 3.5,
          "width": 0.1524,
          "layer": 16,
          "curve": 0.0
        },
        {
          "x1": 7.9248,
          "y1": 3.5052,
          "x2": 8.065,
          "y2": 3.6,
          "width": 0.1524,
          "layer": 16,
          "curve": 0.0
        }
      ],
      "vias": [],
      "polygons": []
    },
    {
      "name": "N$9",
      "length": 5.9871369204742066,
      "bends": 3,
      "RelComponentID": "db2186a1-da19-4d33-95dd-d70b515c4a10",
      "pins": [
        {
          "name": "C",
          "gate": "G$1",
          "pad": "P$1",
          "package": "D3"
        },
        {
          "name": "A",
          "gate": "G$1",
          "pad": "P$2",
          "package": "D4"
        }
      ],
      "wires": [
        {
          "x1": 5.1816,
          "y1": 9.144,
          "x2": 8.8392,
          "y2": 9.144,
          "width": 0.1524,
          "layer": 16,
          "curve": 0.0
        },
        {
          "x1": 3.6576,
          "y1": 10.668,
          "x2": 5.1816,
          "y2": 9.144,
          "width": 0.1524,
          "layer": 16,
          "curve": 0.0
        },
        {
          "x1": 8.8392,
          "y1": 9.144,
          "x2": 8.9,
          "y2": 9.135,
          "width": 0.1524,
          "layer": 16,
          "curve": 0.0
        },
        {
          "x1": 3.6576,
          "y1": 10.668,
          "x2": 3.6,
          "y2": 10.765,
          "width": 0.1524,
          "layer": 16,
          "curve": 0.0
        }
      ],
      "vias": [],
      "polygons": []
    },
    {
      "name": "N$10",
      "length": 14.117447792310674,
      "bends": 9,
      "RelComponentID": "db2186a1-da19-4d33-95dd-d70b515c4a10",
      "pins": [
        {
          "name": "S",
          "gate": "G$1",
          "pad": "2",
          "package": "DistGain"
        },
        {
          "name": "1",
          "gate": "G$1",
          "pad": "P$1",
          "package": "R2"
        }
      ],
      "wires": [
        {
          "x1": 9.7536,
          "y1": 12.6492,
          "x2": 9.7536,
          "y2": 11.7348,
          "width": 0.1524,
          "layer": 16,
          "curve": 0.0
        },
        {
          "x1": 9.4488,
          "y1": 12.6492,
          "x2": 9.7536,
          "y2": 12.6492,
          "width": 0.1524,
          "layer": 1,
          "curve": 0.0
        },
        {
          "x1": 7.4676,
          "y1": 10.668,
          "x2": 9.4488,
          "y2": 12.6492,
          "width": 0.1524,
          "layer": 1,
          "curve": 0.0
        },
        {
          "x1": 7.4676,
          "y1": 6.4008,
          "x2": 7.4676,
          "y2": 10.668,
          "width": 0.1524,
          "layer": 1,
          "curve": 0.0
        },
        {
          "x1": 8.0772,
          "y1": 5.7912,
          "x2": 7.4676,
          "y2": 6.4008,
          "width": 0.1524,
          "layer": 1,
          "curve": 0.0
        },
        {
          "x1": 8.0772,
          "y1": 2.7432,
          "x2": 8.0772,
          "y2": 5.7912,
          "width": 0.1524,
          "layer": 1,
          "curve": 0.0
        },
        {
          "x1": 6.858,
          "y1": 1.524,
          "x2": 8.0772,
          "y2": 2.7432,
          "width": 0.1524,
          "layer": 1,
          "curve": 0.0
        },
        {
          "x1": 9.7536,
          "y1": 11.7348,
          "x2": 9.8,
          "y2": 11.7,
          "width": 0.1524,
          "layer": 16,
          "curve": 0.0
        },
        {
          "x1": 6.858,
          "y1": 1.524,
          "x2": 6.8,
          "y2": 1.4,
          "width": 0.1524,
          "layer": 1,
          "curve": 0.0
        }
      ],
      "vias": [
        {
          "x": 9.7536,
          "y": 12.6492,
          "drill": 0.3048,
          "layerBegin": 1,
          "layerEnd": 16
        }
      ],
      "polygons": []
    }
  ],
  "constraints": null,
  "border": null
}