<?xml version="1.0" encoding="utf-8"?>
<!DOCTYPE eagle SYSTEM "eagle.dtd">
<eagle version="6.5.0">
<drawing>
<settings>
<setting alwaysvectorfont="no"/>
<setting verticaltext="up"/>
</settings>
<grid distance="0.1" unitdist="inch" unit="inch" style="lines" multiple="1" display="no" altdistance="0.01" altunitdist="inch" altunit="inch"/>
<layers>
</layers>
<library>
<packages>
<package name="0.1INCH-1X12HEADER">
<pad name="P$1" x="0" y="13.97" drill="1" shape="octagon"/>
<pad name="P$2" x="0" y="11.43" drill="1"/>
<pad name="P$3" x="0" y="8.89" drill="1"/>
<pad name="P$4" x="0" y="6.35" drill="1"/>
<pad name="P$5" x="0" y="3.81" drill="1"/>
<pad name="P$6" x="0" y="1.27" drill="1"/>
<pad name="P$7" x="0" y="-1.27" drill="1"/>
<pad name="P$8" x="0" y="-3.81" drill="1"/>
<pad name="P$9" x="0" y="-6.35" drill="1"/>
<pad name="P$10" x="0" y="-8.89" drill="1"/>
<pad name="P$11" x="0" y="-11.43" drill="1"/>
<pad name="P$12" x="0" y="-13.97" drill="1"/>
<wire x1="-1.27" y1="15.24" x2="-1.27" y2="-15.24" width="0.127" layer="21"/>
<wire x1="-1.27" y1="-15.24" x2="1.27" y2="-15.24" width="0.127" layer="21"/>
<wire x1="1.27" y1="-15.24" x2="1.27" y2="15.24" width="0.127" layer="21"/>
<wire x1="1.27" y1="15.24" x2="-1.27" y2="15.24" width="0.127" layer="21"/>
<text x="1.74" y="13.895" size="1.27" layer="25">&gt;NAME</text>
</package>
</packages>
<symbols>
<symbol name="SPARK_M12">
<wire x1="6.35" y1="-17.78" x2="0" y2="-17.78" width="0.4064" layer="94"/>
<wire x1="3.81" y1="-10.16" x2="5.08" y2="-10.16" width="0.6096" layer="94"/>
<wire x1="3.81" y1="-12.7" x2="5.08" y2="-12.7" width="0.6096" layer="94"/>
<wire x1="3.81" y1="-15.24" x2="5.08" y2="-15.24" width="0.6096" layer="94"/>
<wire x1="0" y1="15.24" x2="0" y2="-17.78" width="0.4064" layer="94"/>
<wire x1="6.35" y1="-17.78" x2="6.35" y2="15.24" width="0.4064" layer="94"/>
<wire x1="0" y1="15.24" x2="6.35" y2="15.24" width="0.4064" layer="94"/>
<wire x1="3.81" y1="-5.08" x2="5.08" y2="-5.08" width="0.6096" layer="94"/>
<wire x1="3.81" y1="-7.62" x2="5.08" y2="-7.62" width="0.6096" layer="94"/>
<wire x1="3.81" y1="-2.54" x2="5.08" y2="-2.54" width="0.6096" layer="94"/>
<wire x1="3.81" y1="0" x2="5.08" y2="0" width="0.6096" layer="94"/>
<wire x1="3.81" y1="2.54" x2="5.08" y2="2.54" width="0.6096" layer="94"/>
<wire x1="3.81" y1="5.08" x2="5.08" y2="5.08" width="0.6096" layer="94"/>
<wire x1="3.81" y1="7.62" x2="5.08" y2="7.62" width="0.6096" layer="94"/>
<wire x1="3.81" y1="10.16" x2="5.08" y2="10.16" width="0.6096" layer="94"/>
<wire x1="3.81" y1="12.7" x2="5.08" y2="12.7" width="0.6096" layer="94"/>
<pin name="1" x="10.16" y="-15.24" visible="pad" length="middle" direction="pas" swaplevel="1" rot="R180"/>
<pin name="2" x="10.16" y="-12.7" visible="pad" length="middle" direction="pas" swaplevel="1" rot="R180"/>
<pin name="3" x="10.16" y="-10.16" visible="pad" length="middle" direction="pas" swaplevel="1" rot="R180"/>
<pin name="4" x="10.16" y="-7.62" visible="pad" length="middle" direction="pas" swaplevel="1" rot="R180"/>
<pin name="5" x="10.16" y="-5.08" visible="pad" length="middle" direction="pas" swaplevel="1" rot="R180"/>
<pin name="6" x="10.16" y="-2.54" visible="pad" length="middle" direction="pas" swaplevel="1" rot="R180"/>
<pin name="7" x="10.16" y="0" visible="pad" length="middle" direction="pas" swaplevel="1" rot="R180"/>
<pin name="8" x="10.16" y="2.54" visible="pad" length="middle" direction="pas" swaplevel="1" rot="R180"/>
<pin name="9" x="10.16" y="5.08" visible="pad" length="middle" direction="pas" swaplevel="1" rot="R180"/>
<pin name="10" x="10.16" y="7.62" visible="pad" length="middle" direction="pas" swaplevel="1" rot="R180"/>
<pin name="11" x="10.16" y="10.16" visible="pad" length="middle" direction="pas" swaplevel="1" rot="R180"/>
<pin name="12" x="10.16" y="12.7" visible="pad" length="middle" direction="pas" swaplevel="1" rot="R180"/>
<text x="0" y="-20.32" size="1.778" layer="96">&gt;VALUE</text>
<text x="0" y="16.002" size="1.778" layer="95">&gt;NAME</text>
</symbol>
</symbols>
<devicesets>
<deviceset name="1-535541-0" prefix="JP">
<gates>
<gate name="G$1" symbol="SPARK_M12" x="0" y="0"/>
</gates>
<devices>
<device name="PTH-CST-L" package="0.1INCH-1X12HEADER">
<connects>
<connect gate="G$1" pin="1" pad="P$1"/>
<connect gate="G$1" pin="10" pad="P$10"/>
<connect gate="G$1" pin="11" pad="P$11"/>
<connect gate="G$1" pin="12" pad="P$12"/>
<connect gate="G$1" pin="2" pad="P$2"/>
<connect gate="G$1" pin="3" pad="P$3"/>
<connect gate="G$1" pin="4" pad="P$4"/>
<connect gate="G$1" pin="5" pad="P$5"/>
<connect gate="G$1" pin="6" pad="P$6"/>
<connect gate="G$1" pin="7" pad="P$7"/>
<connect gate="G$1" pin="8" pad="P$8"/>
<connect gate="G$1" pin="9" pad="P$9"/>
</connects>
<technologies>
<technology name=""/>
</technologies>
</device>
</devices>
</deviceset>
</devicesets>
</library>
</drawing>
</eagle>
