*LM337 negative voltage regulator
*Connections  Input  Adj. Output
.SUBCKT LM337 	In    Adj    Out
R10 25 6 1K
Q3 In 17 16 QPOUT
Q4 In 25 17 QP
R18 Out 17 250
R19 Out 16 .3
G1 In 6 Adj 18 .1
C7 6 2 .04U
R24 2 In 100
I_ADJ 0 Adj 65U
R26 In 25 200K
Q5 25 4 Out QP
R27 16 4 200
R28 7 4 7K
D1 In 7 D2
D2 In 6 DN
V1 18 Out 1.25
.MODEL QN NPN (BF=50 TF=1N CJC=1P)
.MODEL QPOUT PNP  (BF=50 TF=1N RE=.2 CJC=1P)
.MODEL QP PNP CJC=1P  TF=2N
.MODEL DN D
.MODEL D2 D BV=12 IBV=100U
.ENDS LM337
