CyPhy2Schematic Circuit SPICETest
* Network Topology
VEndoDC5V 1 0  DC 5 
XC231 3 2 C_MLCC Capacitance=2.2e-009 Ls=7.2e-010 Rp=5e+009 Rs=0.01 
XC232 2 4 C_MLCC Capacitance=2.2e-009 Ls=7.2e-010 Rp=5e+009 Rs=0.01 
XC233 4 5 C_MLCC Capacitance=2.2e-009 Ls=7.2e-010 Rp=5e+009 Rs=0.01 
XC234 7 6 C_MLCC Capacitance=2.2e-009 Ls=7.2e-010 Rp=5e+009 Rs=0.01 
XC235 6 8 C_MLCC Capacitance=2.2e-009 Ls=7.2e-010 Rp=5e+009 Rs=0.01 
XC236 10 9 C_MLCC Capacitance=2.2e-009 Ls=7.2e-010 Rp=5e+009 Rs=0.01 
XC237 9 11 C_MLCC Capacitance=2.2e-009 Ls=7.2e-010 Rp=5e+009 Rs=0.01 
XC238 13 12 C_MLCC Capacitance=1e-008 Ls=7.2e-010 Rp=5e+009 Rs=0.01 
XQ49 14 11 13 ksc1008ybu 
XQ50 14 8 10 ksc1008ybu 
XQ51 14 5 7 ksc1008ybu 
XR401 15 3 R_CHIP Cp=4e-014 Ls=5e-010 Resistance=10000 
XR402 3 0 R_CHIP Cp=4e-014 Ls=5e-010 Resistance=4700 
XR403 2 0 R_CHIP Cp=4e-014 Ls=5e-010 Resistance=12000 
XR404 0 5 R_CHIP Cp=4e-014 Ls=5e-010 Resistance=33000 
XR405 16 7 R_CHIP Cp=4e-014 Ls=5e-010 Resistance=10000 
XR406 4 7 R_CHIP Cp=4e-014 Ls=5e-010 Resistance=10000 
XR407 0 8 R_CHIP Cp=4e-014 Ls=5e-010 Resistance=22000 
XR408 16 10 R_CHIP Cp=4e-014 Ls=5e-010 Resistance=10000 
XR409 6 10 R_CHIP Cp=4e-014 Ls=5e-010 Resistance=12000 
XR410 0 11 R_CHIP Cp=4e-014 Ls=5e-010 Resistance=47000 
XR411 16 13 R_CHIP Cp=4e-014 Ls=5e-010 Resistance=10000 
XR412 9 13 R_CHIP Cp=4e-014 Ls=5e-010 Resistance=6800 
XR413 0 12 R_CHIP Cp=4e-014 Ls=5e-010 Resistance=10000 
XR419 12 17 R_CHIP Cp=4e-014 Ls=5e-010 Resistance=6800 
XC243 18 0 C_MLCC Capacitance=2.2e-009 Ls=7.2e-010 Rp=5e+009 Rs=0.01 
XC251 20 19 C_MLCC Capacitance=5.6e-008 Ls=7.2e-010 Rp=5e+009 Rs=0.01 
XC252 20 21 C_MLCC Capacitance=5.6e-008 Ls=7.2e-010 Rp=5e+009 Rs=0.01 
XC253 22 23 C_MLCC Capacitance=6.8e-008 Ls=7.2e-010 Rp=5e+009 Rs=0.01 
XC254 22 24 C_MLCC Capacitance=6.8e-008 Ls=7.2e-010 Rp=5e+009 Rs=0.01 
XC261 25 26 C_MLCC Capacitance=3.9e-008 Ls=7.2e-010 Rp=5e+009 Rs=0.01 
XC262 25 27 C_MLCC Capacitance=3.9e-008 Ls=7.2e-010 Rp=5e+009 Rs=0.01 
XC263 29 28 C_MLCC Capacitance=4.7e-008 Ls=7.2e-010 Rp=5e+009 Rs=0.01 
XC264 29 30 C_MLCC Capacitance=4.7e-008 Ls=7.2e-010 Rp=5e+009 Rs=0.01 
XC271 31 32 C_MLCC Capacitance=2.7e-008 Ls=7.2e-010 Rp=5e+009 Rs=0.01 
XC272 31 33 C_MLCC Capacitance=2.7e-008 Ls=7.2e-010 Rp=5e+009 Rs=0.01 
XC273 34 35 C_MLCC Capacitance=3.3e-008 Ls=7.2e-010 Rp=5e+009 Rs=0.01 
XC274 34 36 C_MLCC Capacitance=3.3e-008 Ls=7.2e-010 Rp=5e+009 Rs=0.01 
XC281 38 37 C_MLCC Capacitance=1.5e-008 Ls=7.2e-010 Rp=5e+009 Rs=0.01 
XC282 38 39 C_MLCC Capacitance=1.5e-008 Ls=7.2e-010 Rp=5e+009 Rs=0.01 
XC283 40 41 C_MLCC Capacitance=2.2e-008 Ls=7.2e-010 Rp=5e+009 Rs=0.01 
XC284 40 42 C_MLCC Capacitance=2.2e-008 Ls=7.2e-010 Rp=5e+009 Rs=0.01 
XC291 43 44 C_MLCC Capacitance=1.5e-008 Ls=7.2e-010 Rp=5e+009 Rs=0.01 
XC292 43 45 C_MLCC Capacitance=1.5e-008 Ls=7.2e-010 Rp=5e+009 Rs=0.01 
XC293 47 46 C_MLCC Capacitance=2.2e-008 Ls=7.2e-010 Rp=5e+009 Rs=0.01 
XC294 47 48 C_MLCC Capacitance=2.2e-008 Ls=7.2e-010 Rp=5e+009 Rs=0.01 
XC301 50 49 C_MLCC Capacitance=8.2e-009 Ls=7.2e-010 Rp=5e+009 Rs=0.01 
XC302 50 51 C_MLCC Capacitance=8.2e-009 Ls=7.2e-010 Rp=5e+009 Rs=0.01 
XC303 53 52 C_MLCC Capacitance=1.5e-008 Ls=7.2e-010 Rp=5e+009 Rs=0.01 
XC304 53 54 C_MLCC Capacitance=1.5e-008 Ls=7.2e-010 Rp=5e+009 Rs=0.01 
XC311 56 55 C_MLCC Capacitance=1.5e-008 Ls=7.2e-010 Rp=5e+009 Rs=0.01 
XC312 56 57 C_MLCC Capacitance=1.5e-008 Ls=7.2e-010 Rp=5e+009 Rs=0.01 
XC313 59 58 C_MLCC Capacitance=8.2e-009 Ls=7.2e-010 Rp=5e+009 Rs=0.01 
XC314 59 60 C_MLCC Capacitance=8.2e-009 Ls=7.2e-010 Rp=5e+009 Rs=0.01 
XC321 61 62 C_MLCC Capacitance=6.8e-009 Ls=7.2e-010 Rp=5e+009 Rs=0.01 
XC322 61 63 C_MLCC Capacitance=2.2e-009 Ls=7.2e-010 Rp=5e+009 Rs=0.01 
XC323 64 65 C_MLCC Capacitance=1.2e-008 Ls=7.2e-010 Rp=5e+009 Rs=0.01 
XC324 64 66 C_MLCC Capacitance=1.2e-008 Ls=7.2e-010 Rp=5e+009 Rs=0.01 
XC331 67 68 C_MLCC Capacitance=2.2e-009 Ls=7.2e-010 Rp=5e+009 Rs=0.01 
XC332 67 69 C_MLCC Capacitance=2.7e-009 Ls=7.2e-010 Rp=5e+009 Rs=0.01 
XC333 71 70 C_MLCC Capacitance=8.2e-009 Ls=7.2e-010 Rp=5e+009 Rs=0.01 
XC334 71 72 C_MLCC Capacitance=8.2e-009 Ls=7.2e-010 Rp=5e+009 Rs=0.01 
XC341 74 73 C_MLCC Capacitance=1.2e-009 Ls=7.2e-010 Rp=5e+009 Rs=0.01 
XC342 74 75 C_MLCC Capacitance=2.2e-009 Ls=7.2e-010 Rp=5e+009 Rs=0.01 
XC343 76 77 C_MLCC Capacitance=6.8e-009 Ls=7.2e-010 Rp=5e+009 Rs=0.01 
XC344 76 78 C_MLCC Capacitance=4.7e-009 Ls=7.2e-010 Rp=5e+009 Rs=0.01 
XR420 79 80 R_CHIP Cp=4e-014 Ls=5e-010 Resistance=10000 
XR421 14 81 R_CHIP Cp=4e-014 Ls=5e-010 Resistance=220000 
XR422 81 0 R_CHIP Cp=4e-014 Ls=5e-010 Resistance=10000 
XR434 82 18 R_CHIP Cp=4e-014 Ls=5e-010 Resistance=33000 
XR441 83 20 R_CHIP Cp=4e-014 Ls=5e-010 Resistance=180000 
XR442 20 0 R_CHIP Cp=4e-014 Ls=5e-010 Resistance=1200 
XR443 19 21 R_CHIP Cp=4e-014 Ls=5e-010 Resistance=220000 
XR444 21 84 R_CHIP Cp=4e-014 Ls=5e-010 Resistance=6800 
XR445 85 80 R_CHIP Cp=4e-014 Ls=5e-010 Resistance=10000 
XR446 0 86 R_CHIP Cp=4e-014 Ls=5e-010 Resistance=6800 
XR447 86 22 R_CHIP Cp=4e-014 Ls=5e-010 Resistance=22000 
XR448 22 0 R_CHIP Cp=4e-014 Ls=5e-010 Resistance=1000 
XR449 23 24 R_CHIP Cp=4e-014 Ls=5e-010 Resistance=180000 
XR451 83 25 R_CHIP Cp=4e-014 Ls=5e-010 Resistance=180000 
XR452 25 0 R_CHIP Cp=4e-014 Ls=5e-010 Resistance=1200 
XR453 26 27 R_CHIP Cp=4e-014 Ls=5e-010 Resistance=220000 
XR454 27 87 R_CHIP Cp=4e-014 Ls=5e-010 Resistance=6800 
XR455 88 80 R_CHIP Cp=4e-014 Ls=5e-010 Resistance=10000 
XR456 0 89 R_CHIP Cp=4e-014 Ls=5e-010 Resistance=6800 
XR457 89 29 R_CHIP Cp=4e-014 Ls=5e-010 Resistance=22000 
XR458 29 0 R_CHIP Cp=4e-014 Ls=5e-010 Resistance=1000 
XR459 28 30 R_CHIP Cp=4e-014 Ls=5e-010 Resistance=180000 
XR461 83 31 R_CHIP Cp=4e-014 Ls=5e-010 Resistance=180000 
XR462 31 0 R_CHIP Cp=4e-014 Ls=5e-010 Resistance=1200 
XR463 32 33 R_CHIP Cp=4e-014 Ls=5e-010 Resistance=220000 
XR464 33 90 R_CHIP Cp=4e-014 Ls=5e-010 Resistance=6800 
XR465 91 80 R_CHIP Cp=4e-014 Ls=5e-010 Resistance=10000 
XR466 0 92 R_CHIP Cp=4e-014 Ls=5e-010 Resistance=6800 
XR467 92 34 R_CHIP Cp=4e-014 Ls=5e-010 Resistance=22000 
XR468 34 0 R_CHIP Cp=4e-014 Ls=5e-010 Resistance=1100 
XR469 35 36 R_CHIP Cp=4e-014 Ls=5e-010 Resistance=180000 
XR471 83 38 R_CHIP Cp=4e-014 Ls=5e-010 Resistance=220000 
XR472 38 0 R_CHIP Cp=4e-014 Ls=5e-010 Resistance=1500 
XR473 37 39 R_CHIP Cp=4e-014 Ls=5e-010 Resistance=270000 
XR474 39 93 R_CHIP Cp=4e-014 Ls=5e-010 Resistance=6800 
XR475 94 80 R_CHIP Cp=4e-014 Ls=5e-010 Resistance=10000 
XR476 0 95 R_CHIP Cp=4e-014 Ls=5e-010 Resistance=6800 
XR477 95 40 R_CHIP Cp=4e-014 Ls=5e-010 Resistance=24000 
XR478 40 0 R_CHIP Cp=4e-014 Ls=5e-010 Resistance=1100 
XR479 41 42 R_CHIP Cp=4e-014 Ls=5e-010 Resistance=180000 
XR481 83 43 R_CHIP Cp=4e-014 Ls=5e-010 Resistance=160000 
XR482 43 0 R_CHIP Cp=4e-014 Ls=5e-010 Resistance=1000 
XR483 44 45 R_CHIP Cp=4e-014 Ls=5e-010 Resistance=200000 
XR484 45 96 R_CHIP Cp=4e-014 Ls=5e-010 Resistance=6800 
XR485 97 80 R_CHIP Cp=4e-014 Ls=5e-010 Resistance=10000 
XR486 0 98 R_CHIP Cp=4e-014 Ls=5e-010 Resistance=6800 
XR487 98 47 R_CHIP Cp=4e-014 Ls=5e-010 Resistance=20000 
XR488 47 0 R_CHIP Cp=4e-014 Ls=5e-010 Resistance=910 
XR489 46 48 R_CHIP Cp=4e-014 Ls=5e-010 Resistance=160000 
XR491 83 50 R_CHIP Cp=4e-014 Ls=5e-010 Resistance=180000 
XR492 50 0 R_CHIP Cp=4e-014 Ls=5e-010 Resistance=1200 
XR493 49 51 R_CHIP Cp=4e-014 Ls=5e-010 Resistance=220000 
XR494 51 99 R_CHIP Cp=4e-014 Ls=5e-010 Resistance=6800 
XR495 100 80 R_CHIP Cp=4e-014 Ls=5e-010 Resistance=10000 
XR496 0 101 R_CHIP Cp=4e-014 Ls=5e-010 Resistance=6800 
XR497 101 53 R_CHIP Cp=4e-014 Ls=5e-010 Resistance=15000 
XR498 53 0 R_CHIP Cp=4e-014 Ls=5e-010 Resistance=680 
XR499 52 54 R_CHIP Cp=4e-014 Ls=5e-010 Resistance=120000 
XR501 83 56 R_CHIP Cp=4e-014 Ls=5e-010 Resistance=68000 
XR502 56 0 R_CHIP Cp=4e-014 Ls=5e-010 Resistance=430 
XR503 55 57 R_CHIP Cp=4e-014 Ls=5e-010 Resistance=82000 
XR504 57 102 R_CHIP Cp=4e-014 Ls=5e-010 Resistance=6800 
XR505 103 80 R_CHIP Cp=4e-014 Ls=5e-010 Resistance=10000 
XR506 0 104 R_CHIP Cp=4e-014 Ls=5e-010 Resistance=6800 
XR507 104 59 R_CHIP Cp=4e-014 Ls=5e-010 Resistance=18000 
XR508 59 0 R_CHIP Cp=4e-014 Ls=5e-010 Resistance=820 
XR509 58 60 R_CHIP Cp=4e-014 Ls=5e-010 Resistance=150000 
XR511 83 61 R_CHIP Cp=4e-014 Ls=5e-010 Resistance=330000 
XR512 61 0 R_CHIP Cp=4e-014 Ls=5e-010 Resistance=1000 
XR513 62 63 R_CHIP Cp=4e-014 Ls=5e-010 Resistance=270000 
XR514 63 105 R_CHIP Cp=4e-014 Ls=5e-010 Resistance=6800 
XR515 106 80 R_CHIP Cp=4e-014 Ls=5e-010 Resistance=10000 
XR516 0 107 R_CHIP Cp=4e-014 Ls=5e-010 Resistance=6800 
XR517 107 64 R_CHIP Cp=4e-014 Ls=5e-010 Resistance=9100 
XR518 64 0 R_CHIP Cp=4e-014 Ls=5e-010 Resistance=390 
XR519 65 66 R_CHIP Cp=4e-014 Ls=5e-010 Resistance=75000 
XR521 83 67 R_CHIP Cp=4e-014 Ls=5e-010 Resistance=180000 
XR522 67 0 R_CHIP Cp=4e-014 Ls=5e-010 Resistance=1300 
XR523 68 69 R_CHIP Cp=4e-014 Ls=5e-010 Resistance=270000 
XR524 69 108 R_CHIP Cp=4e-014 Ls=5e-010 Resistance=6800 
XR525 109 80 R_CHIP Cp=4e-014 Ls=5e-010 Resistance=10000 
XR526 0 110 R_CHIP Cp=4e-014 Ls=5e-010 Resistance=6800 
XR527 110 71 R_CHIP Cp=4e-014 Ls=5e-010 Resistance=9100 
XR528 71 0 R_CHIP Cp=4e-014 Ls=5e-010 Resistance=430 
XR529 70 72 R_CHIP Cp=4e-014 Ls=5e-010 Resistance=75000 
XR531 83 74 R_CHIP Cp=4e-014 Ls=5e-010 Resistance=130000 
XR532 74 0 R_CHIP Cp=4e-014 Ls=5e-010 Resistance=1200 
XR533 73 75 R_CHIP Cp=4e-014 Ls=5e-010 Resistance=240000 
XR534 75 111 R_CHIP Cp=4e-014 Ls=5e-010 Resistance=6800 
XR535 112 80 R_CHIP Cp=4e-014 Ls=5e-010 Resistance=10000 
XR536 0 113 R_CHIP Cp=4e-014 Ls=5e-010 Resistance=6800 
XR537 113 76 R_CHIP Cp=4e-014 Ls=5e-010 Resistance=9100 
XR538 76 0 R_CHIP Cp=4e-014 Ls=5e-010 Resistance=360 
XR539 77 78 R_CHIP Cp=4e-014 Ls=5e-010 Resistance=68000 
XU27 0 19 21 0 26 27 14 16 uPC4558G2 
XU28 0 32 33 0 37 39 14 16 uPC4558G2 
XU29 0 44 45 0 49 51 14 16 uPC4558G2 
XU30 0 55 57 0 62 63 14 16 uPC4558G2 
XU31 0 68 69 0 73 75 14 16 uPC4558G2 
XU32 80 80 87 89 88 85 114 86 84 80 80 80 80 80 Quad_CD4066 
XU33 91 97 14 115 116 115 117 115 119 115 118 114 85 88 LM139_A 
XU34 96 98 99 101 100 94 114 95 93 92 90 91 97 80 Quad_CD4066 
XU35 103 109 14 115 121 115 120 115 122 115 123 114 94 100 LM139_A 
XU36 108 110 111 113 112 106 114 107 105 104 102 103 109 80 Quad_CD4066 
XU37 126 79 14 115 124 124 81 115 127 115 125 114 106 112 LM139_A 
XU38 17 82 114 114 114 114 114 114 114 114 114 114 79 80 Quad_CD4066 
XU39 0 23 24 0 28 30 14 16 uPC4558G2 
XU40 0 35 36 0 41 42 14 16 uPC4558G2 
XU41 0 46 48 0 52 54 14 16 uPC4558G2 
XU42 0 58 60 0 65 66 14 16 uPC4558G2 
XU43 0 70 72 0 77 78 14 16 uPC4558G2 
XC131 129 128 C_MLCC Capacitance=6.8e-008 Ls=7.2e-010 Rp=5e+009 Rs=0.01 
XC132 129 130 C_MLCC Capacitance=6.8e-008 Ls=7.2e-010 Rp=5e+009 Rs=0.01 
XC133 132 131 C_MLCC Capacitance=8.2e-008 Ls=7.2e-010 Rp=5e+009 Rs=0.01 
XC134 132 133 C_MLCC Capacitance=8.2e-008 Ls=7.2e-010 Rp=5e+009 Rs=0.01 
XC141 134 135 C_MLCC Capacitance=4.7e-008 Ls=7.2e-010 Rp=5e+009 Rs=0.01 
XC142 134 136 C_MLCC Capacitance=4.7e-008 Ls=7.2e-010 Rp=5e+009 Rs=0.01 
XC143 138 137 C_MLCC Capacitance=5.6e-008 Ls=7.2e-010 Rp=5e+009 Rs=0.01 
XC144 138 139 C_MLCC Capacitance=5.6e-008 Ls=7.2e-010 Rp=5e+009 Rs=0.01 
XR301 15 129 R_CHIP Cp=4e-014 Ls=5e-010 Resistance=33000 
XR302 129 0 R_CHIP Cp=4e-014 Ls=5e-010 Resistance=1200 
XR303 128 130 R_CHIP Cp=4e-014 Ls=5e-010 Resistance=220000 
XR304 130 132 R_CHIP Cp=4e-014 Ls=5e-010 Resistance=27000 
XR305 0 132 R_CHIP Cp=4e-014 Ls=5e-010 Resistance=1000 
XR306 131 133 R_CHIP Cp=4e-014 Ls=5e-010 Resistance=180000 
XR311 15 134 R_CHIP Cp=4e-014 Ls=5e-010 Resistance=30000 
XR312 134 0 R_CHIP Cp=4e-014 Ls=5e-010 Resistance=1200 
XR313 135 136 R_CHIP Cp=4e-014 Ls=5e-010 Resistance=200000 
XR314 136 138 R_CHIP Cp=4e-014 Ls=5e-010 Resistance=27000 
XR315 138 0 R_CHIP Cp=4e-014 Ls=5e-010 Resistance=910 
XR316 137 139 R_CHIP Cp=4e-014 Ls=5e-010 Resistance=180000 
XU50 0 128 130 0 135 136 14 16 uPC4558G2 
XU55 140 131 133 140 137 139 14 16 uPC4558G2 
XC191 142 141 C_MLCC Capacitance=6.8e-009 Ls=7.2e-010 Rp=5e+009 Rs=0.01 
XC192 142 143 C_MLCC Capacitance=6.8e-009 Ls=7.2e-010 Rp=5e+009 Rs=0.01 
XC193 145 144 C_MLCC Capacitance=8.2e-009 Ls=7.2e-010 Rp=5e+009 Rs=0.01 
XC194 145 146 C_MLCC Capacitance=8.2e-009 Ls=7.2e-010 Rp=5e+009 Rs=0.01 
XC201 148 147 C_MLCC Capacitance=4.7e-009 Ls=7.2e-010 Rp=5e+009 Rs=0.01 
XC202 148 149 C_MLCC Capacitance=4.7e-009 Ls=7.2e-010 Rp=5e+009 Rs=0.01 
XC203 151 150 C_MLCC Capacitance=5.6e-009 Ls=7.2e-010 Rp=5e+009 Rs=0.01 
XC204 151 152 C_MLCC Capacitance=5.6e-009 Ls=7.2e-010 Rp=5e+009 Rs=0.01 
XR361 15 142 R_CHIP Cp=4e-014 Ls=5e-010 Resistance=30000 
XR362 142 0 R_CHIP Cp=4e-014 Ls=5e-010 Resistance=1100 
XR363 141 143 R_CHIP Cp=4e-014 Ls=5e-010 Resistance=200000 
XR364 143 145 R_CHIP Cp=4e-014 Ls=5e-010 Resistance=24000 
XR365 0 145 R_CHIP Cp=4e-014 Ls=5e-010 Resistance=910 
XR366 144 146 R_CHIP Cp=4e-014 Ls=5e-010 Resistance=160000 
XR371 15 148 R_CHIP Cp=4e-014 Ls=5e-010 Resistance=30000 
XR372 148 0 R_CHIP Cp=4e-014 Ls=5e-010 Resistance=1200 
XR373 147 149 R_CHIP Cp=4e-014 Ls=5e-010 Resistance=200000 
XR374 149 151 R_CHIP Cp=4e-014 Ls=5e-010 Resistance=27000 
XR375 151 0 R_CHIP Cp=4e-014 Ls=5e-010 Resistance=910 
XR376 150 152 R_CHIP Cp=4e-014 Ls=5e-010 Resistance=180000 
XU47 0 141 143 0 147 149 14 16 uPC4558G2 
XU52 140 144 146 140 150 152 14 16 uPC4558G2 
XC151 153 154 C_MLCC Capacitance=2.7e-008 Ls=7.2e-010 Rp=5e+009 Rs=0.01 
XC152 153 155 C_MLCC Capacitance=2.7e-008 Ls=7.2e-010 Rp=5e+009 Rs=0.01 
XC153 156 157 C_MLCC Capacitance=3.3e-008 Ls=7.2e-010 Rp=5e+009 Rs=0.01 
XC154 156 158 C_MLCC Capacitance=3.3e-008 Ls=7.2e-010 Rp=5e+009 Rs=0.01 
XC161 160 159 C_MLCC Capacitance=2.2e-008 Ls=7.2e-010 Rp=5e+009 Rs=0.01 
XC162 160 161 C_MLCC Capacitance=2.2e-008 Ls=7.2e-010 Rp=5e+009 Rs=0.01 
XC163 163 162 C_MLCC Capacitance=2.7e-008 Ls=7.2e-010 Rp=5e+009 Rs=0.01 
XC164 163 164 C_MLCC Capacitance=2.7e-008 Ls=7.2e-010 Rp=5e+009 Rs=0.01 
XR321 15 153 R_CHIP Cp=4e-014 Ls=5e-010 Resistance=33000 
XR322 153 0 R_CHIP Cp=4e-014 Ls=5e-010 Resistance=1200 
XR323 154 155 R_CHIP Cp=4e-014 Ls=5e-010 Resistance=220000 
XR324 155 156 R_CHIP Cp=4e-014 Ls=5e-010 Resistance=27000 
XR325 0 156 R_CHIP Cp=4e-014 Ls=5e-010 Resistance=1000 
XR326 157 158 R_CHIP Cp=4e-014 Ls=5e-010 Resistance=180000 
XR331 15 160 R_CHIP Cp=4e-014 Ls=5e-010 Resistance=33000 
XR332 160 0 R_CHIP Cp=4e-014 Ls=5e-010 Resistance=1200 
XR333 159 161 R_CHIP Cp=4e-014 Ls=5e-010 Resistance=220000 
XR334 161 163 R_CHIP Cp=4e-014 Ls=5e-010 Resistance=27000 
XR335 0 163 R_CHIP Cp=4e-014 Ls=5e-010 Resistance=1000 
XR336 162 164 R_CHIP Cp=4e-014 Ls=5e-010 Resistance=180000 
XU49 0 154 155 0 159 161 14 16 uPC4558G2 
XU54 140 157 158 140 162 164 14 16 uPC4558G2 
XC211 166 165 C_MLCC Capacitance=2.7e-009 Ls=7.2e-010 Rp=5e+009 Rs=0.01 
XC212 166 167 C_MLCC Capacitance=2.7e-009 Ls=7.2e-010 Rp=5e+009 Rs=0.01 
XC213 169 168 C_MLCC Capacitance=3.3e-009 Ls=7.2e-010 Rp=5e+009 Rs=0.01 
XC214 169 170 C_MLCC Capacitance=3.3e-009 Ls=7.2e-010 Rp=5e+009 Rs=0.01 
XC221 172 171 C_MLCC Capacitance=1.2e-009 Ls=7.2e-010 Rp=5e+009 Rs=0.01 
XC221$1 174 173 C_MLCC Capacitance=1.5e-009 Ls=7.2e-010 Rp=5e+009 Rs=0.01 
XC222 172 175 C_MLCC Capacitance=1.2e-009 Ls=7.2e-010 Rp=5e+009 Rs=0.01 
XC224 174 176 C_MLCC Capacitance=1.5e-009 Ls=7.2e-010 Rp=5e+009 Rs=0.01 
XR381 15 166 R_CHIP Cp=4e-014 Ls=5e-010 Resistance=33000 
XR382 166 0 R_CHIP Cp=4e-014 Ls=5e-010 Resistance=1200 
XR383 165 167 R_CHIP Cp=4e-014 Ls=5e-010 Resistance=220000 
XR384 167 169 R_CHIP Cp=4e-014 Ls=5e-010 Resistance=27000 
XR385 0 169 R_CHIP Cp=4e-014 Ls=5e-010 Resistance=1000 
XR386 168 170 R_CHIP Cp=4e-014 Ls=5e-010 Resistance=180000 
XR391 15 172 R_CHIP Cp=4e-014 Ls=5e-010 Resistance=33000 
XR392 172 0 R_CHIP Cp=4e-014 Ls=5e-010 Resistance=1200 
XR393 171 175 R_CHIP Cp=4e-014 Ls=5e-010 Resistance=220000 
XR394 175 174 R_CHIP Cp=4e-014 Ls=5e-010 Resistance=27000 
XR395 174 0 R_CHIP Cp=4e-014 Ls=5e-010 Resistance=910 
XR396 173 176 R_CHIP Cp=4e-014 Ls=5e-010 Resistance=180000 
XU46 0 165 167 0 171 175 14 16 uPC4558G2 
XU51 140 168 170 140 173 176 14 16 uPC4558G2 
XC171 177 178 C_MLCC Capacitance=1.2e-008 Ls=7.2e-010 Rp=5e+009 Rs=0.01 
XC172 177 179 C_MLCC Capacitance=1.2e-008 Ls=7.2e-010 Rp=5e+009 Rs=0.01 
XC173 181 180 C_MLCC Capacitance=1.5e-008 Ls=7.2e-010 Rp=5e+009 Rs=0.01 
XC174 181 182 C_MLCC Capacitance=1.5e-008 Ls=7.2e-010 Rp=5e+009 Rs=0.01 
XC181 183 184 C_MLCC Capacitance=1e-008 Ls=7.2e-010 Rp=5e+009 Rs=0.01 
XC182 183 185 C_MLCC Capacitance=1e-008 Ls=7.2e-010 Rp=5e+009 Rs=0.01 
XC183 186 187 C_MLCC Capacitance=6.8e-009 Ls=7.2e-010 Rp=5e+009 Rs=0.01 
XC184 186 188 C_MLCC Capacitance=6.8e-008 Ls=7.2e-010 Rp=5e+009 Rs=0.01 
XR341 15 177 R_CHIP Cp=4e-014 Ls=5e-010 Resistance=36000 
XR342 177 0 R_CHIP Cp=4e-014 Ls=5e-010 Resistance=1300 
XR343 178 179 R_CHIP Cp=4e-014 Ls=5e-010 Resistance=240000 
XR344 179 181 R_CHIP Cp=4e-014 Ls=5e-010 Resistance=30000 
XR345 181 0 R_CHIP Cp=4e-014 Ls=5e-010 Resistance=1100 
XR346 180 182 R_CHIP Cp=4e-014 Ls=5e-010 Resistance=200000 
XR351 15 183 R_CHIP Cp=4e-014 Ls=5e-010 Resistance=30000 
XR352 183 0 R_CHIP Cp=4e-014 Ls=5e-010 Resistance=1100 
XR353 184 185 R_CHIP Cp=4e-014 Ls=5e-010 Resistance=200000 
XR354 185 186 R_CHIP Cp=4e-014 Ls=5e-010 Resistance=4300 
XR355 186 0 R_CHIP Cp=4e-014 Ls=5e-010 Resistance=300 
XR356 187 188 R_CHIP Cp=4e-014 Ls=5e-010 Resistance=160000 
XU48 0 178 179 0 184 185 14 16 uPC4558G2 
XU53 140 180 182 140 187 188 14 16 uPC4558G2 
XR726 190 189 R_CHIP Cp=4e-014 Ls=5e-010 Resistance=56000 
XR727 191 0 R_CHIP Cp=4e-014 Ls=5e-010 Resistance=10000 
XVR12 24 190 191 TrimPot a=0.3 
XR744 192 189 R_CHIP Cp=4e-014 Ls=5e-010 Resistance=100000 
XR745 193 0 R_CHIP Cp=4e-014 Ls=5e-010 Resistance=10000 
XVR21 78 192 193 TrimPot a=0.3 
XR746 194 189 R_CHIP Cp=4e-014 Ls=5e-010 Resistance=100000 
XR747 195 0 R_CHIP Cp=4e-014 Ls=5e-010 Resistance=10000 
XVR22 18 194 195 TrimPot a=0.5 
XR728 196 189 R_CHIP Cp=4e-014 Ls=5e-010 Resistance=56000 
XR729 197 0 R_CHIP Cp=4e-014 Ls=5e-010 Resistance=10000 
XVR13 30 196 197 TrimPot a=0.3 
XR730 198 189 R_CHIP Cp=4e-014 Ls=5e-010 Resistance=56000 
XR731 199 0 R_CHIP Cp=4e-014 Ls=5e-010 Resistance=10000 
XVR14 36 198 199 TrimPot a=0.3 
XR732 200 189 R_CHIP Cp=4e-014 Ls=5e-010 Resistance=56000 
XR733 201 0 R_CHIP Cp=4e-014 Ls=5e-010 Resistance=10000 
XVR15 42 200 201 TrimPot a=0.3 
XR734 202 189 R_CHIP Cp=4e-014 Ls=5e-010 Resistance=68000 
XR735 203 0 R_CHIP Cp=4e-014 Ls=5e-010 Resistance=10000 
XVR16 48 202 203 TrimPot a=0.3 
XR736 204 189 R_CHIP Cp=4e-014 Ls=5e-010 Resistance=82000 
XR737 205 0 R_CHIP Cp=4e-014 Ls=5e-010 Resistance=10000 
XVR17 54 204 205 TrimPot a=0.3 
XR738 206 189 R_CHIP Cp=4e-014 Ls=5e-010 Resistance=100000 
XR739 207 0 R_CHIP Cp=4e-014 Ls=5e-010 Resistance=10000 
XVR18 60 206 207 TrimPot a=0.3 
XR740 208 189 R_CHIP Cp=4e-014 Ls=5e-010 Resistance=100000 
XR741 209 0 R_CHIP Cp=4e-014 Ls=5e-010 Resistance=10000 
XVR19 66 208 209 TrimPot a=0.3 
XR742 210 189 R_CHIP Cp=4e-014 Ls=5e-010 Resistance=100000 
XR743 211 0 R_CHIP Cp=4e-014 Ls=5e-010 Resistance=10000 
XVR20 72 210 211 TrimPot a=0.3 
XC708 212 0 C_MLCC Capacitance=1e-005 Ls=1.05e-009 Rp=5e+009 Rs=0.01 
XC709 213 214 C_MLCC Capacitance=4.7e-011 Ls=7.2e-010 Rp=5e+009 Rs=0.01 
XC710 189 215 C_MLCC Capacitance=1e-007 Ls=8.7e-010 Rp=5e+009 Rs=0.01 
XR722 212 213 R_CHIP Cp=4e-014 Ls=5e-010 Resistance=1500 
XR723 0 215 R_CHIP Cp=4e-014 Ls=5e-010 Resistance=100000 
XR724 213 214 R_CHIP Cp=4e-014 Ls=5e-010 Resistance=100000 
XR748 216 0 R_CHIP Cp=4e-014 Ls=5e-010 Resistance=3300 
XR749 217 0 R_CHIP Cp=4e-014 Ls=5e-010 Resistance=3300 
XR750 218 219 R_CHIP Cp=4e-014 Ls=5e-010 Resistance=10000 
XR751 221 220 R_CHIP Cp=4e-014 Ls=5e-010 Resistance=10000 
XR752 222 216 R_CHIP Cp=4e-014 Ls=5e-010 Resistance=6800 
XR753 222 217 R_CHIP Cp=4e-014 Ls=5e-010 Resistance=6800 
XVR23 224 218 217 223 221 216 DualTrimPot a=0.5 
XVR24 219 226 0 220 225 0 DualTrimPot a=0.5 
XC135 0 227 C_MLCC Capacitance=2.2e-008 Ls=7.2e-010 Rp=5e+009 Rs=0.01 
XC136 228 118 C_MLCC Capacitance=3.3e-008 Ls=7.2e-010 Rp=5e+009 Rs=0.01 
XC137 0 229 C_MLCC Capacitance=2.2e-008 Ls=7.2e-010 Rp=5e+009 Rs=0.01 
XC145 0 230 C_MLCC Capacitance=2.2e-008 Ls=7.2e-010 Rp=5e+009 Rs=0.01 
XC146 231 119 C_MLCC Capacitance=3.3e-008 Ls=7.2e-010 Rp=5e+009 Rs=0.01 
XC147 0 232 C_MLCC Capacitance=2.2e-008 Ls=7.2e-010 Rp=5e+009 Rs=0.01 
XC155 0 233 C_MLCC Capacitance=2.2e-008 Ls=7.2e-010 Rp=5e+009 Rs=0.01 
XC156 234 117 C_MLCC Capacitance=3.3e-008 Ls=7.2e-010 Rp=5e+009 Rs=0.01 
XC157 0 235 C_MLCC Capacitance=2.2e-008 Ls=7.2e-010 Rp=5e+009 Rs=0.01 
XC165 0 236 C_MLCC Capacitance=2.2e-008 Ls=7.2e-010 Rp=5e+009 Rs=0.01 
XC166 237 123 C_MLCC Capacitance=3.3e-008 Ls=7.2e-010 Rp=5e+009 Rs=0.01 
XC167 0 238 C_MLCC Capacitance=2.2e-008 Ls=7.2e-010 Rp=5e+009 Rs=0.01 
XC175 0 239 C_MLCC Capacitance=2.2e-008 Ls=7.2e-010 Rp=5e+009 Rs=0.01 
XC176 240 116 C_MLCC Capacitance=3.3e-008 Ls=7.2e-010 Rp=5e+009 Rs=0.01 
XC177 0 241 C_MLCC Capacitance=2.2e-008 Ls=7.2e-010 Rp=5e+009 Rs=0.01 
XC185 0 242 C_MLCC Capacitance=2.2e-008 Ls=7.2e-010 Rp=5e+009 Rs=0.01 
XC186 243 122 C_MLCC Capacitance=3.3e-008 Ls=7.2e-010 Rp=5e+009 Rs=0.01 
XC187 0 244 C_MLCC Capacitance=2.2e-008 Ls=7.2e-010 Rp=5e+009 Rs=0.01 
XC195 0 245 C_MLCC Capacitance=2.2e-008 Ls=7.2e-010 Rp=5e+009 Rs=0.01 
XC196 246 120 C_MLCC Capacitance=3.3e-008 Ls=7.2e-010 Rp=5e+009 Rs=0.01 
XC197 0 247 C_MLCC Capacitance=2.2e-008 Ls=7.2e-010 Rp=5e+009 Rs=0.01 
XC205 0 248 C_MLCC Capacitance=2.2e-008 Ls=7.2e-010 Rp=5e+009 Rs=0.01 
XC206 249 125 C_MLCC Capacitance=3.3e-008 Ls=7.2e-010 Rp=5e+009 Rs=0.01 
XC207 0 250 C_MLCC Capacitance=2.2e-008 Ls=7.2e-010 Rp=5e+009 Rs=0.01 
XC215 0 251 C_MLCC Capacitance=2.2e-008 Ls=7.2e-010 Rp=5e+009 Rs=0.01 
XC216 252 121 C_MLCC Capacitance=3.3e-008 Ls=7.2e-010 Rp=5e+009 Rs=0.01 
XC217 0 253 C_MLCC Capacitance=2.2e-008 Ls=7.2e-010 Rp=5e+009 Rs=0.01 
XC225 0 254 C_MLCC Capacitance=2.2e-008 Ls=7.2e-010 Rp=5e+009 Rs=0.01 
XC226 255 127 C_MLCC Capacitance=3.3e-008 Ls=7.2e-010 Rp=5e+009 Rs=0.01 
XC227 0 256 C_MLCC Capacitance=2.2e-008 Ls=7.2e-010 Rp=5e+009 Rs=0.01 
XD37 133 227 D1N4148 
XD38 139 230 D1N4148 
XD39 158 233 D1N4148 
XD40 164 236 D1N4148 
XD41 182 239 D1N4148 
XD42 188 242 D1N4148 
XD43 146 245 D1N4148 
XD44 152 248 D1N4148 
XD45 170 251 D1N4148 
XD46 176 254 D1N4148 
XR299 257 258 R_CHIP Cp=4e-014 Ls=5e-010 Resistance=1e+006 
XR300 14 259 R_CHIP Cp=4e-014 Ls=5e-010 Resistance=100000 
XR307 227 260 R_CHIP Cp=4e-014 Ls=5e-010 Resistance=470000 
XR308 227 228 R_CHIP Cp=4e-014 Ls=5e-010 Resistance=100000 
XR309 228 229 R_CHIP Cp=4e-014 Ls=5e-010 Resistance=100000 
XR317 230 261 R_CHIP Cp=4e-014 Ls=5e-010 Resistance=470000 
XR318 230 231 R_CHIP Cp=4e-014 Ls=5e-010 Resistance=100000 
XR319 231 232 R_CHIP Cp=4e-014 Ls=5e-010 Resistance=100000 
XR327 233 262 R_CHIP Cp=4e-014 Ls=5e-010 Resistance=470000 
XR328 233 234 R_CHIP Cp=4e-014 Ls=5e-010 Resistance=100000 
XR329 234 235 R_CHIP Cp=4e-014 Ls=5e-010 Resistance=100000 
XR337 236 263 R_CHIP Cp=4e-014 Ls=5e-010 Resistance=470000 
XR338 236 237 R_CHIP Cp=4e-014 Ls=5e-010 Resistance=100000 
XR339 237 238 R_CHIP Cp=4e-014 Ls=5e-010 Resistance=100000 
XR347 239 264 R_CHIP Cp=4e-014 Ls=5e-010 Resistance=470000 
XR348 239 240 R_CHIP Cp=4e-014 Ls=5e-010 Resistance=100000 
XR349 240 241 R_CHIP Cp=4e-014 Ls=5e-010 Resistance=100000 
XR357 242 265 R_CHIP Cp=4e-014 Ls=5e-010 Resistance=470000 
XR358 242 243 R_CHIP Cp=4e-014 Ls=5e-010 Resistance=100000 
XR359 243 244 R_CHIP Cp=4e-014 Ls=5e-010 Resistance=100000 
XR367 245 266 R_CHIP Cp=4e-014 Ls=5e-010 Resistance=470000 
XR368 245 246 R_CHIP Cp=4e-014 Ls=5e-010 Resistance=100000 
XR369 246 247 R_CHIP Cp=4e-014 Ls=5e-010 Resistance=100000 
XR377 248 267 R_CHIP Cp=4e-014 Ls=5e-010 Resistance=470000 
XR378 248 249 R_CHIP Cp=4e-014 Ls=5e-010 Resistance=100000 
XR379 249 250 R_CHIP Cp=4e-014 Ls=5e-010 Resistance=100000 
XR387 251 268 R_CHIP Cp=4e-014 Ls=5e-010 Resistance=470000 
XR388 251 252 R_CHIP Cp=4e-014 Ls=5e-010 Resistance=100000 
XR389 252 253 R_CHIP Cp=4e-014 Ls=5e-010 Resistance=100000 
XR397 254 269 R_CHIP Cp=4e-014 Ls=5e-010 Resistance=470000 
XR398 254 255 R_CHIP Cp=4e-014 Ls=5e-010 Resistance=100000 
XR399 255 256 R_CHIP Cp=4e-014 Ls=5e-010 Resistance=100000 
XU56 0 0 269 0 259 259 258 0 267 268 0 259 0 14 Quad_CD4066 
XU57 0 266 265 0 259 259 258 0 263 264 0 259 259 14 Quad_CD4066 
XU58 0 262 261 0 259 259 258 0 260 258 0 257 259 14 Quad_CD4066 
XU59 256 127 127 253 121 121 14 16 TL082CD 
XU60 250 125 125 247 120 120 14 16 TL082CD 
XU61 244 122 122 241 116 116 14 16 TL082CD 
XU62 238 123 123 235 117 117 14 16 TL082CD 
XU63 232 119 119 229 118 118 14 16 TL082CD 
CC130 140 0  10u 
XD36 140 0 D1N4148 
XR298 14 140 R_CHIP Cp=4e-014 Ls=5e-010 Resistance=2.2e+006 
XC239 271 270 C_MLCC Capacitance=1e-008 Ls=7.2e-010 Rp=5e+009 Rs=0.01 
XC240 0 271 C_MLCC Capacitance=2.2e-009 Ls=7.2e-010 Rp=5e+009 Rs=0.01 
XC242 272 124 C_MLCC Capacitance=1e-007 Ls=8.7e-010 Rp=5e+009 Rs=0.01 
XD47 271 273 D1N4148 
XD48 274 271 D1N4148 
XD49 274 275 D1N4148 
XD50 275 273 D1N4148 
XD51 276 277 D1N4148 
XD52 278 276 D1N4148 
XQ52 273 274 279 J2N3819 
XR414 280 275 R_CHIP Cp=4e-014 Ls=5e-010 Resistance=5600 
XR415 0 280 R_CHIP Cp=4e-014 Ls=5e-010 Resistance=2700 
XR416 270 281 R_CHIP Cp=4e-014 Ls=5e-010 Resistance=100000 
XR417 281 282 R_CHIP Cp=4e-014 Ls=5e-010 Resistance=10000 
XR418 281 0 R_CHIP Cp=4e-014 Ls=5e-010 Resistance=5600 
XR426 283 277 R_CHIP Cp=4e-014 Ls=5e-010 Resistance=22000 
XR427 83 283 R_CHIP Cp=4e-014 Ls=5e-010 Resistance=22000 
XR428 283 278 R_CHIP Cp=4e-014 Ls=5e-010 Resistance=22000 
XR429 0 284 R_CHIP Cp=4e-014 Ls=5e-010 Resistance=10000 
XR430 0 285 R_CHIP Cp=4e-014 Ls=5e-010 Resistance=10000 
XR431 278 272 R_CHIP Cp=4e-014 Ls=5e-010 Resistance=22000 
XR432 83 272 R_CHIP Cp=4e-014 Ls=5e-010 Resistance=47000 
XR433 272 124 R_CHIP Cp=4e-014 Ls=5e-010 Resistance=150000 
XRVR9Ext 274 286 R_CHIP Cp=4e-014 Ls=5e-010 Resistance=510 
XU44 270 115 115 280 271 275 14 16 LF353Dual 
XU45 285 272 124 284 283 276 14 16 uPC4558G2 
XVR8 282 14 14 TrimPot202 a=0.5 
XVR9 286 279 279 TrimPot202 a=0.99 
VDC_Power 258 0  DC -2.5 
VDC_Power$1 80 0  DC 7 
VDC_Power$2 114 0  DC -7 
VDC_Power$3 16 0  DC -15 
VDC_Power$4 14 0  DC 15 

* Sub Circuits
* C_MLCC
* Simple generic SPICE model of a multi-layer ceramic chip (MLCC) capacitor.
*
*
*----------------------------------------------
*  External Pins:
*
*   1 ---||---- 2
*
*----------------------------------------------
* 
*  Equivalent circuit:
*
*                  ___
*     .-----------|___|--------.
*     |            R2          |
*     |                        |
*  (1)|   ___  (3) || (4) ___  |(2)
*   o-o--|___|--o--||--o--UUU--o-o
*         R1       ||     L1
*                  C1
* 
* 
*
* C1 = "Capacitance"
* R1 = "Rs" (Equivalent series resistance)
* R2 = "Rp" (Parallel / leakage resistance)
* L1 = "Ls" (Series / lead inductance)
* 
*----------------------------------------------
*
.SUBCKT C_MLCC 1 2 PARAMS: Rs=0.01 Ls=1.0n Rp=5e9 Capacitance=0.1u
C1 3 4 {Capacitance}
R1 1 3 {Rs}
L1 4 2 {Ls}
R2 1 2 {Rp}
.ENDS C_MLCC
*Spice model for ksc1008ybu NPN Mosfet
.SUBCKT ksc1008ybu C B E
Q1 C B E 0 ksc1008
.model ksc1008 NPN (IS=1E-14 VAF=100 BF=200 IKF=0.3 XTB=1.5 BR=3 CJC=8E-12 CJE=25E-12 TR=100E-9 TF=400E-12 ITF=1 VTF=2 XTF=3 RB=10 RC=.3 RE=.2 Vceo=30 Icrating=800m)
.ENDS ksc1008ybu
* R_CHIP
* Simple generic SPICE model of a chip resistor.
*
*
*----------------------------------------------
*  External Pins:
*
*   1 ---/\/\/\/\--- 2
*
*----------------------------------------------
* 
*  Equivalent circuit:
*
*                 C1
* 
*                 ||
*       .---------||--------.
*       |         ||        |
*       |   R1         L1   |
*   (1) |   ___   (3)  ___  | (2)
*     o-o--|___|---o---UUU--o-o
*
* R1 = "Resistance"
* L1 = "Ls"
* C1 = "Cp"
* 
*----------------------------------------------
*
.SUBCKT R_CHIP 1 2 PARAMS: Resistance=1k Ls=0.2e-12 Cp=280p
R1 1 3 {Resistance}
L1 3 2 {Ls}
C1 1 2 {Cp}
.ENDS R_CHIP
*uPC4558G2 Dual OpAmp Spice
* CONNECTIONS:    NON-INVERTING INPUT #1
*                 | INVERTING INPUT #1
*                 | | OUT #1
*                 | | | NON-INVERTING INPUT #2      
*                 | | | |  INVERTING INPUT #2      
*                 | | | |  |  OUT #2
*                 | | | |  |  |  POSITIVE POWER SUPPLY
*                 | | | |  |  |  |   NEGATIVE POWER SUPPLY
*                 | | | |  |  |  |   |  
.SUBCKT uPC4558G2 1 2 3 4  5  6  7   8
XU1 1 2 7 8 3 upc4558_single
XU2 4 5 7 8 6 upc4558_single
.ENDS
*Single opamp
* CONNECTIONS:          NON-INVERTING INPUT
*                       | INVERTING INPUT
*                       | | POSITIVE POWER SUPPLY
*                       | | | NEGATIVE POWER SUPPLY
*                       | | | | OUTPUT
*                       | | | | |
.subckt upc4558_single  1 2 3 4 5
  c1   11 12 8.660E-12
  c2    6  7 30.00E-12
  dc    5 53 dx
  de   54  5 dx
  dlp  90 91 dx
  dln  92 90 dx
  dp    4  3 dx
  egnd 99  0 poly(2) (3,0) (4,0) 0 .5 .5
  fb    7 99 poly(5) vb vc ve vlp vln 0 42.44E6 -42E6 42E6 42E6 -42E6
  ga    6  0 11 12 377.0E-6
  gcm   0  6 10 99 11.92E-9
  iee   3 10 dc 30.12E-6
  hlim 90  0 vlim 1K
  q1   11  2 13 qx
  q2   12  1 14 qx
  r2    6  9 100.0E3
  rc1   4 11 2.653E3
  rc2   4 12 2.653E3
  re1  13 10 924.6
  re2  14 10 924.6
  ree  10 99 6.640E6
  ro1   8  5 50
  ro2   7 99 25
  rp    3  4 10.10E3
  vb    9  0 dc 0
  vc    3 53 dc 1
  ve   54  4 dc 1
  vlim  7  8 dc 0
  vlp  91  0 dc 20
  vln   0 92 dc 20
.model dx D(Is=800.0E-18)
.model qx PNP(Is=800.0E-18 Bf=250)
.ENDS
* CD4066 Analog Switch
* SYM=CD4066
* Transistor models are from LTspice group member kcin_melnick
* See message number 16897, http://tech.groups.yahoo.com/group/LTspice/
* Analog Switch
.SUBCKT Quad_CD4066 1 2 3 4 5 6 7 8 9 10 11 12 13 14
XA 13 1 2 14 7 		CD4066
XB 5 4 3 14 7  		CD4066
XC 6 8 9 14 7 		CD4066
XD 12 11 10 14 7	CD4066
.ENDS
* CONNECTIONS:   Control
*                |  In
*                |  | Out
*                |  | |  Vdd
*                |  | |  | Vss
*                |  | |  | |
.SUBCKT CD4066   2 11 4 10 7
X1 2 6 10 7 INVERT
X2 6 1 10 7 INVERT
M1 14 6 7 7 CD4007N
M7 11 6 14 10 CD4007P
M3 11 1 14 14 CD4007N
M4 11 1 4 14 CD4007N
M8 11 6 4 10 CD4007P
.SUBCKT INVERT 1 2 3 4
* Inverter In Out Vcc Vss
M1 2 1 3 3 CD4007P
M2 2 1 4 4 CD4007N
.ENDS
.MODEL CD4007N NMOS (
+ LEVEL=1 VTO=1.44 KP=320u L=10u W=30u GAMMA=0 PHI=.6 LAMBDA=10m
+ RD=23.2 RS=90.1 IS=16.64p CBD=2.0p CBS=2.0p CGSO=0.1p CGDO=0.1p
+ PB=.8 TOX=1200n)
 
.MODEL CD4007P PMOS (
+ LEVEL=1 VTO=-1.2 KP=110u L=10U W=60U GAMMA=0 PHI=.6 LAMBDA=40m
+ RD=21.2 RS=62.2 IS=16.64P CBD=4.0P CBS=4.0P CGSO=0.2P CGDO=0.2P
+ PB=.8 TOX=1200N)
.ENDS
* LM139 VOLTAGE COMPARATOR COMPLETE MODEL SUBCIRCUIT
*CONNECTIONS:  Output 1
*	             | Output 2
*	             | | VCC
*	             | | | 2- INPUT
*	             | | | | 2+ INPUT
*	             | | | | | 1- INPUT
*	             | | | | | | 1+ INPUT
*	             | | | | | | | 3- INPUT
*	             | | | | | | | | 3+ INPUT
*	             | | | | | | | | | 4- INPUT
*	             | | | | | | | | | |  4+ INPUT
*	             | | | | | | | | | |  |  GND
*	             | | | | | | | | | |  |  |  OUTPUT 4
*	             | | | | | | | | | |  |  |  |  OUTPUT 3
*	             | | | | | | | | | |  |  |  |  |
.SUBCKT LM139_A  1 2 3 4 5 6 7 8 9 10 11 12 13 14
X1  7  6 3 12  1 LM139_SINGLE
X2  5  4 3 12  2 LM139_SINGLE
X3  9  8 3 12 14 LM139_SINGLE
X4 11 10 3 12 13 LM139_SINGLE
.ENDS

* LM139A VOLTAGE COMPARATOR "MACROMODEL" SUBCIRCUIT
* CREATED USING PARTS VERSION 4.03 ON 03/07/90 AT 14:17
* REV (N/A)
* CONNECTIONS:   NON-INVERTING INPUT
*                | INVERTING INPUT
*                | | POSITIVE POWER SUPPLY
*                | | | NEGATIVE POWER SUPPLY
*                | | | | OPEN COLLECTOR OUTPUT
*                | | | | |
.SUBCKT LM139_SINGLE   1 2 3 4 5
  F1    9  3 V1 1
  IEE   3  7 DC 100.0E-6
  VI1  21  1 DC .75
  VI2  22  2 DC .75
  Q1    9 21  7 QIN
  Q2    8 22  7 QIN
  Q3    9  8  4 QMO
  Q4    8  8  4 QMI
.MODEL QIN PNP(IS=800.0E-18 BF=2.000E3)
.MODEL QMI NPN(IS=800.0E-18 BF=1002)
.MODEL QMO NPN(IS=800.0E-18 BF=1000 CJC=1E-15 TR=807.4E-9)
  E1   10  4  9  4  1
  V1   10 11 DC 0
  Q5    5 11  4 QOC
.MODEL QOC NPN(IS=800.0E-18 BF=20.29E3 CJC=1E-15 TF=942.6E-12 TR=543.8E-9)
  DP    4  3 DX
  RP 3  4 46.3E3
.MODEL DX  D(IS=800.0E-18)
.ENDS
*Potentiometer 10k
.SUBCKT TrimPot 1 W 2 PARAMS: a = 0.5
R1 1 W {10k*a}
R2 2 W {10k*(1-a)}
.ENDS
*DUAL Potentiometer 10k
.SUBCKT DualTrimPot X1 XW X2 Y1 YW Y2 PARAMS: a = 0.5
R1 X1 XW {10k*a}
R2 X2 XW {10k*(1-a)}
R3 Y1 YW {10k*a}
R4 Y2 YW {10k*(1-a)}
.ENDS
*1n4148 diode model
.SUBCKT D1N4148 1 2 
*
* The resistor R1 does not reflect 
* a physical device. Instead it
* improves modeling in the reverse 
* mode of operation.
*
R1 1 2 5.827E+9 
D1 1 2 1N4148
*
.MODEL 1N4148 D 
+ IS = 4.352E-9 
+ N = 1.906 
+ BV = 110 
+ IBV = 0.0001 
+ RS = 0.6458 
+ CJO = 7.048E-13 
+ VJ = 0.869 
+ M = 0.03 
+ FC = 0.5 
+ TT = 3.48E-9 
.ENDS
*
*TL082CD Dual OpAmp Spice
* CONNECTIONS:    NON-INVERTING INPUT #1
*                 | INVERTING INPUT #1
*                 | | OUT #1
*                 | | | NON-INVERTING INPUT #2      
*                 | | | |  INVERTING INPUT #2      
*                 | | | |  |  OUT #2
*                 | | | |  |  |  POSITIVE POWER SUPPLY
*                 | | | |  |  |  |   NEGATIVE POWER SUPPLY
*                 | | | |  |  |  |   |  
.SUBCKT  TL082CD  1 2 3 4  5  6  7   8
XU1 1 2 7 8 3 TL081
XU2 4 5 7 8 6 TL081
.ENDS

* TL081 OPERATIONAL AMPLIFIER "MACROMODEL" SUBCIRCUIT
* CREATED USING PARTS RELEASE 4.01 ON 06/16/89 AT 13:08
* (REV N/A)      SUPPLY VOLTAGE: +/-15V
* CONNECTIONS:   NON-INVERTING INPUT
*                | INVERTING INPUT
*                | | POSITIVE POWER SUPPLY
*                | | | NEGATIVE POWER SUPPLY
*                | | | | OUTPUT
*                | | | | |
.SUBCKT TL081    1 2 3 4 5
*
  C1   11 12 3.498E-12
  C2    6  7 15.00E-12
  DC    5 53 DX
  DE   54  5 DX
  DLP  90 91 DX
  DLN  92 90 DX
  DP    4  3 DX
  EGND 99  0 POLY(2) (3,0) (4,0) 0 .5 .5
  FB    7 99 POLY(5) VB VC VE VLP VLN 0 4.715E6 -5E6 5E6 5E6 -5E6
  GA    6  0 11 12 282.8E-6
  GCM   0  6 10 99 8.942E-9
  ISS   3 10 DC 195.0E-6
  HLIM 90  0 VLIM 1K
  J1   11  2 10 JX
  J2   12  1 10 JX
  R2    6  9 100.0E3
  RD1   4 11 3.536E3
  RD2   4 12 3.536E3
  RO1   8  5 150
  RO2   7 99 150
  RP    3  4 2.143E3
  RSS  10 99 1.026E6
  VB    9  0 DC 0
  VC    3 53 DC 2.200
  VE   54  4 DC 2.200
  VLIM  7  8 DC 0
  VLP  91  0 DC 25
  VLN   0 92 DC 25
.MODEL DX D(IS=800.0E-18)
.MODEL JX PJF(IS=15.00E-12 BETA=270.1E-6 VTO=-1)
.ENDS
*N-Channel JFET 2N3819
.SUBCKT J2N3819 D G S
J1 D G S N3819
.model N3819 NJF(Beta=1.304m Betatce=-.5 Rd=1 Rs=1 Lambda=2.25m Vto=-3 Vtotc=-2.5m Is=33.57f Isr=322.4f N=1 Nr=2 Xti=3 Alpha=311.7u Vk=243.6 Cgd=1.6p M=.3622 Pb=1 Fc=.5 Cgs=2.414p Kf=9.882E-18 Af=1)
.ENDS
*LF353 Dual OpAmp Spice Model
* CONNECTIONS:    1 +In
*                 | 1 -In
*                 | | 1 Out
*                 | | | 2 +In
*                 | | | | 2 -In
*                 | | | | | 2 Out
*                 | | | | | | VCC
*                 | | | | | | | VSS
*                 | | | | | | | |
.SUBCKT LF353Dual 1 2 3 4 5 6 7 8
XU1 1 2 7 8 3 LF353
XU2 4 5 7 8 6 LF353
.ENDS

* LF353 OPERATIONAL AMPLIFIER "MACROMODEL" SUBCIRCUIT
* CREATED USING PARTS RELEASE 4.01 ON 06/27/89 AT 08:19
* (REV N/A)      SUPPLY VOLTAGE: +/-15V
* CONNECTIONS:   NON-INVERTING INPUT
*                | INVERTING INPUT
*                | | POSITIVE POWER SUPPLY
*                | | | NEGATIVE POWER SUPPLY
*                | | | | OUTPUT
*                | | | | |
.SUBCKT LF353    1 2 3 4 5
*
  C1   11 12 3.498E-12
  C2    6  7 15.00E-12
  DC    5 53 DX
  DE   54  5 DX
  DLP  90 91 DX
  DLN  92 90 DX
  DP    4  3 DX
  EGND 99  0 POLY(2) (3,0) (4,0) 0 .5 .5
  FB    7 99 POLY(5) VB VC VE VLP VLN 0 28.29E6 -30E6 30E6 30E6 -30E6
  GA    6  0 11 12 282.8E-6
  GCM   0  6 10 99 1.590E-9
  ISS   3 10 DC 195.0E-6
  HLIM 90  0 VLIM 1K
  J1   11  2 10 JX
  J2   12  1 10 JX
  R2    6  9 100.0E3
  RD1   4 11 3.536E3
  RD2   4 12 3.536E3
  RO1   8  5 50
  RO2 7 99 11.62
  RP    3  4 15.00E3
  RSS  10 99 1.026E6
  VB    9  0 DC 0
  VC    3 53 DC 2.200
  VE   54  4 DC 2.200
  VLIM  7  8 DC 0
  VLP  91  0 DC 30
  VLN   0 92 DC 30
.MODEL DX D(IS=800.0E-18)
.MODEL JX PJF(IS=12.50E-12 BETA=250.1E-6 VTO=-1)
.ENDS
*Potentiometer 2k
.SUBCKT TrimPot202 1 W 2 PARAMS: a = 0.5
R1 1 W {2k*a}
R2 2 W {2k*(1-a)}
.ENDS

.TRAN 1 uic
.wave something.wav 24 44100 V(_)

.end
