{
  "boardWidth": 13.0,
  "boardHeight": 15.0,
  "boardEdgeSpace": 0.5,
  "interChipSpace": 0.2,
  "numLayers": 2,
  "boardTemplate": null,
  "designRules": "MacroFab_2_Layer.dru",
  "omitBoundary": null,
  "packages": [
    {
      "name": "C1",
      "package": "C_0402",
      "pkg_idx": 0,
      "ComponentID": "ab9d80e6-1b28-4f1b-9305-c104edafe113",
      "RelComponentID": null,
      "width": 1.72,
      "height": 0.72,
      "koWidth": 1.72,
      "koHeight": 0.72,
      "originX": 0.0,
      "originY": 0.0,
      "x": 0.44,
      "y": 5.54,
      "rotation": 2,
      "layer": 1,
      "constraints": null,
      "multiLayer": null,
      "doNotPlace": null
    },
    {
      "name": "C2",
      "package": "C_0805",
      "pkg_idx": 1,
      "ComponentID": "ac39a070-0d99-403e-88f8-e406bec5929b",
      "RelComponentID": null,
      "width": 3.35,
      "height": 1.55,
      "koWidth": 3.35,
      "koHeight": 1.55,
      "originX": 0.0,
      "originY": 0.0,
      "x": 4.925,
      "y": 2.825,
      "rotation": 3,
      "layer": 1,
      "constraints": null,
      "multiLayer": null,
      "doNotPlace": null
    },
    {
      "name": "CBYP",
      "package": "C_0603",
      "pkg_idx": 2,
      "ComponentID": "65b3ab8e-6361-455d-9a41-1b89da01c37f",
      "RelComponentID": null,
      "width": 2.95,
      "height": 1.1,
      "koWidth": 2.95,
      "koHeight": 1.1,
      "originX": 0.0,
      "originY": 0.0,
      "x": 7.55,
      "y": 7.825,
      "rotation": 3,
      "layer": 1,
      "constraints": null,
      "multiLayer": null,
      "doNotPlace": null
    },
    {
      "name": "OPA344",
      "package": "SOT23-5",
      "pkg_idx": 3,
      "ComponentID": "a4a0d7f0-fb0f-4f1c-8431-b3491996c2c4",
      "RelComponentID": null,
      "width": 3.2024,
      "height": 3.8274,
      "koWidth": 3.3424,
      "koHeight": 3.9674,
      "originX": -0.4,
      "originY": -0.1,
      "x": 4.3988,
      "y": 7.4863,
      "rotation": 0,
      "layer": 1,
      "constraints": null,
      "multiLayer": null,
      "doNotPlace": null
    },
    {
      "name": "PREGAIN",
      "package": "EVUFXL",
      "pkg_idx": 4,
      "ComponentID": "b63e602e-c3e0-4fa6-a026-0e67b2a62608",
      "RelComponentID": null,
      "width": 13.4,
      "height": 13.7382,
      "koWidth": 13.4,
      "koHeight": 13.7382,
      "originX": 0.0,
      "originY": -1.0,
      "x": -0.2,
      "y": 0.5309,
      "rotation": 0,
      "layer": 0,
      "constraints": null,
      "multiLayer": null,
      "doNotPlace": null
    },
    {
      "name": "R1",
      "package": "R_0603",
      "pkg_idx": 5,
      "ComponentID": "f6d929f7-bd6f-4f8d-9aa3-e578380c706a",
      "RelComponentID": null,
      "width": 2.4,
      "height": 0.8,
      "koWidth": 2.4,
      "koHeight": 0.8,
      "originX": 0.0,
      "originY": 0.0,
      "x": 3.3,
      "y": 3.2,
      "rotation": 1,
      "layer": 1,
      "constraints": null,
      "multiLayer": null,
      "doNotPlace": null
    },
    {
      "name": "R2",
      "package": "R_0603",
      "pkg_idx": 6,
      "ComponentID": "f9b8dc92-ab30-46d6-b5e8-728dcdf396f2",
      "RelComponentID": null,
      "width": 2.4,
      "height": 0.8,
      "koWidth": 2.4,
      "koHeight": 0.8,
      "originX": 0.0,
      "originY": 0.0,
      "x": 8.8,
      "y": 3.2,
      "rotation": 1,
      "layer": 1,
      "constraints": null,
      "multiLayer": null,
      "doNotPlace": null
    },
    {
      "name": "R3",
      "package": "R_0603",
      "pkg_idx": 7,
      "ComponentID": "a0597687-02c3-4a88-aa80-bcf46726a163",
      "RelComponentID": null,
      "width": 2.4,
      "height": 0.8,
      "koWidth": 2.4,
      "koHeight": 0.8,
      "originX": 0.0,
      "originY": 0.0,
      "x": 10.3,
      "y": 3.2,
      "rotation": 1,
      "layer": 1,
      "constraints": null,
      "multiLayer": null,
      "doNotPlace": null
    },
    {
      "name": "R4",
      "package": "R_0603",
      "pkg_idx": 8,
      "ComponentID": "646ca427-3ec4-445d-bcda-0c33c9ccc61b",
      "RelComponentID": null,
      "width": 2.4,
      "height": 0.8,
      "koWidth": 2.4,
      "koHeight": 0.8,
      "originX": 0.0,
      "originY": 0.0,
      "x": 7.3,
      "y": 3.2,
      "rotation": 3,
      "layer": 1,
      "constraints": null,
      "multiLayer": null,
      "doNotPlace": null
    }
  ],
  "signals": [
    {
      "name": "N$0",
      "length": 5.2321041470140814,
      "bends": 6,
      "RelComponentID": null,
      "pins": [
        {
          "name": "P$2",
          "gate": "G$1",
          "pad": "2",
          "package": "C1"
        },
        {
          "name": "+IN",
          "gate": "G$1",
          "pad": "3",
          "package": "OPA344"
        },
        {
          "name": "2",
          "gate": "G$1",
          "pad": "P$2",
          "package": "R1"
        }
      ],
      "wires": [
        {
          "x1": 3.2004,
          "y1": 5.7912,
          "x2": 1.8288,
          "y2": 5.7912,
          "width": 0.1524,
          "layer": 16,
          "curve": 0.0
        },
        {
          "x1": 3.6576,
          "y1": 5.334,
          "x2": 3.2004,
          "y2": 5.7912,
          "width": 0.1524,
          "layer": 16,
          "curve": 0.0
        },
        {
          "x1": 1.8288,
          "y1": 5.7912,
          "x2": 1.8,
          "y2": 5.9,
          "width": 0.1524,
          "layer": 16,
          "curve": 0.0
        },
        {
          "x1": 3.6576,
          "y1": 5.334,
          "x2": 3.7,
          "y2": 5.2,
          "width": 0.1524,
          "layer": 16,
          "curve": 0.0
        },
        {
          "x1": 4.572,
          "y1": 7.1628,
          "x2": 4.572,
          "y2": 8.0772,
          "width": 0.1524,
          "layer": 16,
          "curve": 0.0
        },
        {
          "x1": 3.2004,
          "y1": 5.7912,
          "x2": 4.572,
          "y2": 7.1628,
          "width": 0.1524,
          "layer": 16,
          "curve": 0.0
        },
        {
          "x1": 4.572,
          "y1": 8.0772,
          "x2": 4.65,
          "y2": 8.15,
          "width": 0.1524,
          "layer": 16,
          "curve": 0.0
        }
      ],
      "vias": [],
      "polygons": []
    },
    {
      "name": "N$1",
      "length": 8.168395518566447,
      "bends": 10,
      "RelComponentID": null,
      "pins": [
        {
          "name": "P$1",
          "gate": "G$1",
          "pad": "1",
          "package": "C2"
        },
        {
          "name": "V-",
          "gate": "G$1",
          "pad": "2",
          "package": "OPA344"
        },
        {
          "name": "P$2",
          "gate": "G$1",
          "pad": "2",
          "package": "CBYP"
        },
        {
          "name": "1",
          "gate": "G$1",
          "pad": "P$1",
          "package": "R4"
        }
      ],
      "wires": [
        {
          "x1": 5.9436,
          "y1": 5.334,
          "x2": 7.62,
          "y2": 5.334,
          "width": 0.1524,
          "layer": 16,
          "curve": 0.0
        },
        {
          "x1": 5.7912,
          "y1": 5.4864,
          "x2": 5.9436,
          "y2": 5.334,
          "width": 0.1524,
          "layer": 16,
          "curve": 0.0
        },
        {
          "x1": 7.62,
          "y1": 5.334,
          "x2": 7.7,
          "y2": 5.2,
          "width": 0.1524,
          "layer": 16,
          "curve": 0.0
        },
        {
          "x1": 5.7912,
          "y1": 5.4864,
          "x2": 5.7,
          "y2": 5.5,
          "width": 0.1524,
          "layer": 16,
          "curve": 0.0
        },
        {
          "x1": 5.6388,
          "y1": 5.6388,
          "x2": 5.6388,
          "y2": 8.0772,
          "width": 0.1524,
          "layer": 16,
          "curve": 0.0
        },
        {
          "x1": 5.6388,
          "y1": 8.0772,
          "x2": 5.6,
          "y2": 8.15,
          "width": 0.1524,
          "layer": 16,
          "curve": 0.0
        },
        {
          "x1": 5.6388,
          "y1": 5.6388,
          "x2": 5.7,
          "y2": 5.5,
          "width": 0.1524,
          "layer": 16,
          "curve": 0.0
        },
        {
          "x1": 8.0772,
          "y1": 5.6388,
          "x2": 8.0772,
          "y2": 8.382,
          "width": 0.1524,
          "layer": 16,
          "curve": 0.0
        },
        {
          "x1": 7.7724,
          "y1": 5.334,
          "x2": 8.0772,
          "y2": 5.6388,
          "width": 0.1524,
          "layer": 16,
          "curve": 0.0
        },
        {
          "x1": 8.0772,
          "y1": 8.382,
          "x2": 8.1,
          "y2": 8.4,
          "width": 0.1524,
          "layer": 16,
          "curve": 0.0
        },
        {
          "x1": 7.7724,
          "y1": 5.334,
          "x2": 7.7,
          "y2": 5.2,
          "width": 0.1524,
          "layer": 16,
          "curve": 0.0
        }
      ],
      "vias": [],
      "polygons": []
    },
    {
      "name": "N$2",
      "length": 7.1738693910238078,
      "bends": 11,
      "RelComponentID": null,
      "pins": [
        {
          "name": "P$2",
          "gate": "G$1",
          "pad": "2",
          "package": "C2"
        },
        {
          "name": "1",
          "gate": "G$1",
          "pad": "P$1",
          "package": "R2"
        },
        {
          "name": "1",
          "gate": "G$1",
          "pad": "P$1",
          "package": "R1"
        },
        {
          "name": "1",
          "gate": "G$1",
          "pad": "P$1",
          "package": "R3"
        },
        {
          "name": "2",
          "gate": "G$1",
          "pad": "P$2",
          "package": "R4"
        }
      ],
      "wires": [
        {
          "x1": 9.144,
          "y1": 3.6576,
          "x2": 7.7724,
          "y2": 3.6576,
          "width": 0.1524,
          "layer": 16,
          "curve": 0.0
        },
        {
          "x1": 7.7724,
          "y1": 3.6576,
          "x2": 7.7,
          "y2": 3.6,
          "width": 0.1524,
          "layer": 16,
          "curve": 0.0
        },
        {
          "x1": 9.144,
          "y1": 3.6576,
          "x2": 9.2,
          "y2": 3.6,
          "width": 0.1524,
          "layer": 16,
          "curve": 0.0
        },
        {
          "x1": 9.2964,
          "y1": 3.6576,
          "x2": 10.668,
          "y2": 3.6576,
          "width": 0.1524,
          "layer": 16,
          "curve": 0.0
        },
        {
          "x1": 10.668,
          "y1": 3.6576,
          "x2": 10.7,
          "y2": 3.6,
          "width": 0.1524,
          "layer": 16,
          "curve": 0.0
        },
        {
          "x1": 9.2964,
          "y1": 3.6576,
          "x2": 9.2,
          "y2": 3.6,
          "width": 0.1524,
          "layer": 16,
          "curve": 0.0
        },
        {
          "x1": 5.6388,
          "y1": 3.5052,
          "x2": 3.81,
          "y2": 3.5052,
          "width": 0.1524,
          "layer": 16,
          "curve": 0.0
        },
        {
          "x1": 3.81,
          "y1": 3.5052,
          "x2": 3.7,
          "y2": 3.6,
          "width": 0.1524,
          "layer": 16,
          "curve": 0.0
        },
        {
          "x1": 5.6388,
          "y1": 3.5052,
          "x2": 5.7,
          "y2": 3.5,
          "width": 0.1524,
          "layer": 16,
          "curve": 0.0
        },
        {
          "x1": 5.7912,
          "y1": 3.5052,
          "x2": 7.62,
          "y2": 3.5052,
          "width": 0.1524,
          "layer": 16,
          "curve": 0.0
        },
        {
          "x1": 7.62,
          "y1": 3.5052,
          "x2": 7.7,
          "y2": 3.6,
          "width": 0.1524,
          "layer": 16,
          "curve": 0.0
        },
        {
          "x1": 5.7912,
          "y1": 3.5052,
          "x2": 5.7,
          "y2": 3.5,
          "width": 0.1524,
          "layer": 16,
          "curve": 0.0
        }
      ],
      "vias": [],
      "polygons": []
    },
    {
      "name": "N$3",
      "length": 9.042110371585645,
      "bends": 14,
      "RelComponentID": null,
      "pins": [
        {
          "name": "P$1",
          "gate": "G$1",
          "pad": "1",
          "package": "CBYP"
        },
        {
          "name": "2",
          "gate": "G$1",
          "pad": "P$2",
          "package": "R3"
        },
        {
          "name": "V+",
          "gate": "G$1",
          "pad": "5",
          "package": "OPA344"
        }
      ],
      "wires": [
        {
          "x1": 9.7536,
          "y1": 6.2484,
          "x2": 10.668,
          "y2": 5.334,
          "width": 0.1524,
          "layer": 16,
          "curve": 0.0
        },
        {
          "x1": 9.4488,
          "y1": 6.5532,
          "x2": 9.7536,
          "y2": 6.2484,
          "width": 0.1524,
          "layer": 1,
          "curve": 0.0
        },
        {
          "x1": 9.2964,
          "y1": 6.5532,
          "x2": 9.4488,
          "y2": 6.5532,
          "width": 0.1524,
          "layer": 1,
          "curve": 0.0
        },
        {
          "x1": 9.144,
          "y1": 6.7056,
          "x2": 9.2964,
          "y2": 6.5532,
          "width": 0.1524,
          "layer": 1,
          "curve": 0.0
        },
        {
          "x1": 9.144,
          "y1": 10.5156,
          "x2": 9.144,
          "y2": 6.7056,
          "width": 0.1524,
          "layer": 1,
          "curve": 0.0
        },
        {
          "x1": 8.5344,
          "y1": 10.5156,
          "x2": 9.144,
          "y2": 10.5156,
          "width": 0.1524,
          "layer": 16,
          "curve": 0.0
        },
        {
          "x1": 8.2296,
          "y1": 10.2108,
          "x2": 8.5344,
          "y2": 10.5156,
          "width": 0.1524,
          "layer": 16,
          "curve": 0.0
        },
        {
          "x1": 10.668,
          "y1": 5.334,
          "x2": 10.7,
          "y2": 5.2,
          "width": 0.1524,
          "layer": 16,
          "curve": 0.0
        },
        {
          "x1": 8.2296,
          "y1": 10.2108,
          "x2": 8.1,
          "y2": 10.2,
          "width": 0.1524,
          "layer": 16,
          "curve": 0.0
        },
        {
          "x1": 7.4676,
          "y1": 10.8204,
          "x2": 6.5532,
          "y2": 10.8204,
          "width": 0.1524,
          "layer": 16,
          "curve": 0.0
        },
        {
          "x1": 8.0772,
          "y1": 10.2108,
          "x2": 7.4676,
          "y2": 10.8204,
          "width": 0.1524,
          "layer": 16,
          "curve": 0.0
        },
        {
          "x1": 6.5532,
          "y1": 10.8204,
          "x2": 6.55,
          "y2": 10.85,
          "width": 0.1524,
          "layer": 16,
          "curve": 0.0
        },
        {
          "x1": 8.0772,
          "y1": 10.2108,
          "x2": 8.1,
          "y2": 10.2,
          "width": 0.1524,
          "layer": 16,
          "curve": 0.0
        }
      ],
      "vias": [
        {
          "x": 9.7536,
          "y": 6.2484,
          "drill": 0.3048,
          "layerBegin": 1,
          "layerEnd": 16
        },
        {
          "x": 9.144,
          "y": 10.5156,
          "drill": 0.3048,
          "layerBegin": 1,
          "layerEnd": 16
        }
      ],
      "polygons": []
    },
    {
      "name": "N$4",
      "length": 18.666703342646091,
      "bends": 13,
      "RelComponentID": null,
      "pins": [
        {
          "name": "-IN",
          "gate": "G$1",
          "pad": "4",
          "package": "OPA344"
        },
        {
          "name": "A",
          "gate": "G$1",
          "pad": "1",
          "package": "PREGAIN"
        },
        {
          "name": "2",
          "gate": "G$1",
          "pad": "P$2",
          "package": "R2"
        }
      ],
      "wires": [
        {
          "x1": 9.144,
          "y1": 8.8392,
          "x2": 9.144,
          "y2": 5.334,
          "width": 0.1524,
          "layer": 16,
          "curve": 0.0
        },
        {
          "x1": 8.6868,
          "y1": 9.2964,
          "x2": 9.144,
          "y2": 8.8392,
          "width": 0.1524,
          "layer": 16,
          "curve": 0.0
        },
        {
          "x1": 6.2484,
          "y1": 9.2964,
          "x2": 8.6868,
          "y2": 9.2964,
          "width": 0.1524,
          "layer": 16,
          "curve": 0.0
        },
        {
          "x1": 4.7244,
          "y1": 10.8204,
          "x2": 6.2484,
          "y2": 9.2964,
          "width": 0.1524,
          "layer": 16,
          "curve": 0.0
        },
        {
          "x1": 9.144,
          "y1": 5.334,
          "x2": 9.2,
          "y2": 5.2,
          "width": 0.1524,
          "layer": 16,
          "curve": 0.0
        },
        {
          "x1": 4.7244,
          "y1": 10.8204,
          "x2": 4.65,
          "y2": 10.85,
          "width": 0.1524,
          "layer": 16,
          "curve": 0.0
        },
        {
          "x1": 3.9624,
          "y1": 2.1336,
          "x2": 3.9624,
          "y2": 1.524,
          "width": 0.1524,
          "layer": 16,
          "curve": 0.0
        },
        {
          "x1": 3.048,
          "y1": 3.048,
          "x2": 3.9624,
          "y2": 2.1336,
          "width": 0.1524,
          "layer": 16,
          "curve": 0.0
        },
        {
          "x1": 3.048,
          "y1": 4.1148,
          "x2": 3.048,
          "y2": 3.048,
          "width": 0.1524,
          "layer": 16,
          "curve": 0.0
        },
        {
          "x1": 3.3528,
          "y1": 4.4196,
          "x2": 3.048,
          "y2": 4.1148,
          "width": 0.1524,
          "layer": 16,
          "curve": 0.0
        },
        {
          "x1": 8.382,
          "y1": 4.4196,
          "x2": 3.3528,
          "y2": 4.4196,
          "width": 0.1524,
          "layer": 16,
          "curve": 0.0
        },
        {
          "x1": 9.144,
          "y1": 5.1816,
          "x2": 8.382,
          "y2": 4.4196,
          "width": 0.1524,
          "layer": 16,
          "curve": 0.0
        },
        {
          "x1": 3.9624,
          "y1": 1.524,
          "x2": 4.0,
          "y2": 1.4,
          "width": 0.1524,
          "layer": 16,
          "curve": 0.0
        },
        {
          "x1": 9.144,
          "y1": 5.1816,
          "x2": 9.2,
          "y2": 5.2,
          "width": 0.1524,
          "layer": 16,
          "curve": 0.0
        }
      ],
      "vias": [],
      "polygons": []
    },
    {
      "name": "N$5",
      "length": 6.7610007963605536,
      "bends": 4,
      "RelComponentID": null,
      "pins": [
        {
          "name": "OUT",
          "gate": "G$1",
          "pad": "1",
          "package": "OPA344"
        },
        {
          "name": "S",
          "gate": "G$1",
          "pad": "2",
          "package": "PREGAIN"
        }
      ],
      "wires": [
        {
          "x1": 6.5532,
          "y1": 6.7056,
          "x2": 6.5532,
          "y2": 8.0772,
          "width": 0.1524,
          "layer": 16,
          "curve": 0.0
        },
        {
          "x1": 6.5532,
          "y1": 1.524,
          "x2": 6.5532,
          "y2": 6.7056,
          "width": 0.1524,
          "layer": 1,
          "curve": 0.0
        },
        {
          "x1": 6.5532,
          "y1": 8.0772,
          "x2": 6.55,
          "y2": 8.15,
          "width": 0.1524,
          "layer": 16,
          "curve": 0.0
        },
        {
          "x1": 6.5532,
          "y1": 1.524,
          "x2": 6.5,
          "y2": 1.4,
          "width": 0.1524,
          "layer": 1,
          "curve": 0.0
        }
      ],
      "vias": [
        {
          "x": 6.5532,
          "y": 6.7056,
          "drill": 0.3048,
          "layerBegin": 1,
          "layerEnd": 16
        }
      ],
      "polygons": []
    }
  ],
  "constraints": null,
  "border": null
}