{
  "boardWidth": 40.0,
  "boardHeight": 40.0,
  "numLayers": 2,
  "boardTemplate": null,
  "designRules": null,
  "omitBoundary": null,
  "packages": [
    {
      "name": "C241",
      "package": "TANT_2012-METRIC",
      "pkg_idx": 0,
      "ComponentID": "f0493862-bc22-49d2-89b7-5ade10c1001b",
      "RelComponentID": null,
      "width": 3.6392,
      "height": 1.6,
      "koWidth": 3.6392,
      "koHeight": 1.6,
      "originX": -0.3,
      "originY": 0.0,
      "x": 25.2,
      "y": 34.8804,
      "rotation": 1,
      "layer": 0,
      "constraints": null,
      "multiLayer": null,
      "doNotPlace": null
    },
    {
      "name": "C51",
      "package": "TANT_2012-METRIC",
      "pkg_idx": 1,
      "ComponentID": "832147d8-aea5-43fb-82ff-c794a6a3c9b8",
      "RelComponentID": null,
      "width": 3.6392,
      "height": 1.6,
      "koWidth": 3.6392,
      "koHeight": 1.6,
      "originX": -0.3,
      "originY": 0.0,
      "x": 26.2,
      "y": 13.8804,
      "rotation": 1,
      "layer": 0,
      "constraints": null,
      "multiLayer": null,
      "doNotPlace": null
    },
    {
      "name": "C52",
      "package": "TANT_2012-METRIC",
      "pkg_idx": 2,
      "ComponentID": "047cd85f-12ec-47c5-bce5-0f967f766f14",
      "RelComponentID": null,
      "width": 3.6392,
      "height": 1.6,
      "koWidth": 3.6392,
      "koHeight": 1.6,
      "originX": -0.3,
      "originY": 0.0,
      "x": 26.7804,
      "y": 32.2,
      "rotation": 0,
      "layer": 0,
      "constraints": null,
      "multiLayer": null,
      "doNotPlace": null
    },
    {
      "name": "R137",
      "package": "R_0603",
      "pkg_idx": 3,
      "ComponentID": "68f59f46-6188-43ce-b19f-09ccaecfbbac",
      "RelComponentID": null,
      "width": 2.4,
      "height": 0.8,
      "koWidth": 2.4,
      "koHeight": 0.8,
      "originX": 0.0,
      "originY": 0.0,
      "x": 26.6,
      "y": 23.8,
      "rotation": 3,
      "layer": 0,
      "constraints": null,
      "multiLayer": null,
      "doNotPlace": null
    },
    {
      "name": "R138",
      "package": "R_0603",
      "pkg_idx": 4,
      "ComponentID": "dcf1faa6-1aa6-4809-953e-d771555897be",
      "RelComponentID": null,
      "width": 2.4,
      "height": 0.8,
      "koWidth": 2.4,
      "koHeight": 0.8,
      "originX": 0.0,
      "originY": 0.0,
      "x": 23.6,
      "y": 31.8,
      "rotation": 3,
      "layer": 0,
      "constraints": null,
      "multiLayer": null,
      "doNotPlace": null
    },
    {
      "name": "R141",
      "package": "R_0603",
      "pkg_idx": 5,
      "ComponentID": "d96431d2-ce26-4820-b73d-73f7c06a6744",
      "RelComponentID": null,
      "width": 2.4,
      "height": 0.8,
      "koWidth": 2.4,
      "koHeight": 0.8,
      "originX": 0.0,
      "originY": 0.0,
      "x": 26.8,
      "y": 11.6,
      "rotation": 2,
      "layer": 0,
      "constraints": null,
      "multiLayer": null,
      "doNotPlace": null
    },
    {
      "name": "R142",
      "package": "R_0603",
      "pkg_idx": 6,
      "ComponentID": "05ea423f-1621-421a-ad8f-8cd573df3713",
      "RelComponentID": null,
      "width": 2.4,
      "height": 0.8,
      "koWidth": 2.4,
      "koHeight": 0.8,
      "originX": 0.0,
      "originY": 0.0,
      "x": 27.5,
      "y": 35.6,
      "rotation": 0,
      "layer": 0,
      "constraints": null,
      "multiLayer": null,
      "doNotPlace": null
    },
    {
      "name": "R424",
      "package": "R_0603",
      "pkg_idx": 7,
      "ComponentID": "102fe212-047d-46dd-8e6c-1acbf59491f0",
      "RelComponentID": null,
      "width": 2.4,
      "height": 0.8,
      "koWidth": 2.4,
      "koHeight": 0.8,
      "originX": 0.0,
      "originY": 0.0,
      "x": 21.6,
      "y": 35.8,
      "rotation": 3,
      "layer": 0,
      "constraints": null,
      "multiLayer": null,
      "doNotPlace": null
    },
    {
      "name": "R425",
      "package": "R_0603",
      "pkg_idx": 8,
      "ComponentID": "cec95ce5-3281-47be-804c-1eefb280d288",
      "RelComponentID": null,
      "width": 2.4,
      "height": 0.8,
      "koWidth": 2.4,
      "koHeight": 0.8,
      "originX": 0.0,
      "originY": 0.0,
      "x": 23.6,
      "y": 35.8,
      "rotation": 3,
      "layer": 0,
      "constraints": null,
      "multiLayer": null,
      "doNotPlace": null
    },
    {
      "name": "U21",
      "package": "SOT-223",
      "pkg_idx": 9,
      "ComponentID": "e7b5a8e7-3017-4fc7-a035-2ea2961acde5",
      "RelComponentID": null,
      "width": 6.946,
      "height": 8.966,
      "koWidth": 6.946,
      "koHeight": 8.966,
      "originX": 0.0,
      "originY": 0.0,
      "x": 23.427,
      "y": 1.217,
      "rotation": 2,
      "layer": 0,
      "constraints": null,
      "multiLayer": null,
      "doNotPlace": null
    },
    {
      "name": "U23",
      "package": "K0002C",
      "pkg_idx": 10,
      "ComponentID": "d93a16a8-6b51-44a4-8ec9-f3fbd0a94270",
      "RelComponentID": null,
      "width": 25.4,
      "height": 35.56,
      "koWidth": 25.4,
      "koHeight": 35.56,
      "originX": 0.0,
      "originY": 0.0,
      "x": 28.3,
      "y": 2.22,
      "rotation": 0,
      "layer": 0,
      "constraints": null,
      "multiLayer": null,
      "doNotPlace": null
    },
    {
      "name": "U70",
      "package": "K0002C",
      "pkg_idx": 11,
      "ComponentID": "9aa81a2c-eea9-435e-8150-985c3e7943a4",
      "RelComponentID": null,
      "width": 25.4,
      "height": 35.56,
      "koWidth": 25.4,
      "koHeight": 35.56,
      "originX": 0.0,
      "originY": 0.0,
      "x": 0.3,
      "y": 2.22,
      "rotation": 0,
      "layer": 0,
      "constraints": null,
      "multiLayer": null,
      "doNotPlace": null
    }
  ],
  "signals": [
    {
      "name": "N$0",
      "length": 33.821563198072923,
      "bends": 12,
      "RelComponentID": null,
      "pins": [
        {
          "name": "-",
          "gate": "G$1",
          "pad": "P$2",
          "package": "C241"
        },
        {
          "name": "1",
          "gate": "G$1",
          "pad": "P$1",
          "package": "R424"
        },
        {
          "name": "1",
          "gate": "G$1",
          "pad": "P$1",
          "package": "R425"
        },
        {
          "name": "ADJ",
          "gate": "G$1",
          "pad": "ADJ",
          "package": "U70"
        }
      ],
      "wires": [
        {
          "x1": 23.9268,
          "y1": 37.7952,
          "x2": 22.098,
          "y2": 37.7952,
          "width": 0.1524,
          "layer": 1,
          "curve": 0.0
        },
        {
          "x1": 22.098,
          "y1": 37.7952,
          "x2": 22.0,
          "y2": 37.8,
          "width": 0.1524,
          "layer": 1,
          "curve": 0.0
        },
        {
          "x1": 23.9268,
          "y1": 37.7952,
          "x2": 24.0,
          "y2": 37.8,
          "width": 0.1524,
          "layer": 1,
          "curve": 0.0
        },
        {
          "x1": 24.0792,
          "y1": 37.9476,
          "x2": 25.908,
          "y2": 37.9476,
          "width": 0.1524,
          "layer": 1,
          "curve": 0.0
        },
        {
          "x1": 25.908,
          "y1": 37.9476,
          "x2": 26.0,
          "y2": 37.955,
          "width": 0.1524,
          "layer": 1,
          "curve": 0.0
        },
        {
          "x1": 24.0792,
          "y1": 37.9476,
          "x2": 24.0,
          "y2": 37.8,
          "width": 0.1524,
          "layer": 1,
          "curve": 0.0
        },
        {
          "x1": 19.05,
          "y1": 37.7952,
          "x2": 21.9456,
          "y2": 37.7952,
          "width": 0.1524,
          "layer": 1,
          "curve": 0.0
        },
        {
          "x1": 12.0396,
          "y1": 30.7848,
          "x2": 19.05,
          "y2": 37.7952,
          "width": 0.1524,
          "layer": 1,
          "curve": 0.0
        },
        {
          "x1": 7.9248,
          "y1": 30.7848,
          "x2": 12.0396,
          "y2": 30.7848,
          "width": 0.1524,
          "layer": 1,
          "curve": 0.0
        },
        {
          "x1": 7.62,
          "y1": 30.48,
          "x2": 7.9248,
          "y2": 30.7848,
          "width": 0.1524,
          "layer": 1,
          "curve": 0.0
        },
        {
          "x1": 7.62,
          "y1": 18.288,
          "x2": 7.62,
          "y2": 30.48,
          "width": 0.1524,
          "layer": 1,
          "curve": 0.0
        },
        {
          "x1": 21.9456,
          "y1": 37.7952,
          "x2": 22.0,
          "y2": 37.8,
          "width": 0.1524,
          "layer": 1,
          "curve": 0.0
        },
        {
          "x1": 7.62,
          "y1": 18.288,
          "x2": 7.54,
          "y2": 18.185,
          "width": 0.1524,
          "layer": 1,
          "curve": 0.0
        }
      ],
      "vias": [],
      "polygons": []
    },
    {
      "name": "N$1",
      "length": 31.475083364919257,
      "bends": 21,
      "RelComponentID": null,
      "pins": [
        {
          "name": "+",
          "gate": "G$1",
          "pad": "P$1",
          "package": "C241"
        },
        {
          "name": "+",
          "gate": "G$1",
          "pad": "P$1",
          "package": "C52"
        },
        {
          "name": "1",
          "gate": "G$1",
          "pad": "P$1",
          "package": "R142"
        },
        {
          "name": "1",
          "gate": "G$1",
          "pad": "P$1",
          "package": "R138"
        },
        {
          "name": "-",
          "gate": "G$1",
          "pad": "P$2",
          "package": "C51"
        },
        {
          "name": "2",
          "gate": "G$1",
          "pad": "P$2",
          "package": "R424"
        }
      ],
      "wires": [
        {
          "x1": 24.0792,
          "y1": 34.1376,
          "x2": 24.0792,
          "y2": 33.8328,
          "width": 0.1524,
          "layer": 1,
          "curve": 0.0
        },
        {
          "x1": 25.908,
          "y1": 35.9664,
          "x2": 24.0792,
          "y2": 34.1376,
          "width": 0.1524,
          "layer": 1,
          "curve": 0.0
        },
        {
          "x1": 24.0792,
          "y1": 33.8328,
          "x2": 24.0,
          "y2": 33.8,
          "width": 0.1524,
          "layer": 1,
          "curve": 0.0
        },
        {
          "x1": 25.908,
          "y1": 35.9664,
          "x2": 26.0,
          "y2": 36.045,
          "width": 0.1524,
          "layer": 1,
          "curve": 0.0
        },
        {
          "x1": 22.86,
          "y1": 36.2712,
          "x2": 22.098,
          "y2": 36.2712,
          "width": 0.1524,
          "layer": 1,
          "curve": 0.0
        },
        {
          "x1": 23.4696,
          "y1": 36.8808,
          "x2": 22.86,
          "y2": 36.2712,
          "width": 0.1524,
          "layer": 1,
          "curve": 0.0
        },
        {
          "x1": 25.146,
          "y1": 36.8808,
          "x2": 23.4696,
          "y2": 36.8808,
          "width": 0.1524,
          "layer": 1,
          "curve": 0.0
        },
        {
          "x1": 25.908,
          "y1": 36.1188,
          "x2": 25.146,
          "y2": 36.8808,
          "width": 0.1524,
          "layer": 1,
          "curve": 0.0
        },
        {
          "x1": 22.098,
          "y1": 36.2712,
          "x2": 22.0,
          "y2": 36.2,
          "width": 0.1524,
          "layer": 1,
          "curve": 0.0
        },
        {
          "x1": 25.908,
          "y1": 36.1188,
          "x2": 26.0,
          "y2": 36.045,
          "width": 0.1524,
          "layer": 1,
          "curve": 0.0
        },
        {
          "x1": 26.0604,
          "y1": 35.9664,
          "x2": 27.8892,
          "y2": 35.9664,
          "width": 0.1524,
          "layer": 1,
          "curve": 0.0
        },
        {
          "x1": 27.8892,
          "y1": 35.9664,
          "x2": 27.9,
          "y2": 36.0,
          "width": 0.1524,
          "layer": 1,
          "curve": 0.0
        },
        {
          "x1": 26.0604,
          "y1": 35.9664,
          "x2": 26.0,
          "y2": 36.045,
          "width": 0.1524,
          "layer": 1,
          "curve": 0.0
        },
        {
          "x1": 26.9748,
          "y1": 18.1356,
          "x2": 26.9748,
          "y2": 17.0688,
          "width": 0.1524,
          "layer": 1,
          "curve": 0.0
        },
        {
          "x1": 23.3172,
          "y1": 21.7932,
          "x2": 26.9748,
          "y2": 18.1356,
          "width": 0.1524,
          "layer": 1,
          "curve": 0.0
        },
        {
          "x1": 23.3172,
          "y1": 33.0708,
          "x2": 23.3172,
          "y2": 21.7932,
          "width": 0.1524,
          "layer": 1,
          "curve": 0.0
        },
        {
          "x1": 23.9268,
          "y1": 33.6804,
          "x2": 23.3172,
          "y2": 33.0708,
          "width": 0.1524,
          "layer": 1,
          "curve": 0.0
        },
        {
          "x1": 26.9748,
          "y1": 17.0688,
          "x2": 27.0,
          "y2": 16.955,
          "width": 0.1524,
          "layer": 1,
          "curve": 0.0
        },
        {
          "x1": 23.9268,
          "y1": 33.6804,
          "x2": 24.0,
          "y2": 33.8,
          "width": 0.1524,
          "layer": 1,
          "curve": 0.0
        },
        {
          "x1": 28.0416,
          "y1": 35.9664,
          "x2": 28.0416,
          "y2": 33.0708,
          "width": 0.1524,
          "layer": 1,
          "curve": 0.0
        },
        {
          "x1": 28.0416,
          "y1": 33.0708,
          "x2": 27.945,
          "y2": 33.0,
          "width": 0.1524,
          "layer": 1,
          "curve": 0.0
        },
        {
          "x1": 28.0416,
          "y1": 35.9664,
          "x2": 27.9,
          "y2": 36.0,
          "width": 0.1524,
          "layer": 1,
          "curve": 0.0
        }
      ],
      "vias": [],
      "polygons": []
    },
    {
      "name": "N$2",
      "length": 66.378215715032027,
      "bends": 17,
      "RelComponentID": null,
      "pins": [
        {
          "name": "+",
          "gate": "G$1",
          "pad": "P$1",
          "package": "C51"
        },
        {
          "name": "ADJ",
          "gate": "G$1",
          "pad": "1",
          "package": "U21"
        },
        {
          "name": "2",
          "gate": "G$1",
          "pad": "P$2",
          "package": "R142"
        },
        {
          "name": "1",
          "gate": "G$1",
          "pad": "P$1",
          "package": "R141"
        }
      ],
      "wires": [
        {
          "x1": 28.8036,
          "y1": 9.2964,
          "x2": 28.8036,
          "y2": 11.8872,
          "width": 0.1524,
          "layer": 1,
          "curve": 0.0
        },
        {
          "x1": 29.1084,
          "y1": 8.9916,
          "x2": 28.8036,
          "y2": 9.2964,
          "width": 0.1524,
          "layer": 1,
          "curve": 0.0
        },
        {
          "x1": 28.8036,
          "y1": 11.8872,
          "x2": 28.8,
          "y2": 12.0,
          "width": 0.1524,
          "layer": 1,
          "curve": 0.0
        },
        {
          "x1": 29.1084,
          "y1": 8.9916,
          "x2": 29.186,
          "y2": 8.875,
          "width": 0.1524,
          "layer": 1,
          "curve": 0.0
        },
        {
          "x1": 36.7284,
          "y1": 35.9664,
          "x2": 29.5656,
          "y2": 35.9664,
          "width": 0.1524,
          "layer": 1,
          "curve": 0.0
        },
        {
          "x1": 41.91,
          "y1": 30.7848,
          "x2": 36.7284,
          "y2": 35.9664,
          "width": 0.1524,
          "layer": 1,
          "curve": 0.0
        },
        {
          "x1": 46.0248,
          "y1": 30.7848,
          "x2": 41.91,
          "y2": 30.7848,
          "width": 0.1524,
          "layer": 1,
          "curve": 0.0
        },
        {
          "x1": 47.7012,
          "y1": 29.1084,
          "x2": 46.0248,
          "y2": 30.7848,
          "width": 0.1524,
          "layer": 1,
          "curve": 0.0
        },
        {
          "x1": 47.7012,
          "y1": 10.0584,
          "x2": 47.7012,
          "y2": 29.1084,
          "width": 0.1524,
          "layer": 1,
          "curve": 0.0
        },
        {
          "x1": 46.3296,
          "y1": 8.6868,
          "x2": 47.7012,
          "y2": 10.0584,
          "width": 0.1524,
          "layer": 1,
          "curve": 0.0
        },
        {
          "x1": 29.4132,
          "y1": 8.6868,
          "x2": 46.3296,
          "y2": 8.6868,
          "width": 0.1524,
          "layer": 1,
          "curve": 0.0
        },
        {
          "x1": 29.2608,
          "y1": 8.8392,
          "x2": 29.4132,
          "y2": 8.6868,
          "width": 0.1524,
          "layer": 1,
          "curve": 0.0
        },
        {
          "x1": 29.5656,
          "y1": 35.9664,
          "x2": 29.5,
          "y2": 36.0,
          "width": 0.1524,
          "layer": 1,
          "curve": 0.0
        },
        {
          "x1": 29.2608,
          "y1": 8.8392,
          "x2": 29.186,
          "y2": 8.875,
          "width": 0.1524,
          "layer": 1,
          "curve": 0.0
        },
        {
          "x1": 27.1272,
          "y1": 13.5636,
          "x2": 27.1272,
          "y2": 14.9352,
          "width": 0.1524,
          "layer": 1,
          "curve": 0.0
        },
        {
          "x1": 28.6512,
          "y1": 12.0396,
          "x2": 27.1272,
          "y2": 13.5636,
          "width": 0.1524,
          "layer": 1,
          "curve": 0.0
        },
        {
          "x1": 27.1272,
          "y1": 14.9352,
          "x2": 27.0,
          "y2": 15.045,
          "width": 0.1524,
          "layer": 1,
          "curve": 0.0
        },
        {
          "x1": 28.6512,
          "y1": 12.0396,
          "x2": 28.8,
          "y2": 12.0,
          "width": 0.1524,
          "layer": 1,
          "curve": 0.0
        }
      ],
      "vias": [],
      "polygons": []
    },
    {
      "name": "N$3",
      "length": 24.40726629672605,
      "bends": 12,
      "RelComponentID": null,
      "pins": [
        {
          "name": "-",
          "gate": "G$1",
          "pad": "P$2",
          "package": "C52"
        },
        {
          "name": "ADJ",
          "gate": "G$1",
          "pad": "ADJ",
          "package": "U23"
        },
        {
          "name": "2",
          "gate": "G$1",
          "pad": "P$2",
          "package": "R138"
        },
        {
          "name": "1",
          "gate": "G$1",
          "pad": "P$1",
          "package": "R137"
        }
      ],
      "wires": [
        {
          "x1": 27.1272,
          "y1": 32.1564,
          "x2": 26.9748,
          "y2": 32.1564,
          "width": 0.1524,
          "layer": 1,
          "curve": 0.0
        },
        {
          "x1": 26.9748,
          "y1": 32.1564,
          "x2": 24.0792,
          "y2": 32.1564,
          "width": 0.1524,
          "layer": 1,
          "curve": 0.0
        },
        {
          "x1": 27.2796,
          "y1": 32.004,
          "x2": 27.1272,
          "y2": 32.1564,
          "width": 0.1524,
          "layer": 1,
          "curve": 0.0
        },
        {
          "x1": 28.8036,
          "y1": 32.004,
          "x2": 27.2796,
          "y2": 32.004,
          "width": 0.1524,
          "layer": 1,
          "curve": 0.0
        },
        {
          "x1": 29.718,
          "y1": 32.9184,
          "x2": 28.8036,
          "y2": 32.004,
          "width": 0.1524,
          "layer": 1,
          "curve": 0.0
        },
        {
          "x1": 24.0792,
          "y1": 32.1564,
          "x2": 24.0,
          "y2": 32.2,
          "width": 0.1524,
          "layer": 1,
          "curve": 0.0
        },
        {
          "x1": 29.718,
          "y1": 32.9184,
          "x2": 29.855,
          "y2": 33.0,
          "width": 0.1524,
          "layer": 1,
          "curve": 0.0
        },
        {
          "x1": 26.9748,
          "y1": 32.1564,
          "x2": 26.9748,
          "y2": 25.908,
          "width": 0.1524,
          "layer": 1,
          "curve": 0.0
        },
        {
          "x1": 26.9748,
          "y1": 25.908,
          "x2": 27.0,
          "y2": 25.8,
          "width": 0.1524,
          "layer": 1,
          "curve": 0.0
        },
        {
          "x1": 34.5948,
          "y1": 18.288,
          "x2": 35.5092,
          "y2": 18.288,
          "width": 0.1524,
          "layer": 1,
          "curve": 0.0
        },
        {
          "x1": 27.1272,
          "y1": 25.7556,
          "x2": 34.5948,
          "y2": 18.288,
          "width": 0.1524,
          "layer": 1,
          "curve": 0.0
        },
        {
          "x1": 35.5092,
          "y1": 18.288,
          "x2": 35.54,
          "y2": 18.185,
          "width": 0.1524,
          "layer": 1,
          "curve": 0.0
        },
        {
          "x1": 27.1272,
          "y1": 25.7556,
          "x2": 27.0,
          "y2": 25.8,
          "width": 0.1524,
          "layer": 1,
          "curve": 0.0
        }
      ],
      "vias": [],
      "polygons": []
    },
    {
      "name": "N$4",
      "length": 54.711951116315632,
      "bends": 12,
      "RelComponentID": null,
      "pins": [
        {
          "name": "2",
          "gate": "G$1",
          "pad": "P$2",
          "package": "R137"
        },
        {
          "name": "OUT",
          "gate": "G$1",
          "pad": "VOUT",
          "package": "U23"
        },
        {
          "name": "P$3",
          "gate": null,
          "pad": "P$3",
          "package": "U70"
        },
        {
          "name": "P$4",
          "gate": null,
          "pad": "P$4",
          "package": "U70"
        },
        {
          "name": "P$5",
          "gate": null,
          "pad": "P$5",
          "package": "U70"
        }
      ],
      "wires": [
        {
          "x1": 27.1272,
          "y1": 18.4404,
          "x2": 27.1272,
          "y2": 24.0792,
          "width": 0.1524,
          "layer": 1,
          "curve": 0.0
        },
        {
          "x1": 27.8892,
          "y1": 17.6784,
          "x2": 27.1272,
          "y2": 18.4404,
          "width": 0.1524,
          "layer": 1,
          "curve": 0.0
        },
        {
          "x1": 27.8892,
          "y1": 16.3068,
          "x2": 27.8892,
          "y2": 17.6784,
          "width": 0.1524,
          "layer": 1,
          "curve": 0.0
        },
        {
          "x1": 27.7368,
          "y1": 16.1544,
          "x2": 27.8892,
          "y2": 16.3068,
          "width": 0.1524,
          "layer": 1,
          "curve": 0.0
        },
        {
          "x1": 15.0876,
          "y1": 16.1544,
          "x2": 27.7368,
          "y2": 16.1544,
          "width": 0.1524,
          "layer": 1,
          "curve": 0.0
        },
        {
          "x1": 13.1064,
          "y1": 18.1356,
          "x2": 15.0876,
          "y2": 16.1544,
          "width": 0.1524,
          "layer": 1,
          "curve": 0.0
        },
        {
          "x1": 27.1272,
          "y1": 24.0792,
          "x2": 27.0,
          "y2": 24.2,
          "width": 0.1524,
          "layer": 1,
          "curve": 0.0
        },
        {
          "x1": 13.1064,
          "y1": 18.1356,
          "x2": 13.0,
          "y2": 18.185,
          "width": 0.1524,
          "layer": 1,
          "curve": 0.0
        },
        {
          "x1": 46.3296,
          "y1": 9.144,
          "x2": 46.3296,
          "y2": 18.1356,
          "width": 0.1524,
          "layer": 1,
          "curve": 0.0
        },
        {
          "x1": 46.1772,
          "y1": 8.9916,
          "x2": 46.3296,
          "y2": 9.144,
          "width": 0.1524,
          "layer": 1,
          "curve": 0.0
        },
        {
          "x1": 35.2044,
          "y1": 8.9916,
          "x2": 46.1772,
          "y2": 8.9916,
          "width": 0.1524,
          "layer": 1,
          "curve": 0.0
        },
        {
          "x1": 27.8892,
          "y1": 16.3068,
          "x2": 35.2044,
          "y2": 8.9916,
          "width": 0.1524,
          "layer": 1,
          "curve": 0.0
        },
        {
          "x1": 46.3296,
          "y1": 18.1356,
          "x2": 46.46,
          "y2": 18.185,
          "width": 0.1524,
          "layer": 1,
          "curve": 0.0
        }
      ],
      "vias": [],
      "polygons": []
    },
    {
      "name": "N$5",
      "length": 9.6624570259245246,
      "bends": 6,
      "RelComponentID": null,
      "pins": [
        {
          "name": "2",
          "gate": "G$1",
          "pad": "P$2",
          "package": "R141"
        },
        {
          "name": "2",
          "gate": null,
          "pad": "2",
          "package": "U21"
        },
        {
          "name": "TER",
          "gate": null,
          "pad": "TER",
          "package": "U21"
        }
      ],
      "wires": [
        {
          "x1": 27.1272,
          "y1": 9.144,
          "x2": 27.1272,
          "y2": 11.8872,
          "width": 0.1524,
          "layer": 1,
          "curve": 0.0
        },
        {
          "x1": 26.9748,
          "y1": 8.9916,
          "x2": 27.1272,
          "y2": 9.144,
          "width": 0.1524,
          "layer": 1,
          "curve": 0.0
        },
        {
          "x1": 27.1272,
          "y1": 11.8872,
          "x2": 27.2,
          "y2": 12.0,
          "width": 0.1524,
          "layer": 1,
          "curve": 0.0
        },
        {
          "x1": 26.9748,
          "y1": 8.9916,
          "x2": 26.9,
          "y2": 8.875,
          "width": 0.1524,
          "layer": 1,
          "curve": 0.0
        },
        {
          "x1": 26.9748,
          "y1": 2.5908,
          "x2": 26.9748,
          "y2": 8.8392,
          "width": 0.1524,
          "layer": 1,
          "curve": 0.0
        },
        {
          "x1": 26.9748,
          "y1": 8.8392,
          "x2": 26.9,
          "y2": 8.875,
          "width": 0.1524,
          "layer": 1,
          "curve": 0.0
        },
        {
          "x1": 26.9748,
          "y1": 2.5908,
          "x2": 26.9,
          "y2": 2.525,
          "width": 0.1524,
          "layer": 1,
          "curve": 0.0
        }
      ],
      "vias": [],
      "polygons": []
    },
    {
      "name": "N$6",
      "length": 20.317600893479042,
      "bends": 4,
      "RelComponentID": null,
      "pins": [
        {
          "name": "2",
          "gate": "G$1",
          "pad": "P$2",
          "package": "R425"
        },
        {
          "name": "OUT",
          "gate": "G$1",
          "pad": "VOUT",
          "package": "U70"
        }
      ],
      "wires": [
        {
          "x1": 23.9268,
          "y1": 34.8996,
          "x2": 23.9268,
          "y2": 36.1188,
          "width": 0.1524,
          "layer": 1,
          "curve": 0.0
        },
        {
          "x1": 18.5928,
          "y1": 29.5656,
          "x2": 23.9268,
          "y2": 34.8996,
          "width": 0.1524,
          "layer": 1,
          "curve": 0.0
        },
        {
          "x1": 18.5928,
          "y1": 18.288,
          "x2": 18.5928,
          "y2": 29.5656,
          "width": 0.1524,
          "layer": 1,
          "curve": 0.0
        },
        {
          "x1": 23.9268,
          "y1": 36.1188,
          "x2": 24.0,
          "y2": 36.2,
          "width": 0.1524,
          "layer": 1,
          "curve": 0.0
        },
        {
          "x1": 18.5928,
          "y1": 18.288,
          "x2": 18.46,
          "y2": 18.185,
          "width": 0.1524,
          "layer": 1,
          "curve": 0.0
        }
      ],
      "vias": [],
      "polygons": []
    }
  ],
  "constraints": null,
  "border": null
}