<eagle version="6.5.0" xmlns="eagle">
  <drawing>
    <library>
      <packages>
        <package name="TP6" xmlns="eagle">
          <circle x="-1.27" y="0" radius="0.8128" width="0.1524" layer="51" />
          <circle x="-6.35" y="0" radius="0.8128" width="0.1524" layer="51" />
          <circle x="-3.81" y="0" radius="0.8128" width="0.1524" layer="51" />
          <circle x="1.27" y="0" radius="0.8128" width="0.1524" layer="51" />
          <circle x="3.81" y="0" radius="0.8128" width="0.1524" layer="51" />
          <pad name="TP-1" x="-6.35" y="0" drill="1.7018" diameter="1.9304" shape="square" rot="R90" />
          <pad name="TP-2" x="-3.81" y="0" drill="1.7018" diameter="1.9304" shape="long" rot="R90" />
          <pad name="TP-3" x="-1.27" y="0" drill="1.7018" diameter="1.9304" shape="long" rot="R90" />
          <pad name="TP-4" x="1.27" y="0" drill="1.7018" diameter="1.9304" shape="long" rot="R90" />
          <pad name="TP-5" x="3.81" y="0" drill="1.7018" diameter="1.9304" shape="long" rot="R90" />
          <text x="-7.366" y="2.54" size="1.27" layer="25" ratio="10">&gt;NAME</text>
          <text x="0" y="2.54" size="1.27" layer="27" ratio="10">&gt;VALUE</text>
          <text x="-5.715" y="-3.81" size="1" layer="37">&gt;TP_SIGNAL_NAME</text>
          <rectangle x1="-1.6002" y1="-0.3302" x2="-0.9398" y2="0.3302" layer="51" />
          <rectangle x1="-6.6802" y1="-0.3302" x2="-6.0198" y2="0.3302" layer="51" />
          <rectangle x1="-4.1402" y1="-0.3302" x2="-3.4798" y2="0.3302" layer="51" />
          <rectangle x1="0.9398" y1="-0.3302" x2="1.6002" y2="0.3302" layer="51" />
          <rectangle x1="3.4798" y1="-0.3302" x2="4.1402" y2="0.3302" layer="51" />
          <circle x="6.35" y="0" radius="0.8128" width="0.1524" layer="51" />
          <pad name="TP-6" x="6.35" y="0" drill="1.7018" diameter="1.9304" shape="long" rot="R90" />
          <rectangle x1="6.0198" y1="-0.3302" x2="6.6802" y2="0.3302" layer="51" />
          <rectangle x1="-7.3152" y1="0.9652" x2="-5.3848" y2="1.9304" layer="1" />
          <rectangle x1="-7.3152" y1="-1.9304" x2="-5.3848" y2="-0.9652" layer="1" />
          <rectangle x1="-7.4168" y1="-2.032" x2="-5.2832" y2="-1.0668" layer="29" />
          <rectangle x1="-7.4168" y1="1.0668" x2="-5.2832" y2="2.032" layer="29" />
        </package>
      </packages>
      <symbols>
        <symbol name="TP6">
          <wire x1="-0.762" y1="-0.762" x2="0" y2="0" width="0.254" layer="94" />
          <wire x1="0" y1="0" x2="0.762" y2="-0.762" width="0.254" layer="94" />
          <wire x1="0.762" y1="-0.762" x2="0" y2="-1.524" width="0.254" layer="94" />
          <wire x1="0" y1="-1.524" x2="-0.762" y2="-0.762" width="0.254" layer="94" />
          <text x="-1.27" y="1.27" size="1.778" layer="95">&gt;NAME</text>
          <text x="1.27" y="-1.27" size="1.778" layer="97">&gt;TP_SIGNAL_NAME</text>
          <pin name="TP" x="0" y="-2.54" visible="off" length="short" direction="in" rot="R90" />
        </symbol>
      </symbols>
      <devicesets>
        <deviceset name="TP6">
          <gates>
            <gate name="G$1" symbol="TP6" x="-10.16" y="0" />
            <gate name="G$2" symbol="TP6" x="-5.08" y="0" />
            <gate name="G$3" symbol="TP6" x="0" y="0" />
            <gate name="G$4" symbol="TP6" x="5.08" y="0" />
            <gate name="G$5" symbol="TP6" x="10.16" y="0" />
            <gate name="G$6" symbol="TP6" x="15.24" y="0" />
          </gates>
          <devices>
            <device name="" package="TP6" xmlns="eagle">
              <connects>
                <connect gate="G$1" pin="TP" pad="TP-1" />
                <connect gate="G$2" pin="TP" pad="TP-2" />
                <connect gate="G$3" pin="TP" pad="TP-3" />
                <connect gate="G$4" pin="TP" pad="TP-4" />
                <connect gate="G$5" pin="TP" pad="TP-5" />
                <connect gate="G$6" pin="TP" pad="TP-6" />
              </connects>
              <technologies>
                <technology name="" />
              </technologies>
            </device>
          </devices>
        </deviceset>
      </devicesets>
    </library>
  </drawing>
</eagle>