<?xml version="1.0" encoding="utf-8"?>
<!DOCTYPE eagle SYSTEM "eagle.dtd">
<eagle version="6.6.0">
<drawing>
<settings>
<setting alwaysvectorfont="no"/>
<setting verticaltext="up"/>
</settings>
<grid distance="0.05" unitdist="inch" unit="inch" style="lines" multiple="1" display="yes" altdistance="0.025" altunitdist="inch" altunit="inch"/>
<layers>
</layers>
<library>
<packages>
<package name="2X12TERMINAL">
<pad name="1-1" x="0" y="0" drill="1.8" shape="square"/>
<pad name="2-1" x="-1.9" y="11.43" drill="1.8"/>
<wire x1="-1.9" y1="-3.6" x2="47.62" y2="-3.6" width="0.1524" layer="21"/>
<wire x1="47.62" y1="-3.6" x2="47.62" y2="3.6" width="0.1524" layer="21"/>
<wire x1="47.62" y1="3.6" x2="45.72" y2="3.6" width="0.1524" layer="21"/>
<wire x1="45.72" y1="3.6" x2="45.72" y2="13.5" width="0.1524" layer="21"/>
<wire x1="-3.8" y1="13.5" x2="-3.8" y2="3.6" width="0.1524" layer="21"/>
<wire x1="-3.8" y1="3.6" x2="-1.9" y2="3.6" width="0.1524" layer="21"/>
<wire x1="-1.9" y1="3.6" x2="-1.9" y2="-3.6" width="0.1524" layer="21"/>
<text x="-5.08" y="4.445" size="1.016" layer="25" font="vector" ratio="15" rot="R90">&gt;NAME</text>
<pad name="1-2" x="3.81" y="0" drill="1.8"/>
<pad name="1-3" x="7.62" y="0" drill="1.8"/>
<pad name="1-4" x="11.43" y="0" drill="1.8"/>
<pad name="1-5" x="15.24" y="0" drill="1.8"/>
<pad name="1-6" x="19.05" y="0" drill="1.8"/>
<pad name="1-7" x="22.86" y="0" drill="1.8"/>
<pad name="1-8" x="26.67" y="0" drill="1.8"/>
<pad name="1-9" x="30.48" y="0" drill="1.8"/>
<pad name="1-10" x="34.29" y="0" drill="1.8"/>
<pad name="1-11" x="38.1" y="0" drill="1.8"/>
<pad name="1-12" x="41.91" y="0" drill="1.8"/>
<pad name="2-2" x="1.91" y="11.43" drill="1.8"/>
<pad name="2-3" x="5.72" y="11.43" drill="1.8"/>
<pad name="2-4" x="9.53" y="11.43" drill="1.8"/>
<pad name="2-5" x="13.34" y="11.43" drill="1.8"/>
<pad name="2-6" x="17.15" y="11.43" drill="1.8"/>
<pad name="2-7" x="20.96" y="11.43" drill="1.8"/>
<pad name="2-8" x="24.77" y="11.43" drill="1.8"/>
<pad name="2-9" x="28.58" y="11.43" drill="1.8"/>
<pad name="2-10" x="32.39" y="11.43" drill="1.8"/>
<pad name="2-11" x="36.2" y="11.43" drill="1.8"/>
<pad name="2-12" x="40.01" y="11.43" drill="1.8"/>
<wire x1="45.72" y1="13.5" x2="-3.8" y2="13.5" width="0.1524" layer="21"/>
</package>
</packages>
<symbols>
<symbol name="24TERMINALBLOCK">
<pin name="1-1" x="-20.32" y="10.16" length="middle" direction="pas"/>
<pin name="2-1" x="-7.62" y="10.16" length="middle" direction="pas"/>
<pin name="1-2" x="-20.32" y="7.62" length="middle" direction="pas"/>
<pin name="2-2" x="-7.62" y="7.62" length="middle" direction="pas"/>
<pin name="1-3" x="-20.32" y="5.08" length="middle" direction="pas"/>
<pin name="2-3" x="-7.62" y="5.08" length="middle" direction="pas"/>
<pin name="1-4" x="-20.32" y="2.54" length="middle" direction="pas"/>
<pin name="2-4" x="-7.62" y="2.54" length="middle" direction="pas"/>
<pin name="1-5" x="-20.32" y="0" length="middle" direction="pas"/>
<pin name="2-5" x="-7.62" y="0" length="middle" direction="pas"/>
<pin name="1-6" x="-20.32" y="-2.54" length="middle" direction="pas"/>
<pin name="2-6" x="-7.62" y="-2.54" length="middle" direction="pas"/>
<pin name="1-7" x="-20.32" y="-5.08" length="middle" direction="pas"/>
<pin name="2-7" x="-7.62" y="-5.08" length="middle" direction="pas"/>
<pin name="1-8" x="-20.32" y="-7.62" length="middle" direction="pas"/>
<pin name="2-8" x="-7.62" y="-7.62" length="middle" direction="pas"/>
<pin name="1-9" x="-20.32" y="-10.16" length="middle" direction="pas"/>
<pin name="2-9" x="-7.62" y="-10.16" length="middle" direction="pas"/>
<pin name="1-10" x="-20.32" y="-12.7" length="middle" direction="pas"/>
<pin name="2-10" x="-7.62" y="-12.7" length="middle" direction="pas"/>
<pin name="1-11" x="-20.32" y="-15.24" length="middle" direction="pas"/>
<pin name="2-11" x="-7.62" y="-15.24" length="middle" direction="pas"/>
<pin name="1-12" x="-20.32" y="-17.78" length="middle" direction="pas"/>
<pin name="2-12" x="-7.62" y="-17.78" length="middle" direction="pas"/>
<wire x1="-17.78" y1="12.7" x2="-17.78" y2="-20.32" width="0.254" layer="94"/>
<wire x1="-17.78" y1="-20.32" x2="-12.7" y2="-20.32" width="0.254" layer="94"/>
<wire x1="-17.78" y1="12.7" x2="-12.7" y2="12.7" width="0.254" layer="94"/>
<wire x1="-5.08" y1="12.7" x2="-5.08" y2="-20.32" width="0.254" layer="94"/>
<wire x1="-5.08" y1="-20.32" x2="0" y2="-20.32" width="0.254" layer="94"/>
<wire x1="-5.08" y1="12.7" x2="0" y2="12.7" width="0.254" layer="94"/>
<text x="-17.78" y="15.24" size="1.778" layer="95">&gt;NAME</text>
<text x="-17.78" y="12.7" size="1.778" layer="95">&gt;VALUE</text>
</symbol>
</symbols>
<devicesets>
<deviceset name="1708136">
<gates>
<gate name="G$1" symbol="24TERMINALBLOCK" x="0" y="0"/>
</gates>
<devices>
<device name="" package="2X12TERMINAL">
<connects>
<connect gate="G$1" pin="1-1" pad="1-1"/>
<connect gate="G$1" pin="1-10" pad="1-10"/>
<connect gate="G$1" pin="1-11" pad="1-11"/>
<connect gate="G$1" pin="1-12" pad="1-12"/>
<connect gate="G$1" pin="1-2" pad="1-2"/>
<connect gate="G$1" pin="1-3" pad="1-3"/>
<connect gate="G$1" pin="1-4" pad="1-4"/>
<connect gate="G$1" pin="1-5" pad="1-5"/>
<connect gate="G$1" pin="1-6" pad="1-6"/>
<connect gate="G$1" pin="1-7" pad="1-7"/>
<connect gate="G$1" pin="1-8" pad="1-8"/>
<connect gate="G$1" pin="1-9" pad="1-9"/>
<connect gate="G$1" pin="2-1" pad="2-1"/>
<connect gate="G$1" pin="2-10" pad="2-10"/>
<connect gate="G$1" pin="2-11" pad="2-11"/>
<connect gate="G$1" pin="2-12" pad="2-12"/>
<connect gate="G$1" pin="2-2" pad="2-2"/>
<connect gate="G$1" pin="2-3" pad="2-3"/>
<connect gate="G$1" pin="2-4" pad="2-4"/>
<connect gate="G$1" pin="2-5" pad="2-5"/>
<connect gate="G$1" pin="2-6" pad="2-6"/>
<connect gate="G$1" pin="2-7" pad="2-7"/>
<connect gate="G$1" pin="2-8" pad="2-8"/>
<connect gate="G$1" pin="2-9" pad="2-9"/>
</connects>
<technologies>
<technology name=""/>
</technologies>
</device>
</devices>
</deviceset>
</devicesets>
</library>
</drawing>
</eagle>
