<eagle version="6.5.0" xmlns="eagle">
  <drawing>
    <library>
      <packages>
        <package name="R-PDSO-G14" xmlns="eagle">
          <smd name="P$1" x="-2.7" y="3.81" dx="1.55" dy="0.6" layer="1" rot="R180" />
          <smd name="P$2" x="-2.7" y="2.54" dx="1.55" dy="0.6" layer="1" rot="R180" />
          <smd name="P$3" x="-2.7" y="1.27" dx="1.55" dy="0.6" layer="1" rot="R180" />
          <smd name="P$4" x="-2.7" y="0" dx="1.55" dy="0.6" layer="1" rot="R180" />
          <smd name="P$5" x="-2.7" y="-1.27" dx="1.55" dy="0.6" layer="1" rot="R180" />
          <smd name="P$6" x="-2.7" y="-2.54" dx="1.55" dy="0.6" layer="1" rot="R180" />
          <smd name="P$7" x="-2.7" y="-3.81" dx="1.55" dy="0.6" layer="1" rot="R180" />
          <smd name="P$8" x="2.7" y="-3.81" dx="1.55" dy="0.6" layer="1" rot="R180" />
          <smd name="P$9" x="2.7" y="-2.54" dx="1.55" dy="0.6" layer="1" rot="R180" />
          <smd name="P$10" x="2.7" y="-1.27" dx="1.55" dy="0.6" layer="1" rot="R180" />
          <smd name="P$11" x="2.7" y="0" dx="1.55" dy="0.6" layer="1" rot="R180" />
          <smd name="P$12" x="2.7" y="1.27" dx="1.55" dy="0.6" layer="1" rot="R180" />
          <smd name="P$13" x="2.7" y="2.54" dx="1.55" dy="0.6" layer="1" rot="R180" />
          <smd name="P$14" x="2.7" y="3.81" dx="1.55" dy="0.6" layer="1" rot="R180" />
          <wire x1="-2.2" y1="4.4" x2="2.2" y2="4.4" width="0.127" layer="21" />
          <wire x1="-2.2" y1="-4.4" x2="2.2" y2="-4.4" width="0.127" layer="21" />
          <circle x="-3.81" y="4.445" radius="0.1542" width="0" layer="21" />
          <text x="-3.6" y="4.8" size="1.27" layer="25">&gt;NAME</text>
        </package>
      </packages>
      <symbols>
        <symbol name="CD4066">
          <pin name="AIN" x="-15.24" y="7.62" length="middle" />
          <pin name="AOUT" x="-15.24" y="5.08" length="middle" />
          <pin name="BOUT" x="-15.24" y="2.54" length="middle" />
          <pin name="BIN" x="-15.24" y="0" length="middle" />
          <pin name="CTRLB" x="-15.24" y="-2.54" length="middle" />
          <pin name="CTRLC" x="-15.24" y="-5.08" length="middle" />
          <pin name="VSS" x="-15.24" y="-7.62" length="middle" />
          <pin name="CIN" x="15.24" y="-7.62" length="middle" rot="R180" />
          <pin name="COUT" x="15.24" y="-5.08" length="middle" rot="R180" />
          <pin name="DOUT" x="15.24" y="-2.54" length="middle" rot="R180" />
          <pin name="DIN" x="15.24" y="0" length="middle" rot="R180" />
          <pin name="CTRLD" x="15.24" y="2.54" length="middle" rot="R180" />
          <pin name="CTRLA" x="15.24" y="5.08" length="middle" rot="R180" />
          <pin name="VDD" x="15.24" y="7.62" length="middle" rot="R180" />
          <wire x1="-10.16" y1="10.16" x2="-10.16" y2="-10.16" width="0.254" layer="94" />
          <wire x1="-10.16" y1="-10.16" x2="10.16" y2="-10.16" width="0.254" layer="94" />
          <wire x1="10.16" y1="-10.16" x2="10.16" y2="10.16" width="0.254" layer="94" />
          <wire x1="10.16" y1="10.16" x2="-10.16" y2="10.16" width="0.254" layer="94" />
          <text x="-10.16" y="12.7" size="1.27" layer="95">&gt;NAME</text>
          <text x="-10.16" y="10.16" size="1.27" layer="96">&gt;VALUE</text>
        </symbol>
      </symbols>
      <devicesets>
        <deviceset name="CD4066BM96G4">
          <gates>
            <gate name="G$1" symbol="CD4066" x="0" y="0" />
          </gates>
          <devices>
            <device name="" package="R-PDSO-G14" xmlns="eagle">
              <connects>
                <connect gate="G$1" pin="AIN" pad="P$1" />
                <connect gate="G$1" pin="AOUT" pad="P$2" />
                <connect gate="G$1" pin="BIN" pad="P$4" />
                <connect gate="G$1" pin="BOUT" pad="P$3" />
                <connect gate="G$1" pin="CIN" pad="P$8" />
                <connect gate="G$1" pin="COUT" pad="P$9" />
                <connect gate="G$1" pin="CTRLA" pad="P$13" />
                <connect gate="G$1" pin="CTRLB" pad="P$5" />
                <connect gate="G$1" pin="CTRLC" pad="P$6" />
                <connect gate="G$1" pin="CTRLD" pad="P$12" />
                <connect gate="G$1" pin="DIN" pad="P$11" />
                <connect gate="G$1" pin="DOUT" pad="P$10" />
                <connect gate="G$1" pin="VDD" pad="P$14" />
                <connect gate="G$1" pin="VSS" pad="P$7" />
              </connects>
              <technologies>
                <technology name="" />
              </technologies>
            </device>
          </devices>
        </deviceset>
      </devicesets>
    </library>
  </drawing>
</eagle>