{
  "boardWidth": 40.0,
  "boardHeight": 40.0,
  "numLayers": 2,
  "boardTemplate": null,
  "designRules": null,
  "omitBoundary": null,
  "packages": [
    {
      "name": "C148",
      "package": "C_0402",
      "pkg_idx": 0,
      "ComponentID": "62ce962e-1b33-443a-99e9-22f2bb44a773",
      "RelComponentID": null,
      "width": 1.72,
      "height": 0.72,
      "koWidth": 1.72,
      "koHeight": 0.72,
      "originX": 0.0,
      "originY": 0.0,
      "x": 6.14,
      "y": 20.64,
      "rotation": 0,
      "layer": 0,
      "constraints": null,
      "multiLayer": null,
      "doNotPlace": null
    },
    {
      "name": "C149",
      "package": "C_0402",
      "pkg_idx": 1,
      "ComponentID": "6b9c391c-3b23-4e03-9188-385631df52be",
      "RelComponentID": null,
      "width": 1.72,
      "height": 0.72,
      "koWidth": 1.72,
      "koHeight": 0.72,
      "originX": 0.0,
      "originY": 0.0,
      "x": 6.14,
      "y": 6.64,
      "rotation": 2,
      "layer": 0,
      "constraints": null,
      "multiLayer": null,
      "doNotPlace": null
    },
    {
      "name": "C188",
      "package": "C_0402",
      "pkg_idx": 2,
      "ComponentID": "101a8790-3171-4f96-942b-043ae26efc45",
      "RelComponentID": null,
      "width": 1.72,
      "height": 0.72,
      "koWidth": 1.72,
      "koHeight": 0.72,
      "originX": 0.0,
      "originY": 0.0,
      "x": 6.14,
      "y": 23.64,
      "rotation": 0,
      "layer": 0,
      "constraints": null,
      "multiLayer": null,
      "doNotPlace": null
    },
    {
      "name": "C189",
      "package": "C_0402",
      "pkg_idx": 3,
      "ComponentID": "5a610632-1d7c-4f00-8b62-d29d31a7b19f",
      "RelComponentID": null,
      "width": 1.72,
      "height": 0.72,
      "koWidth": 1.72,
      "koHeight": 0.72,
      "originX": 0.0,
      "originY": 0.0,
      "x": 6.14,
      "y": 7.64,
      "rotation": 2,
      "layer": 0,
      "constraints": null,
      "multiLayer": null,
      "doNotPlace": null
    },
    {
      "name": "C19",
      "package": "C_0402",
      "pkg_idx": 4,
      "ComponentID": "26f4312f-7f53-42d9-bfd0-611dd9482c22",
      "RelComponentID": null,
      "width": 1.72,
      "height": 0.72,
      "koWidth": 1.72,
      "koHeight": 0.72,
      "originX": 0.0,
      "originY": 0.0,
      "x": 6.14,
      "y": 22.64,
      "rotation": 0,
      "layer": 0,
      "constraints": null,
      "multiLayer": null,
      "doNotPlace": null
    },
    {
      "name": "C20",
      "package": "C_0402",
      "pkg_idx": 5,
      "ComponentID": "4abdf2b0-3373-4b7a-9779-746dd9074bfd",
      "RelComponentID": null,
      "width": 1.72,
      "height": 0.72,
      "koWidth": 1.72,
      "koHeight": 0.72,
      "originX": 0.0,
      "originY": 0.0,
      "x": 6.14,
      "y": 5.64,
      "rotation": 2,
      "layer": 0,
      "constraints": null,
      "multiLayer": null,
      "doNotPlace": null
    },
    {
      "name": "C228",
      "package": "C_0402",
      "pkg_idx": 6,
      "ComponentID": "35364956-0741-434f-a441-cc262c41269f",
      "RelComponentID": null,
      "width": 1.72,
      "height": 0.72,
      "koWidth": 1.72,
      "koHeight": 0.72,
      "originX": 0.0,
      "originY": 0.0,
      "x": 6.14,
      "y": 21.64,
      "rotation": 0,
      "layer": 0,
      "constraints": null,
      "multiLayer": null,
      "doNotPlace": null
    },
    {
      "name": "C229",
      "package": "C_0402",
      "pkg_idx": 7,
      "ComponentID": "e4c6a51b-0030-4b7a-a48d-c6005baa80b7",
      "RelComponentID": null,
      "width": 1.72,
      "height": 0.72,
      "koWidth": 1.72,
      "koHeight": 0.72,
      "originX": 0.0,
      "originY": 0.0,
      "x": 6.14,
      "y": 8.64,
      "rotation": 2,
      "layer": 0,
      "constraints": null,
      "multiLayer": null,
      "doNotPlace": null
    },
    {
      "name": "C39",
      "package": "TANT_2012-METRIC",
      "pkg_idx": 8,
      "ComponentID": "2165bae5-0b35-4502-930c-a523b8c9e6f4",
      "RelComponentID": null,
      "width": 3.6392,
      "height": 1.6,
      "koWidth": 3.6392,
      "koHeight": 1.6,
      "originX": -0.3,
      "originY": 0.0,
      "x": 11.2,
      "y": 19.8804,
      "rotation": 1,
      "layer": 0,
      "constraints": null,
      "multiLayer": null,
      "doNotPlace": null
    },
    {
      "name": "C40",
      "package": "TANT_6032-METRIC",
      "pkg_idx": 9,
      "ComponentID": "cd1f5383-7f10-4e09-b871-ad868531eec4",
      "RelComponentID": null,
      "width": 7.8292,
      "height": 2.5,
      "koWidth": 7.8292,
      "koHeight": 2.5,
      "originX": -0.4,
      "originY": 0.0,
      "x": 13.75,
      "y": 17.4854,
      "rotation": 3,
      "layer": 0,
      "constraints": null,
      "multiLayer": null,
      "doNotPlace": null
    },
    {
      "name": "C41",
      "package": "TANT_7343-METRIC",
      "pkg_idx": 10,
      "ComponentID": "df8dcb9d-f9fb-4f29-b78a-706375d3bd74",
      "RelComponentID": null,
      "width": 9.5592,
      "height": 2.8,
      "koWidth": 9.5592,
      "koHeight": 2.8,
      "originX": -0.4,
      "originY": 0.0,
      "x": 6.1,
      "y": 10.4204,
      "rotation": 3,
      "layer": 0,
      "constraints": null,
      "multiLayer": null,
      "doNotPlace": null
    },
    {
      "name": "C42",
      "package": "TANT_7343-METRIC",
      "pkg_idx": 11,
      "ComponentID": "03b526ab-92e3-4509-8d4f-bc04ef384c98",
      "RelComponentID": null,
      "width": 9.5592,
      "height": 2.8,
      "koWidth": 9.5592,
      "koHeight": 2.8,
      "originX": -0.4,
      "originY": 0.0,
      "x": 13.6,
      "y": 6.6204,
      "rotation": 3,
      "layer": 0,
      "constraints": null,
      "multiLayer": null,
      "doNotPlace": null
    },
    {
      "name": "C43",
      "package": "TANT_7343-METRIC",
      "pkg_idx": 12,
      "ComponentID": "f5e8eb27-129b-4be0-a588-5fd51c65b0c1",
      "RelComponentID": null,
      "width": 9.5592,
      "height": 2.8,
      "koWidth": 9.5592,
      "koHeight": 2.8,
      "originX": -0.4,
      "originY": 0.0,
      "x": 10.0,
      "y": 9.6204,
      "rotation": 1,
      "layer": 0,
      "constraints": null,
      "multiLayer": null,
      "doNotPlace": null
    },
    {
      "name": "C7",
      "package": "C_0402",
      "pkg_idx": 13,
      "ComponentID": "2da53a2b-4204-488a-9a2c-84c6020da411",
      "RelComponentID": null,
      "width": 1.72,
      "height": 0.72,
      "koWidth": 1.72,
      "koHeight": 0.72,
      "originX": 0.0,
      "originY": 0.0,
      "x": 6.14,
      "y": 24.64,
      "rotation": 0,
      "layer": 0,
      "constraints": null,
      "multiLayer": null,
      "doNotPlace": null
    },
    {
      "name": "C8",
      "package": "C_0402",
      "pkg_idx": 14,
      "ComponentID": "3ffbdaf5-518e-4f18-ad49-0b323957dd01",
      "RelComponentID": null,
      "width": 1.72,
      "height": 0.72,
      "koWidth": 1.72,
      "koHeight": 0.72,
      "originX": 0.0,
      "originY": 0.0,
      "x": 6.14,
      "y": 4.64,
      "rotation": 2,
      "layer": 0,
      "constraints": null,
      "multiLayer": null,
      "doNotPlace": null
    },
    {
      "name": "D16",
      "package": "DIODES_DO-35",
      "pkg_idx": 15,
      "ComponentID": "14fd096a-ee19-4231-9ed0-909613abd49d",
      "RelComponentID": null,
      "width": 6.48,
      "height": 1.905,
      "koWidth": 6.48,
      "koHeight": 1.905,
      "originX": 0.0,
      "originY": 0.0,
      "x": 9.0475,
      "y": 20.76,
      "rotation": 3,
      "layer": 0,
      "constraints": null,
      "multiLayer": null,
      "doNotPlace": null
    },
    {
      "name": "D17",
      "package": "DIODES_DO-35",
      "pkg_idx": 16,
      "ComponentID": "5c1797f4-1cc3-466c-b430-ebb58b8337b2",
      "RelComponentID": null,
      "width": 6.48,
      "height": 1.905,
      "koWidth": 6.48,
      "koHeight": 1.905,
      "originX": 0.0,
      "originY": 0.0,
      "x": 3.0475,
      "y": 10.76,
      "rotation": 1,
      "layer": 0,
      "constraints": null,
      "multiLayer": null,
      "doNotPlace": null
    },
    {
      "name": "D18",
      "package": "DIODES_DO-35",
      "pkg_idx": 17,
      "ComponentID": "46fc8fa8-a1e6-4149-955e-5afb8fcbbe6b",
      "RelComponentID": null,
      "width": 6.48,
      "height": 1.905,
      "koWidth": 6.48,
      "koHeight": 1.905,
      "originX": 0.0,
      "originY": 0.0,
      "x": 3.0475,
      "y": 3.26,
      "rotation": 1,
      "layer": 0,
      "constraints": null,
      "multiLayer": null,
      "doNotPlace": null
    },
    {
      "name": "Q16",
      "package": "TO-92",
      "pkg_idx": 18,
      "ComponentID": "6e263ddf-e46f-437d-854e-00ab25177d39",
      "RelComponentID": null,
      "width": 5.3098,
      "height": 4.4958,
      "koWidth": 5.3098,
      "koHeight": 4.4958,
      "originX": 0.0,
      "originY": 0.5,
      "x": 0.2521,
      "y": 20.3451,
      "rotation": 3,
      "layer": 0,
      "constraints": null,
      "multiLayer": true,
      "doNotPlace": null
    },
    {
      "name": "Q17",
      "package": "TO-92",
      "pkg_idx": 19,
      "ComponentID": "7f0746a0-0c52-49b4-a369-5263987b17d0",
      "RelComponentID": null,
      "width": 5.3098,
      "height": 4.4958,
      "koWidth": 5.3098,
      "koHeight": 4.4958,
      "originX": 0.0,
      "originY": 0.5,
      "x": 11.2521,
      "y": 0.3451,
      "rotation": 3,
      "layer": 0,
      "constraints": null,
      "multiLayer": true,
      "doNotPlace": null
    },
    {
      "name": "R108",
      "package": "R_0603",
      "pkg_idx": 20,
      "ComponentID": "aeb1e3d2-6f69-46a2-bd14-67365d61f648",
      "RelComponentID": null,
      "width": 2.4,
      "height": 0.8,
      "koWidth": 2.4,
      "koHeight": 0.8,
      "originX": 0.0,
      "originY": 0.0,
      "x": 4.6,
      "y": 18.1,
      "rotation": 1,
      "layer": 0,
      "constraints": null,
      "multiLayer": null,
      "doNotPlace": null
    },
    {
      "name": "R109",
      "package": "R_0603",
      "pkg_idx": 21,
      "ComponentID": "8341c11c-5f5c-44c9-a14b-258e6f720965",
      "RelComponentID": null,
      "width": 2.4,
      "height": 0.8,
      "koWidth": 2.4,
      "koHeight": 0.8,
      "originX": 0.0,
      "originY": 0.0,
      "x": 9.1,
      "y": 1.8,
      "rotation": 1,
      "layer": 0,
      "constraints": null,
      "multiLayer": null,
      "doNotPlace": null
    },
    {
      "name": "R110",
      "package": "R_0603",
      "pkg_idx": 22,
      "ComponentID": "9a9411d6-6d43-4142-b963-0b6b25d63da3",
      "RelComponentID": null,
      "width": 2.4,
      "height": 0.8,
      "koWidth": 2.4,
      "koHeight": 0.8,
      "originX": 0.0,
      "originY": 0.0,
      "x": 1.0,
      "y": 11.2,
      "rotation": 1,
      "layer": 0,
      "constraints": null,
      "multiLayer": null,
      "doNotPlace": null
    },
    {
      "name": "R111",
      "package": "R_0603",
      "pkg_idx": 23,
      "ComponentID": "80541c17-58f5-435f-8d37-b385e83e6aff",
      "RelComponentID": null,
      "width": 2.4,
      "height": 0.8,
      "koWidth": 2.4,
      "koHeight": 0.8,
      "originX": 0.0,
      "originY": 0.0,
      "x": 3.3,
      "y": 1.6,
      "rotation": 0,
      "layer": 0,
      "constraints": null,
      "multiLayer": null,
      "doNotPlace": null
    }
  ],
  "signals": [
    {
      "name": "N$0",
      "length": 20.052308121330633,
      "bends": 21,
      "RelComponentID": null,
      "pins": [
        {
          "name": "P$1",
          "gate": "G$1",
          "pad": "1",
          "package": "C148"
        },
        {
          "name": "+",
          "gate": "A",
          "pad": "+",
          "package": "D17"
        },
        {
          "name": "1",
          "gate": "G$1",
          "pad": "P$1",
          "package": "R110"
        },
        {
          "name": "P$1",
          "gate": "G$1",
          "pad": "1",
          "package": "C228"
        },
        {
          "name": "P$1",
          "gate": "G$1",
          "pad": "1",
          "package": "C188"
        },
        {
          "name": "P$1",
          "gate": "G$1",
          "pad": "1",
          "package": "C7"
        },
        {
          "name": "P$1",
          "gate": "G$1",
          "pad": "1",
          "package": "C19"
        }
      ],
      "wires": [
        {
          "x1": 6.5532,
          "y1": 24.9936,
          "x2": 6.5532,
          "y2": 24.0792,
          "width": 0.1524,
          "layer": 1,
          "curve": 0.0
        },
        {
          "x1": 6.5532,
          "y1": 24.0792,
          "x2": 6.5,
          "y2": 24.0,
          "width": 0.1524,
          "layer": 1,
          "curve": 0.0
        },
        {
          "x1": 6.5532,
          "y1": 24.9936,
          "x2": 6.5,
          "y2": 25.0,
          "width": 0.1524,
          "layer": 1,
          "curve": 0.0
        },
        {
          "x1": 6.5532,
          "y1": 21.9456,
          "x2": 6.5532,
          "y2": 21.0312,
          "width": 0.1524,
          "layer": 1,
          "curve": 0.0
        },
        {
          "x1": 6.5532,
          "y1": 21.0312,
          "x2": 6.5,
          "y2": 21.0,
          "width": 0.1524,
          "layer": 1,
          "curve": 0.0
        },
        {
          "x1": 6.5532,
          "y1": 21.9456,
          "x2": 6.5,
          "y2": 22.0,
          "width": 0.1524,
          "layer": 1,
          "curve": 0.0
        },
        {
          "x1": 6.5532,
          "y1": 22.098,
          "x2": 6.5532,
          "y2": 22.86,
          "width": 0.1524,
          "layer": 1,
          "curve": 0.0
        },
        {
          "x1": 6.5532,
          "y1": 22.86,
          "x2": 6.5,
          "y2": 23.0,
          "width": 0.1524,
          "layer": 1,
          "curve": 0.0
        },
        {
          "x1": 6.5532,
          "y1": 22.098,
          "x2": 6.5,
          "y2": 22.0,
          "width": 0.1524,
          "layer": 1,
          "curve": 0.0
        },
        {
          "x1": 6.5532,
          "y1": 23.0124,
          "x2": 6.5532,
          "y2": 23.9268,
          "width": 0.1524,
          "layer": 1,
          "curve": 0.0
        },
        {
          "x1": 6.5532,
          "y1": 23.9268,
          "x2": 6.5,
          "y2": 24.0,
          "width": 0.1524,
          "layer": 1,
          "curve": 0.0
        },
        {
          "x1": 6.5532,
          "y1": 23.0124,
          "x2": 6.5,
          "y2": 23.0,
          "width": 0.1524,
          "layer": 1,
          "curve": 0.0
        },
        {
          "x1": 3.9624,
          "y1": 11.5824,
          "x2": 1.524,
          "y2": 11.5824,
          "width": 0.1524,
          "layer": 1,
          "curve": 0.0
        },
        {
          "x1": 1.524,
          "y1": 11.5824,
          "x2": 1.4,
          "y2": 11.6,
          "width": 0.1524,
          "layer": 1,
          "curve": 0.0
        },
        {
          "x1": 3.9624,
          "y1": 11.5824,
          "x2": 4.0,
          "y2": 11.46,
          "width": 0.1524,
          "layer": 1,
          "curve": 0.0
        },
        {
          "x1": 7.9248,
          "y1": 19.5072,
          "x2": 6.5532,
          "y2": 20.8788,
          "width": 0.1524,
          "layer": 1,
          "curve": 0.0
        },
        {
          "x1": 8.8392,
          "y1": 19.5072,
          "x2": 7.9248,
          "y2": 19.5072,
          "width": 0.1524,
          "layer": 1,
          "curve": 0.0
        },
        {
          "x1": 8.9916,
          "y1": 19.3548,
          "x2": 8.8392,
          "y2": 19.5072,
          "width": 0.1524,
          "layer": 1,
          "curve": 0.0
        },
        {
          "x1": 8.9916,
          "y1": 16.4592,
          "x2": 8.9916,
          "y2": 19.3548,
          "width": 0.1524,
          "layer": 1,
          "curve": 0.0
        },
        {
          "x1": 4.1148,
          "y1": 11.5824,
          "x2": 8.9916,
          "y2": 16.4592,
          "width": 0.1524,
          "layer": 1,
          "curve": 0.0
        },
        {
          "x1": 6.5532,
          "y1": 20.8788,
          "x2": 6.5,
          "y2": 21.0,
          "width": 0.1524,
          "layer": 1,
          "curve": 0.0
        },
        {
          "x1": 4.1148,
          "y1": 11.5824,
          "x2": 4.0,
          "y2": 11.46,
          "width": 0.1524,
          "layer": 1,
          "curve": 0.0
        }
      ],
      "vias": [],
      "polygons": []
    },
    {
      "name": "N$1",
      "length": 23.312165370445463,
      "bends": 33,
      "RelComponentID": null,
      "pins": [
        {
          "name": "P$2",
          "gate": "G$1",
          "pad": "2",
          "package": "C148"
        },
        {
          "name": "P$1",
          "gate": "G$1",
          "pad": "1",
          "package": "C8"
        },
        {
          "name": "P$1",
          "gate": "G$1",
          "pad": "1",
          "package": "C20"
        },
        {
          "name": "P$1",
          "gate": "G$1",
          "pad": "1",
          "package": "C149"
        },
        {
          "name": "P$1",
          "gate": "G$1",
          "pad": "1",
          "package": "C189"
        },
        {
          "name": "P$1",
          "gate": "G$1",
          "pad": "1",
          "package": "C229"
        },
        {
          "name": "P$2",
          "gate": "G$1",
          "pad": "2",
          "package": "C228"
        },
        {
          "name": "P$2",
          "gate": "G$1",
          "pad": "2",
          "package": "C188"
        },
        {
          "name": "P$2",
          "gate": "G$1",
          "pad": "2",
          "package": "C7"
        },
        {
          "name": "P$2",
          "gate": "G$1",
          "pad": "2",
          "package": "C19"
        }
      ],
      "wires": [
        {
          "x1": 7.4676,
          "y1": 8.9916,
          "x2": 7.4676,
          "y2": 8.0772,
          "width": 0.1524,
          "layer": 1,
          "curve": 0.0
        },
        {
          "x1": 7.4676,
          "y1": 8.0772,
          "x2": 7.5,
          "y2": 8.0,
          "width": 0.1524,
          "layer": 1,
          "curve": 0.0
        },
        {
          "x1": 7.4676,
          "y1": 8.9916,
          "x2": 7.5,
          "y2": 9.0,
          "width": 0.1524,
          "layer": 1,
          "curve": 0.0
        },
        {
          "x1": 7.4676,
          "y1": 5.9436,
          "x2": 7.4676,
          "y2": 5.0292,
          "width": 0.1524,
          "layer": 1,
          "curve": 0.0
        },
        {
          "x1": 7.4676,
          "y1": 5.0292,
          "x2": 7.5,
          "y2": 5.0,
          "width": 0.1524,
          "layer": 1,
          "curve": 0.0
        },
        {
          "x1": 7.4676,
          "y1": 5.9436,
          "x2": 7.5,
          "y2": 6.0,
          "width": 0.1524,
          "layer": 1,
          "curve": 0.0
        },
        {
          "x1": 7.4676,
          "y1": 6.096,
          "x2": 7.4676,
          "y2": 6.858,
          "width": 0.1524,
          "layer": 1,
          "curve": 0.0
        },
        {
          "x1": 7.4676,
          "y1": 6.858,
          "x2": 7.5,
          "y2": 7.0,
          "width": 0.1524,
          "layer": 1,
          "curve": 0.0
        },
        {
          "x1": 7.4676,
          "y1": 6.096,
          "x2": 7.5,
          "y2": 6.0,
          "width": 0.1524,
          "layer": 1,
          "curve": 0.0
        },
        {
          "x1": 7.4676,
          "y1": 7.0104,
          "x2": 7.4676,
          "y2": 7.9248,
          "width": 0.1524,
          "layer": 1,
          "curve": 0.0
        },
        {
          "x1": 7.4676,
          "y1": 7.9248,
          "x2": 7.5,
          "y2": 8.0,
          "width": 0.1524,
          "layer": 1,
          "curve": 0.0
        },
        {
          "x1": 7.4676,
          "y1": 7.0104,
          "x2": 7.5,
          "y2": 7.0,
          "width": 0.1524,
          "layer": 1,
          "curve": 0.0
        },
        {
          "x1": 7.4676,
          "y1": 24.9936,
          "x2": 7.4676,
          "y2": 24.0792,
          "width": 0.1524,
          "layer": 1,
          "curve": 0.0
        },
        {
          "x1": 7.4676,
          "y1": 24.0792,
          "x2": 7.5,
          "y2": 24.0,
          "width": 0.1524,
          "layer": 1,
          "curve": 0.0
        },
        {
          "x1": 7.4676,
          "y1": 24.9936,
          "x2": 7.5,
          "y2": 25.0,
          "width": 0.1524,
          "layer": 1,
          "curve": 0.0
        },
        {
          "x1": 7.4676,
          "y1": 21.9456,
          "x2": 7.4676,
          "y2": 21.0312,
          "width": 0.1524,
          "layer": 1,
          "curve": 0.0
        },
        {
          "x1": 7.4676,
          "y1": 21.0312,
          "x2": 7.5,
          "y2": 21.0,
          "width": 0.1524,
          "layer": 1,
          "curve": 0.0
        },
        {
          "x1": 7.4676,
          "y1": 21.9456,
          "x2": 7.5,
          "y2": 22.0,
          "width": 0.1524,
          "layer": 1,
          "curve": 0.0
        },
        {
          "x1": 7.4676,
          "y1": 22.098,
          "x2": 7.4676,
          "y2": 22.86,
          "width": 0.1524,
          "layer": 1,
          "curve": 0.0
        },
        {
          "x1": 7.4676,
          "y1": 22.86,
          "x2": 7.5,
          "y2": 23.0,
          "width": 0.1524,
          "layer": 1,
          "curve": 0.0
        },
        {
          "x1": 7.4676,
          "y1": 22.098,
          "x2": 7.5,
          "y2": 22.0,
          "width": 0.1524,
          "layer": 1,
          "curve": 0.0
        },
        {
          "x1": 7.4676,
          "y1": 23.0124,
          "x2": 7.4676,
          "y2": 23.9268,
          "width": 0.1524,
          "layer": 1,
          "curve": 0.0
        },
        {
          "x1": 7.4676,
          "y1": 23.9268,
          "x2": 7.5,
          "y2": 24.0,
          "width": 0.1524,
          "layer": 1,
          "curve": 0.0
        },
        {
          "x1": 7.4676,
          "y1": 23.0124,
          "x2": 7.5,
          "y2": 23.0,
          "width": 0.1524,
          "layer": 1,
          "curve": 0.0
        },
        {
          "x1": 6.5532,
          "y1": 10.0584,
          "x2": 7.4676,
          "y2": 9.144,
          "width": 0.1524,
          "layer": 1,
          "curve": 0.0
        },
        {
          "x1": 6.2484,
          "y1": 10.0584,
          "x2": 6.5532,
          "y2": 10.0584,
          "width": 0.1524,
          "layer": 1,
          "curve": 0.0
        },
        {
          "x1": 5.9436,
          "y1": 10.3632,
          "x2": 6.2484,
          "y2": 10.0584,
          "width": 0.1524,
          "layer": 1,
          "curve": 0.0
        },
        {
          "x1": 5.9436,
          "y1": 12.954,
          "x2": 5.9436,
          "y2": 10.3632,
          "width": 0.1524,
          "layer": 1,
          "curve": 0.0
        },
        {
          "x1": 9.2964,
          "y1": 16.3068,
          "x2": 5.9436,
          "y2": 12.954,
          "width": 0.1524,
          "layer": 1,
          "curve": 0.0
        },
        {
          "x1": 9.2964,
          "y1": 19.5072,
          "x2": 9.2964,
          "y2": 16.3068,
          "width": 0.1524,
          "layer": 1,
          "curve": 0.0
        },
        {
          "x1": 7.9248,
          "y1": 20.8788,
          "x2": 9.2964,
          "y2": 19.5072,
          "width": 0.1524,
          "layer": 1,
          "curve": 0.0
        },
        {
          "x1": 7.62,
          "y1": 20.8788,
          "x2": 7.9248,
          "y2": 20.8788,
          "width": 0.1524,
          "layer": 1,
          "curve": 0.0
        },
        {
          "x1": 7.4676,
          "y1": 9.144,
          "x2": 7.5,
          "y2": 9.0,
          "width": 0.1524,
          "layer": 1,
          "curve": 0.0
        },
        {
          "x1": 7.62,
          "y1": 20.8788,
          "x2": 7.5,
          "y2": 21.0,
          "width": 0.1524,
          "layer": 1,
          "curve": 0.0
        }
      ],
      "vias": [],
      "polygons": []
    },
    {
      "name": "N$2",
      "length": 10.190005444879308,
      "bends": 18,
      "RelComponentID": null,
      "pins": [
        {
          "name": "P$2",
          "gate": "G$1",
          "pad": "2",
          "package": "C149"
        },
        {
          "name": "-",
          "gate": "A",
          "pad": "-",
          "package": "D18"
        },
        {
          "name": "2",
          "gate": "G$1",
          "pad": "P$2",
          "package": "R111"
        },
        {
          "name": "P$2",
          "gate": "G$1",
          "pad": "2",
          "package": "C229"
        },
        {
          "name": "P$2",
          "gate": "G$1",
          "pad": "2",
          "package": "C189"
        },
        {
          "name": "P$2",
          "gate": "G$1",
          "pad": "2",
          "package": "C8"
        },
        {
          "name": "P$2",
          "gate": "G$1",
          "pad": "2",
          "package": "C20"
        }
      ],
      "wires": [
        {
          "x1": 6.5532,
          "y1": 8.9916,
          "x2": 6.5532,
          "y2": 8.0772,
          "width": 0.1524,
          "layer": 1,
          "curve": 0.0
        },
        {
          "x1": 6.5532,
          "y1": 8.0772,
          "x2": 6.5,
          "y2": 8.0,
          "width": 0.1524,
          "layer": 1,
          "curve": 0.0
        },
        {
          "x1": 6.5532,
          "y1": 8.9916,
          "x2": 6.5,
          "y2": 9.0,
          "width": 0.1524,
          "layer": 1,
          "curve": 0.0
        },
        {
          "x1": 6.5532,
          "y1": 5.9436,
          "x2": 6.5532,
          "y2": 5.0292,
          "width": 0.1524,
          "layer": 1,
          "curve": 0.0
        },
        {
          "x1": 6.5532,
          "y1": 5.0292,
          "x2": 6.5,
          "y2": 5.0,
          "width": 0.1524,
          "layer": 1,
          "curve": 0.0
        },
        {
          "x1": 6.5532,
          "y1": 5.9436,
          "x2": 6.5,
          "y2": 6.0,
          "width": 0.1524,
          "layer": 1,
          "curve": 0.0
        },
        {
          "x1": 6.5532,
          "y1": 6.096,
          "x2": 6.5532,
          "y2": 6.858,
          "width": 0.1524,
          "layer": 1,
          "curve": 0.0
        },
        {
          "x1": 6.5532,
          "y1": 6.858,
          "x2": 6.5,
          "y2": 7.0,
          "width": 0.1524,
          "layer": 1,
          "curve": 0.0
        },
        {
          "x1": 6.5532,
          "y1": 6.096,
          "x2": 6.5,
          "y2": 6.0,
          "width": 0.1524,
          "layer": 1,
          "curve": 0.0
        },
        {
          "x1": 5.334,
          "y1": 3.81,
          "x2": 5.334,
          "y2": 2.1336,
          "width": 0.1524,
          "layer": 1,
          "curve": 0.0
        },
        {
          "x1": 6.4008,
          "y1": 4.8768,
          "x2": 5.334,
          "y2": 3.81,
          "width": 0.1524,
          "layer": 1,
          "curve": 0.0
        },
        {
          "x1": 5.334,
          "y1": 2.1336,
          "x2": 5.3,
          "y2": 2.0,
          "width": 0.1524,
          "layer": 1,
          "curve": 0.0
        },
        {
          "x1": 6.4008,
          "y1": 4.8768,
          "x2": 6.5,
          "y2": 5.0,
          "width": 0.1524,
          "layer": 1,
          "curve": 0.0
        },
        {
          "x1": 6.5532,
          "y1": 7.0104,
          "x2": 6.5532,
          "y2": 7.9248,
          "width": 0.1524,
          "layer": 1,
          "curve": 0.0
        },
        {
          "x1": 6.5532,
          "y1": 7.9248,
          "x2": 6.5,
          "y2": 8.0,
          "width": 0.1524,
          "layer": 1,
          "curve": 0.0
        },
        {
          "x1": 6.5532,
          "y1": 7.0104,
          "x2": 6.5,
          "y2": 7.0,
          "width": 0.1524,
          "layer": 1,
          "curve": 0.0
        },
        {
          "x1": 6.4008,
          "y1": 8.9916,
          "x2": 4.1148,
          "y2": 8.9916,
          "width": 0.1524,
          "layer": 1,
          "curve": 0.0
        },
        {
          "x1": 4.1148,
          "y1": 8.9916,
          "x2": 4.0,
          "y2": 9.04,
          "width": 0.1524,
          "layer": 1,
          "curve": 0.0
        },
        {
          "x1": 6.4008,
          "y1": 8.9916,
          "x2": 6.5,
          "y2": 9.0,
          "width": 0.1524,
          "layer": 1,
          "curve": 0.0
        }
      ],
      "vias": [],
      "polygons": []
    },
    {
      "name": "N$3",
      "length": 2.2076905272921907,
      "bends": 3,
      "RelComponentID": null,
      "pins": [
        {
          "name": "+",
          "gate": "G$1",
          "pad": "P$1",
          "package": "C39"
        },
        {
          "name": "-",
          "gate": "A",
          "pad": "-",
          "package": "D16"
        }
      ],
      "wires": [
        {
          "x1": 10.2108,
          "y1": 21.1836,
          "x2": 11.8872,
          "y2": 21.1836,
          "width": 0.1524,
          "layer": 1,
          "curve": 0.0
        },
        {
          "x1": 10.0584,
          "y1": 21.336,
          "x2": 10.2108,
          "y2": 21.1836,
          "width": 0.1524,
          "layer": 1,
          "curve": 0.0
        },
        {
          "x1": 11.8872,
          "y1": 21.1836,
          "x2": 12.0,
          "y2": 21.045,
          "width": 0.1524,
          "layer": 1,
          "curve": 0.0
        },
        {
          "x1": 10.0584,
          "y1": 21.336,
          "x2": 10.0,
          "y2": 21.46,
          "width": 0.1524,
          "layer": 1,
          "curve": 0.0
        }
      ],
      "vias": [],
      "polygons": []
    },
    {
      "name": "N$4",
      "length": 4.250494923391714,
      "bends": 2,
      "RelComponentID": null,
      "pins": [
        {
          "name": "-",
          "gate": "G$1",
          "pad": "P$2",
          "package": "C40"
        },
        {
          "name": "+",
          "gate": "G$1",
          "pad": "P$1",
          "package": "C42"
        }
      ],
      "wires": [
        {
          "x1": 14.9352,
          "y1": 14.3256,
          "x2": 14.9352,
          "y2": 18.4404,
          "width": 0.1524,
          "layer": 1,
          "curve": 0.0
        },
        {
          "x1": 14.9352,
          "y1": 18.4404,
          "x2": 15.0,
          "y2": 18.46,
          "width": 0.1524,
          "layer": 1,
          "curve": 0.0
        },
        {
          "x1": 14.9352,
          "y1": 14.3256,
          "x2": 15.0,
          "y2": 14.305,
          "width": 0.1524,
          "layer": 1,
          "curve": 0.0
        }
      ],
      "vias": [],
      "polygons": []
    },
    {
      "name": "N$5",
      "length": 15.171684155959955,
      "bends": 7,
      "RelComponentID": null,
      "pins": [
        {
          "name": "+",
          "gate": "G$1",
          "pad": "P$1",
          "package": "C40"
        },
        {
          "name": "+",
          "gate": "A",
          "pad": "+",
          "package": "D16"
        },
        {
          "name": "E",
          "gate": "G$1",
          "pad": "1",
          "package": "Q16"
        }
      ],
      "wires": [
        {
          "x1": 12.0396,
          "y1": 26.5176,
          "x2": 10.0584,
          "y2": 26.5176,
          "width": 0.1524,
          "layer": 1,
          "curve": 0.0
        },
        {
          "x1": 14.9352,
          "y1": 23.622,
          "x2": 12.0396,
          "y2": 26.5176,
          "width": 0.1524,
          "layer": 1,
          "curve": 0.0
        },
        {
          "x1": 10.0584,
          "y1": 26.5176,
          "x2": 10.0,
          "y2": 26.54,
          "width": 0.1524,
          "layer": 1,
          "curve": 0.0
        },
        {
          "x1": 14.9352,
          "y1": 23.622,
          "x2": 15.0,
          "y2": 23.54,
          "width": 0.1524,
          "layer": 1,
          "curve": 0.0
        },
        {
          "x1": 7.7724,
          "y1": 24.384,
          "x2": 2.1336,
          "y2": 24.384,
          "width": 0.1524,
          "layer": 16,
          "curve": 0.0
        },
        {
          "x1": 9.906,
          "y1": 26.5176,
          "x2": 7.7724,
          "y2": 24.384,
          "width": 0.1524,
          "layer": 16,
          "curve": 0.0
        },
        {
          "x1": 2.1336,
          "y1": 24.384,
          "x2": 2.0,
          "y2": 24.27,
          "width": 0.1524,
          "layer": 16,
          "curve": 0.0
        },
        {
          "x1": 9.906,
          "y1": 26.5176,
          "x2": 10.0,
          "y2": 26.54,
          "width": 0.1524,
          "layer": 16,
          "curve": 0.0
        }
      ],
      "vias": [],
      "polygons": []
    },
    {
      "name": "N$6",
      "length": 3.9564557689798869,
      "bends": 2,
      "RelComponentID": null,
      "pins": [
        {
          "name": "-",
          "gate": "G$1",
          "pad": "P$2",
          "package": "C41"
        },
        {
          "name": "+",
          "gate": "G$1",
          "pad": "P$1",
          "package": "C43"
        }
      ],
      "wires": [
        {
          "x1": 11.2776,
          "y1": 11.5824,
          "x2": 7.62,
          "y2": 11.5824,
          "width": 0.1524,
          "layer": 1,
          "curve": 0.0
        },
        {
          "x1": 7.62,
          "y1": 11.5824,
          "x2": 7.5,
          "y2": 11.495,
          "width": 0.1524,
          "layer": 1,
          "curve": 0.0
        },
        {
          "x1": 11.2776,
          "y1": 11.5824,
          "x2": 11.4,
          "y2": 11.495,
          "width": 0.1524,
          "layer": 1,
          "curve": 0.0
        }
      ],
      "vias": [],
      "polygons": []
    },
    {
      "name": "N$7",
      "length": 6.7767952012373014,
      "bends": 7,
      "RelComponentID": null,
      "pins": [
        {
          "name": "+",
          "gate": "G$1",
          "pad": "P$1",
          "package": "C41"
        },
        {
          "name": "B",
          "gate": "G$1",
          "pad": "2",
          "package": "Q16"
        },
        {
          "name": "2",
          "gate": "G$1",
          "pad": "P$2",
          "package": "R108"
        }
      ],
      "wires": [
        {
          "x1": 4.8768,
          "y1": 21.9456,
          "x2": 4.8768,
          "y2": 20.1168,
          "width": 0.1524,
          "layer": 1,
          "curve": 0.0
        },
        {
          "x1": 3.9624,
          "y1": 22.86,
          "x2": 4.8768,
          "y2": 21.9456,
          "width": 0.1524,
          "layer": 1,
          "curve": 0.0
        },
        {
          "x1": 4.8768,
          "y1": 20.1168,
          "x2": 5.0,
          "y2": 20.1,
          "width": 0.1524,
          "layer": 1,
          "curve": 0.0
        },
        {
          "x1": 3.9624,
          "y1": 22.86,
          "x2": 3.905,
          "y2": 23.0,
          "width": 0.1524,
          "layer": 1,
          "curve": 0.0
        },
        {
          "x1": 6.858,
          "y1": 18.1356,
          "x2": 7.4676,
          "y2": 18.1356,
          "width": 0.1524,
          "layer": 1,
          "curve": 0.0
        },
        {
          "x1": 5.0292,
          "y1": 19.9644,
          "x2": 6.858,
          "y2": 18.1356,
          "width": 0.1524,
          "layer": 1,
          "curve": 0.0
        },
        {
          "x1": 7.4676,
          "y1": 18.1356,
          "x2": 7.5,
          "y2": 18.105,
          "width": 0.1524,
          "layer": 1,
          "curve": 0.0
        },
        {
          "x1": 5.0292,
          "y1": 19.9644,
          "x2": 5.0,
          "y2": 20.1,
          "width": 0.1524,
          "layer": 1,
          "curve": 0.0
        }
      ],
      "vias": [],
      "polygons": []
    },
    {
      "name": "N$8",
      "length": 4.2406087061940934,
      "bends": 3,
      "RelComponentID": null,
      "pins": [
        {
          "name": "-",
          "gate": "G$1",
          "pad": "P$2",
          "package": "C42"
        },
        {
          "name": "E",
          "gate": "G$1",
          "pad": "1",
          "package": "Q17"
        }
      ],
      "wires": [
        {
          "x1": 14.9352,
          "y1": 6.2484,
          "x2": 14.9352,
          "y2": 7.62,
          "width": 0.1524,
          "layer": 1,
          "curve": 0.0
        },
        {
          "x1": 13.1064,
          "y1": 4.4196,
          "x2": 14.9352,
          "y2": 6.2484,
          "width": 0.1524,
          "layer": 1,
          "curve": 0.0
        },
        {
          "x1": 14.9352,
          "y1": 7.62,
          "x2": 15.0,
          "y2": 7.695,
          "width": 0.1524,
          "layer": 1,
          "curve": 0.0
        },
        {
          "x1": 13.1064,
          "y1": 4.4196,
          "x2": 13.0,
          "y2": 4.27,
          "width": 0.1524,
          "layer": 1,
          "curve": 0.0
        }
      ],
      "vias": [],
      "polygons": []
    },
    {
      "name": "N$9",
      "length": 21.327402016174016,
      "bends": 11,
      "RelComponentID": null,
      "pins": [
        {
          "name": "-",
          "gate": "G$1",
          "pad": "P$2",
          "package": "C43"
        },
        {
          "name": "B",
          "gate": "G$1",
          "pad": "2",
          "package": "Q17"
        },
        {
          "name": "2",
          "gate": "G$1",
          "pad": "P$2",
          "package": "R109"
        }
      ],
      "wires": [
        {
          "x1": 11.8872,
          "y1": 3.6576,
          "x2": 11.7348,
          "y2": 3.6576,
          "width": 0.1524,
          "layer": 1,
          "curve": 0.0
        },
        {
          "x1": 11.7348,
          "y1": 3.6576,
          "x2": 9.6012,
          "y2": 3.6576,
          "width": 0.1524,
          "layer": 1,
          "curve": 0.0
        },
        {
          "x1": 12.4968,
          "y1": 3.048,
          "x2": 11.8872,
          "y2": 3.6576,
          "width": 0.1524,
          "layer": 1,
          "curve": 0.0
        },
        {
          "x1": 14.7828,
          "y1": 3.048,
          "x2": 12.4968,
          "y2": 3.048,
          "width": 0.1524,
          "layer": 1,
          "curve": 0.0
        },
        {
          "x1": 9.6012,
          "y1": 3.6576,
          "x2": 9.5,
          "y2": 3.8,
          "width": 0.1524,
          "layer": 1,
          "curve": 0.0
        },
        {
          "x1": 14.7828,
          "y1": 3.048,
          "x2": 14.905,
          "y2": 3.0,
          "width": 0.1524,
          "layer": 1,
          "curve": 0.0
        },
        {
          "x1": 11.43,
          "y1": 14.1732,
          "x2": 11.43,
          "y2": 17.9832,
          "width": 0.1524,
          "layer": 1,
          "curve": 0.0
        },
        {
          "x1": 12.954,
          "y1": 12.6492,
          "x2": 11.43,
          "y2": 14.1732,
          "width": 0.1524,
          "layer": 1,
          "curve": 0.0
        },
        {
          "x1": 12.954,
          "y1": 5.9436,
          "x2": 12.954,
          "y2": 12.6492,
          "width": 0.1524,
          "layer": 1,
          "curve": 0.0
        },
        {
          "x1": 11.7348,
          "y1": 4.7244,
          "x2": 12.954,
          "y2": 5.9436,
          "width": 0.1524,
          "layer": 1,
          "curve": 0.0
        },
        {
          "x1": 11.7348,
          "y1": 3.6576,
          "x2": 11.7348,
          "y2": 4.7244,
          "width": 0.1524,
          "layer": 1,
          "curve": 0.0
        },
        {
          "x1": 11.43,
          "y1": 17.9832,
          "x2": 11.4,
          "y2": 18.105,
          "width": 0.1524,
          "layer": 1,
          "curve": 0.0
        }
      ],
      "vias": [],
      "polygons": []
    },
    {
      "name": "N$10",
      "length": 11.352513641774513,
      "bends": 11,
      "RelComponentID": null,
      "pins": [
        {
          "name": "-",
          "gate": "A",
          "pad": "-",
          "package": "D17"
        },
        {
          "name": "C",
          "gate": "G$1",
          "pad": "3",
          "package": "Q16"
        },
        {
          "name": "1",
          "gate": "G$1",
          "pad": "P$1",
          "package": "R108"
        },
        {
          "name": "2",
          "gate": "G$1",
          "pad": "P$2",
          "package": "R110"
        }
      ],
      "wires": [
        {
          "x1": 1.524,
          "y1": 14.0208,
          "x2": 1.524,
          "y2": 13.2588,
          "width": 0.1524,
          "layer": 1,
          "curve": 0.0
        },
        {
          "x1": 3.9624,
          "y1": 16.4592,
          "x2": 1.524,
          "y2": 14.0208,
          "width": 0.1524,
          "layer": 1,
          "curve": 0.0
        },
        {
          "x1": 1.524,
          "y1": 13.2588,
          "x2": 1.4,
          "y2": 13.2,
          "width": 0.1524,
          "layer": 1,
          "curve": 0.0
        },
        {
          "x1": 3.9624,
          "y1": 16.4592,
          "x2": 4.0,
          "y2": 16.54,
          "width": 0.1524,
          "layer": 1,
          "curve": 0.0
        },
        {
          "x1": 4.8768,
          "y1": 17.3736,
          "x2": 4.8768,
          "y2": 18.4404,
          "width": 0.1524,
          "layer": 1,
          "curve": 0.0
        },
        {
          "x1": 4.1148,
          "y1": 16.6116,
          "x2": 4.8768,
          "y2": 17.3736,
          "width": 0.1524,
          "layer": 1,
          "curve": 0.0
        },
        {
          "x1": 4.8768,
          "y1": 18.4404,
          "x2": 5.0,
          "y2": 18.5,
          "width": 0.1524,
          "layer": 1,
          "curve": 0.0
        },
        {
          "x1": 4.1148,
          "y1": 16.6116,
          "x2": 4.0,
          "y2": 16.54,
          "width": 0.1524,
          "layer": 1,
          "curve": 0.0
        },
        {
          "x1": 2.1336,
          "y1": 21.336,
          "x2": 2.1336,
          "y2": 21.6408,
          "width": 0.1524,
          "layer": 1,
          "curve": 0.0
        },
        {
          "x1": 4.8768,
          "y1": 18.5928,
          "x2": 2.1336,
          "y2": 21.336,
          "width": 0.1524,
          "layer": 1,
          "curve": 0.0
        },
        {
          "x1": 2.1336,
          "y1": 21.6408,
          "x2": 2.0,
          "y2": 21.73,
          "width": 0.1524,
          "layer": 1,
          "curve": 0.0
        },
        {
          "x1": 4.8768,
          "y1": 18.5928,
          "x2": 5.0,
          "y2": 18.5,
          "width": 0.1524,
          "layer": 1,
          "curve": 0.0
        }
      ],
      "vias": [],
      "polygons": []
    },
    {
      "name": "N$11",
      "length": 12.304929447671997,
      "bends": 13,
      "RelComponentID": null,
      "pins": [
        {
          "name": "+",
          "gate": "A",
          "pad": "+",
          "package": "D18"
        },
        {
          "name": "C",
          "gate": "G$1",
          "pad": "3",
          "package": "Q17"
        },
        {
          "name": "1",
          "gate": "G$1",
          "pad": "P$1",
          "package": "R109"
        },
        {
          "name": "1",
          "gate": "G$1",
          "pad": "P$1",
          "package": "R111"
        }
      ],
      "wires": [
        {
          "x1": 3.81,
          "y1": 3.6576,
          "x2": 3.81,
          "y2": 2.1336,
          "width": 0.1524,
          "layer": 1,
          "curve": 0.0
        },
        {
          "x1": 3.9624,
          "y1": 3.81,
          "x2": 3.81,
          "y2": 3.6576,
          "width": 0.1524,
          "layer": 1,
          "curve": 0.0
        },
        {
          "x1": 3.81,
          "y1": 2.1336,
          "x2": 3.7,
          "y2": 2.0,
          "width": 0.1524,
          "layer": 1,
          "curve": 0.0
        },
        {
          "x1": 3.9624,
          "y1": 3.81,
          "x2": 4.0,
          "y2": 3.96,
          "width": 0.1524,
          "layer": 1,
          "curve": 0.0
        },
        {
          "x1": 12.6492,
          "y1": 2.1336,
          "x2": 9.6012,
          "y2": 2.1336,
          "width": 0.1524,
          "layer": 1,
          "curve": 0.0
        },
        {
          "x1": 12.954,
          "y1": 1.8288,
          "x2": 12.6492,
          "y2": 2.1336,
          "width": 0.1524,
          "layer": 1,
          "curve": 0.0
        },
        {
          "x1": 9.6012,
          "y1": 2.1336,
          "x2": 9.5,
          "y2": 2.2,
          "width": 0.1524,
          "layer": 1,
          "curve": 0.0
        },
        {
          "x1": 12.954,
          "y1": 1.8288,
          "x2": 13.0,
          "y2": 1.73,
          "width": 0.1524,
          "layer": 1,
          "curve": 0.0
        },
        {
          "x1": 4.1148,
          "y1": 1.9812,
          "x2": 3.81,
          "y2": 1.9812,
          "width": 0.1524,
          "layer": 1,
          "curve": 0.0
        },
        {
          "x1": 4.8768,
          "y1": 1.2192,
          "x2": 4.1148,
          "y2": 1.9812,
          "width": 0.1524,
          "layer": 1,
          "curve": 0.0
        },
        {
          "x1": 8.5344,
          "y1": 1.2192,
          "x2": 4.8768,
          "y2": 1.2192,
          "width": 0.1524,
          "layer": 1,
          "curve": 0.0
        },
        {
          "x1": 9.4488,
          "y1": 2.1336,
          "x2": 8.5344,
          "y2": 1.2192,
          "width": 0.1524,
          "layer": 1,
          "curve": 0.0
        },
        {
          "x1": 3.81,
          "y1": 1.9812,
          "x2": 3.7,
          "y2": 2.0,
          "width": 0.1524,
          "layer": 1,
          "curve": 0.0
        },
        {
          "x1": 9.4488,
          "y1": 2.1336,
          "x2": 9.5,
          "y2": 2.2,
          "width": 0.1524,
          "layer": 1,
          "curve": 0.0
        }
      ],
      "vias": [],
      "polygons": []
    }
  ],
  "constraints": null,
  "border": null
}