{
  "boardWidth": 20.0,
  "boardHeight": 20.0,
  "numLayers": 2,
  "boardTemplate": null,
  "designRules": null,
  "omitBoundary": null,
  "packages": [
    {
      "name": "C601",
      "package": "TANT_2012-METRIC",
      "pkg_idx": 0,
      "ComponentID": "7d268b86-5e30-4361-a522-ee3eaca0ff70",
      "RelComponentID": null,
      "width": 3.6392,
      "height": 1.6,
      "koWidth": 3.6392,
      "koHeight": 1.6,
      "originX": -0.3,
      "originY": 0.0,
      "x": 2.1804,
      "y": 14.2,
      "rotation": 0,
      "layer": 0,
      "constraints": null,
      "multiLayer": null,
      "doNotPlace": null
    },
    {
      "name": "C602",
      "package": "C_0603",
      "pkg_idx": 1,
      "ComponentID": "0c9a0dce-a80a-4afd-bdc8-beea5ab285b1",
      "RelComponentID": null,
      "width": 2.95,
      "height": 1.1,
      "koWidth": 2.95,
      "koHeight": 1.1,
      "originX": 0.0,
      "originY": 0.0,
      "x": 7.75,
      "y": 11.125,
      "rotation": 3,
      "layer": 0,
      "constraints": null,
      "multiLayer": null,
      "doNotPlace": null
    },
    {
      "name": "C603",
      "package": "C_0603",
      "pkg_idx": 2,
      "ComponentID": "ee4f5d15-b795-4ebb-80ae-1ba7ead5f947",
      "RelComponentID": null,
      "width": 2.95,
      "height": 1.1,
      "koWidth": 2.95,
      "koHeight": 1.1,
      "originX": 0.0,
      "originY": 0.0,
      "x": 12.525,
      "y": 3.05,
      "rotation": 0,
      "layer": 0,
      "constraints": null,
      "multiLayer": null,
      "doNotPlace": null
    },
    {
      "name": "C604",
      "package": "C_0603",
      "pkg_idx": 3,
      "ComponentID": "3258a21d-a4b9-4487-813c-304f0b01ff4e",
      "RelComponentID": null,
      "width": 2.95,
      "height": 1.1,
      "koWidth": 2.95,
      "koHeight": 1.1,
      "originX": 0.0,
      "originY": 0.0,
      "x": 15.75,
      "y": 12.725,
      "rotation": 3,
      "layer": 0,
      "constraints": null,
      "multiLayer": null,
      "doNotPlace": null
    },
    {
      "name": "C605",
      "package": "C_0603",
      "pkg_idx": 4,
      "ComponentID": "f12c7100-2ff4-4cb3-969b-08090c98b24f",
      "RelComponentID": null,
      "width": 2.95,
      "height": 1.1,
      "koWidth": 2.95,
      "koHeight": 1.1,
      "originX": 0.0,
      "originY": 0.0,
      "x": 15.75,
      "y": 5.125,
      "rotation": 3,
      "layer": 0,
      "constraints": null,
      "multiLayer": null,
      "doNotPlace": null
    },
    {
      "name": "C606",
      "package": "TANT_6032-METRIC",
      "pkg_idx": 5,
      "ComponentID": "fdd97317-41ca-4149-9cc0-b0bafa0f1401",
      "RelComponentID": null,
      "width": 7.8292,
      "height": 2.5,
      "koWidth": 7.8292,
      "koHeight": 2.5,
      "originX": -0.4,
      "originY": 0.0,
      "x": 18.35,
      "y": 9.3854,
      "rotation": 3,
      "layer": 0,
      "constraints": null,
      "multiLayer": null,
      "doNotPlace": null
    },
    {
      "name": "C607",
      "package": "TANT_6032-METRIC",
      "pkg_idx": 6,
      "ComponentID": "1d580a56-0201-4546-b39a-0d658f8ec935",
      "RelComponentID": null,
      "width": 7.8292,
      "height": 2.5,
      "koWidth": 7.8292,
      "koHeight": 2.5,
      "originX": -0.4,
      "originY": 0.0,
      "x": 2.95,
      "y": 2.5854,
      "rotation": 1,
      "layer": 0,
      "constraints": null,
      "multiLayer": null,
      "doNotPlace": null
    },
    {
      "name": "C608",
      "package": "TANT_6032-METRIC",
      "pkg_idx": 7,
      "ComponentID": "c66d211b-076a-415b-a293-450375d5d224",
      "RelComponentID": null,
      "width": 7.8292,
      "height": 2.5,
      "koWidth": 7.8292,
      "koHeight": 2.5,
      "originX": -0.4,
      "originY": 0.0,
      "x": 18.35,
      "y": 1.4854,
      "rotation": 3,
      "layer": 0,
      "constraints": null,
      "multiLayer": null,
      "doNotPlace": null
    },
    {
      "name": "Q61",
      "package": "TO-92",
      "pkg_idx": 8,
      "ComponentID": "c54bb62b-0aa5-43e9-8374-d456c263c298",
      "RelComponentID": null,
      "width": 5.3098,
      "height": 4.4958,
      "koWidth": 5.3098,
      "koHeight": 4.4958,
      "originX": 0.0,
      "originY": 0.5,
      "x": 6.3521,
      "y": 2.1451,
      "rotation": 1,
      "layer": 0,
      "constraints": null,
      "multiLayer": null,
      "doNotPlace": null
    },
    {
      "name": "Q62",
      "package": "TO-92",
      "pkg_idx": 9,
      "ComponentID": "33f0c9c9-9f4e-48ce-a0c8-c3d5c799b61c",
      "RelComponentID": null,
      "width": 5.3098,
      "height": 4.4958,
      "koWidth": 5.3098,
      "koHeight": 4.4958,
      "originX": 0.0,
      "originY": 0.5,
      "x": 10.8521,
      "y": 7.8451,
      "rotation": 1,
      "layer": 0,
      "constraints": null,
      "multiLayer": null,
      "doNotPlace": null
    },
    {
      "name": "R601",
      "package": "R_0603",
      "pkg_idx": 10,
      "ComponentID": "61049e85-b63d-49c9-97ca-45eb3b5d93ef",
      "RelComponentID": null,
      "width": 2.4,
      "height": 0.8,
      "koWidth": 2.4,
      "koHeight": 0.8,
      "originX": 0.0,
      "originY": 0.0,
      "x": 0.4,
      "y": 12.9,
      "rotation": 3,
      "layer": 0,
      "constraints": null,
      "multiLayer": null,
      "doNotPlace": null
    },
    {
      "name": "R602",
      "package": "R_0603",
      "pkg_idx": 11,
      "ComponentID": "add544eb-2437-4631-94ae-089f1ddea124",
      "RelComponentID": null,
      "width": 2.4,
      "height": 0.8,
      "koWidth": 2.4,
      "koHeight": 0.8,
      "originX": 0.0,
      "originY": 0.0,
      "x": 4.9,
      "y": 11.3,
      "rotation": 1,
      "layer": 0,
      "constraints": null,
      "multiLayer": null,
      "doNotPlace": null
    },
    {
      "name": "R603",
      "package": "R_0603",
      "pkg_idx": 12,
      "ComponentID": "a2152afc-a318-48ff-a16a-b6b1f4d9b513",
      "RelComponentID": null,
      "width": 2.4,
      "height": 0.8,
      "koWidth": 2.4,
      "koHeight": 0.8,
      "originX": 0.0,
      "originY": 0.0,
      "x": 6.3,
      "y": 14.6,
      "rotation": 0,
      "layer": 0,
      "constraints": null,
      "multiLayer": null,
      "doNotPlace": null
    },
    {
      "name": "R604",
      "package": "R_0603",
      "pkg_idx": 13,
      "ComponentID": "2522e569-c925-42b4-bd4f-360b5956a392",
      "RelComponentID": null,
      "width": 2.4,
      "height": 0.8,
      "koWidth": 2.4,
      "koHeight": 0.8,
      "originX": 0.0,
      "originY": 0.0,
      "x": 10.6,
      "y": 13.8,
      "rotation": 1,
      "layer": 0,
      "constraints": null,
      "multiLayer": null,
      "doNotPlace": null
    },
    {
      "name": "R605",
      "package": "R_0603",
      "pkg_idx": 14,
      "ComponentID": "5e1056a7-dd73-4c46-9ba2-b49e7afe7054",
      "RelComponentID": null,
      "width": 2.4,
      "height": 0.8,
      "koWidth": 2.4,
      "koHeight": 0.8,
      "originX": 0.0,
      "originY": 0.0,
      "x": 12.6,
      "y": 13.8,
      "rotation": 3,
      "layer": 0,
      "constraints": null,
      "multiLayer": null,
      "doNotPlace": null
    },
    {
      "name": "R606",
      "package": "R_0603",
      "pkg_idx": 15,
      "ComponentID": "bb00bb4a-a9f7-4be7-859d-a7ce387b9dc6",
      "RelComponentID": null,
      "width": 2.4,
      "height": 0.8,
      "koWidth": 2.4,
      "koHeight": 0.8,
      "originX": 0.0,
      "originY": 0.0,
      "x": 6.3,
      "y": 9.0,
      "rotation": 2,
      "layer": 0,
      "constraints": null,
      "multiLayer": null,
      "doNotPlace": null
    },
    {
      "name": "R607",
      "package": "R_0603",
      "pkg_idx": 16,
      "ComponentID": "731c98d0-af6c-49ec-993b-95fc3c1fc3a1",
      "RelComponentID": null,
      "width": 2.4,
      "height": 0.8,
      "koWidth": 2.4,
      "koHeight": 0.8,
      "originX": 0.0,
      "originY": 0.0,
      "x": 11.5,
      "y": 0.3,
      "rotation": 0,
      "layer": 0,
      "constraints": null,
      "multiLayer": null,
      "doNotPlace": null
    },
    {
      "name": "R608",
      "package": "R_0603",
      "pkg_idx": 17,
      "ComponentID": "2cfad10a-a7ab-4f8e-8a7c-2f43f0a645fa",
      "RelComponentID": null,
      "width": 2.4,
      "height": 0.8,
      "koWidth": 2.4,
      "koHeight": 0.8,
      "originX": 0.0,
      "originY": 0.0,
      "x": 12.2,
      "y": 5.9,
      "rotation": 0,
      "layer": 0,
      "constraints": null,
      "multiLayer": null,
      "doNotPlace": null
    },
    {
      "name": "R609",
      "package": "R_0603",
      "pkg_idx": 18,
      "ComponentID": "ab9f7dcc-3be6-447a-a5ec-a9c7c7cb0266",
      "RelComponentID": null,
      "width": 2.4,
      "height": 0.8,
      "koWidth": 2.4,
      "koHeight": 0.8,
      "originX": 0.0,
      "originY": 0.0,
      "x": 16.7,
      "y": 0.9,
      "rotation": 1,
      "layer": 0,
      "constraints": null,
      "multiLayer": null,
      "doNotPlace": null
    },
    {
      "name": "R610",
      "package": "R_0603",
      "pkg_idx": 19,
      "ComponentID": "e8df8c29-b750-49e0-ac5f-05951fea4ae4",
      "RelComponentID": null,
      "width": 2.4,
      "height": 0.8,
      "koWidth": 2.4,
      "koHeight": 0.8,
      "originX": 0.0,
      "originY": 0.0,
      "x": 15.3,
      "y": 17.3,
      "rotation": 2,
      "layer": 0,
      "constraints": null,
      "multiLayer": null,
      "doNotPlace": null
    }
  ],
  "signals": [
    {
      "name": "N$0",
      "length": 2.5641486125116715,
      "bends": 2,
      "RelComponentID": null,
      "pins": [
        {
          "name": "+",
          "gate": "G$1",
          "pad": "P$1",
          "package": "C601"
        },
        {
          "name": "1",
          "gate": "G$1",
          "pad": "P$1",
          "package": "R601"
        }
      ],
      "wires": [
        {
          "x1": 3.2004,
          "y1": 14.9352,
          "x2": 0.9144,
          "y2": 14.9352,
          "width": 0.1524,
          "layer": 1,
          "curve": 0.0
        },
        {
          "x1": 0.9144,
          "y1": 14.9352,
          "x2": 0.8,
          "y2": 14.9,
          "width": 0.1524,
          "layer": 1,
          "curve": 0.0
        },
        {
          "x1": 3.2004,
          "y1": 14.9352,
          "x2": 3.345,
          "y2": 15.0,
          "width": 0.1524,
          "layer": 1,
          "curve": 0.0
        }
      ],
      "vias": [],
      "polygons": []
    },
    {
      "name": "N$1",
      "length": 3.250569366919712,
      "bends": 5,
      "RelComponentID": null,
      "pins": [
        {
          "name": "-",
          "gate": "G$1",
          "pad": "P$2",
          "package": "C601"
        },
        {
          "name": "1",
          "gate": "G$1",
          "pad": "P$1",
          "package": "R603"
        },
        {
          "name": "2",
          "gate": "G$1",
          "pad": "P$2",
          "package": "R602"
        }
      ],
      "wires": [
        {
          "x1": 5.334,
          "y1": 14.9352,
          "x2": 5.334,
          "y2": 13.4112,
          "width": 0.1524,
          "layer": 1,
          "curve": 0.0
        },
        {
          "x1": 5.334,
          "y1": 13.4112,
          "x2": 5.3,
          "y2": 13.3,
          "width": 0.1524,
          "layer": 1,
          "curve": 0.0
        },
        {
          "x1": 5.334,
          "y1": 14.9352,
          "x2": 5.255,
          "y2": 15.0,
          "width": 0.1524,
          "layer": 1,
          "curve": 0.0
        },
        {
          "x1": 5.334,
          "y1": 15.0876,
          "x2": 6.5532,
          "y2": 15.0876,
          "width": 0.1524,
          "layer": 1,
          "curve": 0.0
        },
        {
          "x1": 6.5532,
          "y1": 15.0876,
          "x2": 6.7,
          "y2": 15.0,
          "width": 0.1524,
          "layer": 1,
          "curve": 0.0
        },
        {
          "x1": 5.334,
          "y1": 15.0876,
          "x2": 5.255,
          "y2": 15.0,
          "width": 0.1524,
          "layer": 1,
          "curve": 0.0
        }
      ],
      "vias": [],
      "polygons": []
    },
    {
      "name": "N$2",
      "length": 10.74900500019586,
      "bends": 8,
      "RelComponentID": null,
      "pins": [
        {
          "name": "P$1",
          "gate": "G$1",
          "pad": "1",
          "package": "C602"
        },
        {
          "name": "B",
          "gate": "G$1",
          "pad": "2",
          "package": "Q61"
        },
        {
          "name": "2",
          "gate": "G$1",
          "pad": "P$2",
          "package": "R603"
        }
      ],
      "wires": [
        {
          "x1": 8.382,
          "y1": 13.5636,
          "x2": 8.382,
          "y2": 14.9352,
          "width": 0.1524,
          "layer": 1,
          "curve": 0.0
        },
        {
          "x1": 8.382,
          "y1": 14.9352,
          "x2": 8.3,
          "y2": 15.0,
          "width": 0.1524,
          "layer": 1,
          "curve": 0.0
        },
        {
          "x1": 8.382,
          "y1": 13.5636,
          "x2": 8.3,
          "y2": 13.5,
          "width": 0.1524,
          "layer": 1,
          "curve": 0.0
        },
        {
          "x1": 8.2296,
          "y1": 13.1064,
          "x2": 8.2296,
          "y2": 13.4112,
          "width": 0.1524,
          "layer": 1,
          "curve": 0.0
        },
        {
          "x1": 7.4676,
          "y1": 12.3444,
          "x2": 8.2296,
          "y2": 13.1064,
          "width": 0.1524,
          "layer": 1,
          "curve": 0.0
        },
        {
          "x1": 7.4676,
          "y1": 5.0292,
          "x2": 7.4676,
          "y2": 12.3444,
          "width": 0.1524,
          "layer": 1,
          "curve": 0.0
        },
        {
          "x1": 7.3152,
          "y1": 4.8768,
          "x2": 7.4676,
          "y2": 5.0292,
          "width": 0.1524,
          "layer": 1,
          "curve": 0.0
        },
        {
          "x1": 8.2296,
          "y1": 13.4112,
          "x2": 8.3,
          "y2": 13.5,
          "width": 0.1524,
          "layer": 1,
          "curve": 0.0
        },
        {
          "x1": 7.3152,
          "y1": 4.8768,
          "x2": 7.195,
          "y2": 4.8,
          "width": 0.1524,
          "layer": 1,
          "curve": 0.0
        }
      ],
      "vias": [],
      "polygons": []
    },
    {
      "name": "N$3",
      "length": 13.597221281025629,
      "bends": 12,
      "RelComponentID": null,
      "pins": [
        {
          "name": "P$2",
          "gate": "G$1",
          "pad": "2",
          "package": "C602"
        },
        {
          "name": "1",
          "gate": "G$1",
          "pad": "P$1",
          "package": "R606"
        },
        {
          "name": "1",
          "gate": "G$1",
          "pad": "P$1",
          "package": "R607"
        },
        {
          "name": "E",
          "gate": "G$1",
          "pad": "1",
          "package": "Q61"
        }
      ],
      "wires": [
        {
          "x1": 8.382,
          "y1": 11.5824,
          "x2": 8.382,
          "y2": 9.4488,
          "width": 0.1524,
          "layer": 1,
          "curve": 0.0
        },
        {
          "x1": 8.382,
          "y1": 9.4488,
          "x2": 8.3,
          "y2": 9.4,
          "width": 0.1524,
          "layer": 1,
          "curve": 0.0
        },
        {
          "x1": 8.382,
          "y1": 11.5824,
          "x2": 8.3,
          "y2": 11.7,
          "width": 0.1524,
          "layer": 1,
          "curve": 0.0
        },
        {
          "x1": 9.144,
          "y1": 3.5052,
          "x2": 11.8872,
          "y2": 0.762,
          "width": 0.1524,
          "layer": 1,
          "curve": 0.0
        },
        {
          "x1": 11.8872,
          "y1": 0.762,
          "x2": 11.9,
          "y2": 0.7,
          "width": 0.1524,
          "layer": 1,
          "curve": 0.0
        },
        {
          "x1": 9.144,
          "y1": 3.5052,
          "x2": 9.1,
          "y2": 3.53,
          "width": 0.1524,
          "layer": 1,
          "curve": 0.0
        },
        {
          "x1": 8.382,
          "y1": 8.5344,
          "x2": 8.382,
          "y2": 9.2964,
          "width": 0.1524,
          "layer": 1,
          "curve": 0.0
        },
        {
          "x1": 10.3632,
          "y1": 6.5532,
          "x2": 8.382,
          "y2": 8.5344,
          "width": 0.1524,
          "layer": 16,
          "curve": 0.0
        },
        {
          "x1": 10.3632,
          "y1": 4.8768,
          "x2": 10.3632,
          "y2": 6.5532,
          "width": 0.1524,
          "layer": 16,
          "curve": 0.0
        },
        {
          "x1": 9.144,
          "y1": 3.6576,
          "x2": 10.3632,
          "y2": 4.8768,
          "width": 0.1524,
          "layer": 16,
          "curve": 0.0
        },
        {
          "x1": 8.382,
          "y1": 9.2964,
          "x2": 8.3,
          "y2": 9.4,
          "width": 0.1524,
          "layer": 1,
          "curve": 0.0
        },
        {
          "x1": 9.144,
          "y1": 3.6576,
          "x2": 9.1,
          "y2": 3.53,
          "width": 0.1524,
          "layer": 16,
          "curve": 0.0
        }
      ],
      "vias": [
        {
          "x": 8.382,
          "y": 8.5344,
          "drill": 0.3048,
          "layerBegin": 1,
          "layerEnd": 16
        }
      ],
      "polygons": []
    },
    {
      "name": "N$4",
      "length": 14.641879934915229,
      "bends": 11,
      "RelComponentID": null,
      "pins": [
        {
          "name": "P$1",
          "gate": "G$1",
          "pad": "1",
          "package": "C603"
        },
        {
          "name": "B",
          "gate": "G$1",
          "pad": "2",
          "package": "Q62"
        },
        {
          "name": "1",
          "gate": "G$1",
          "pad": "P$1",
          "package": "R604"
        },
        {
          "name": "C",
          "gate": "G$1",
          "pad": "3",
          "package": "Q61"
        }
      ],
      "wires": [
        {
          "x1": 11.1252,
          "y1": 10.9728,
          "x2": 11.1252,
          "y2": 14.1732,
          "width": 0.1524,
          "layer": 1,
          "curve": 0.0
        },
        {
          "x1": 11.5824,
          "y1": 10.5156,
          "x2": 11.1252,
          "y2": 10.9728,
          "width": 0.1524,
          "layer": 1,
          "curve": 0.0
        },
        {
          "x1": 11.1252,
          "y1": 14.1732,
          "x2": 11.0,
          "y2": 14.2,
          "width": 0.1524,
          "layer": 1,
          "curve": 0.0
        },
        {
          "x1": 11.5824,
          "y1": 10.5156,
          "x2": 11.695,
          "y2": 10.5,
          "width": 0.1524,
          "layer": 1,
          "curve": 0.0
        },
        {
          "x1": 11.43,
          "y1": 3.6576,
          "x2": 12.954,
          "y2": 3.6576,
          "width": 0.1524,
          "layer": 1,
          "curve": 0.0
        },
        {
          "x1": 9.144,
          "y1": 5.9436,
          "x2": 11.43,
          "y2": 3.6576,
          "width": 0.1524,
          "layer": 1,
          "curve": 0.0
        },
        {
          "x1": 12.954,
          "y1": 3.6576,
          "x2": 13.1,
          "y2": 3.6,
          "width": 0.1524,
          "layer": 1,
          "curve": 0.0
        },
        {
          "x1": 9.144,
          "y1": 5.9436,
          "x2": 9.1,
          "y2": 6.07,
          "width": 0.1524,
          "layer": 1,
          "curve": 0.0
        },
        {
          "x1": 11.5824,
          "y1": 8.5344,
          "x2": 11.5824,
          "y2": 10.3632,
          "width": 0.1524,
          "layer": 1,
          "curve": 0.0
        },
        {
          "x1": 9.144,
          "y1": 6.096,
          "x2": 11.5824,
          "y2": 8.5344,
          "width": 0.1524,
          "layer": 1,
          "curve": 0.0
        },
        {
          "x1": 11.5824,
          "y1": 10.3632,
          "x2": 11.695,
          "y2": 10.5,
          "width": 0.1524,
          "layer": 1,
          "curve": 0.0
        },
        {
          "x1": 9.144,
          "y1": 6.096,
          "x2": 9.1,
          "y2": 6.07,
          "width": 0.1524,
          "layer": 1,
          "curve": 0.0
        }
      ],
      "vias": [],
      "polygons": []
    },
    {
      "name": "N$5",
      "length": 14.057260639007241,
      "bends": 14,
      "RelComponentID": null,
      "pins": [
        {
          "name": "P$2",
          "gate": "G$1",
          "pad": "2",
          "package": "C603"
        },
        {
          "name": "C",
          "gate": "G$1",
          "pad": "3",
          "package": "Q62"
        },
        {
          "name": "1",
          "gate": "G$1",
          "pad": "P$1",
          "package": "R608"
        },
        {
          "name": "2",
          "gate": "G$1",
          "pad": "P$2",
          "package": "R607"
        }
      ],
      "wires": [
        {
          "x1": 12.6492,
          "y1": 5.7912,
          "x2": 12.6492,
          "y2": 6.2484,
          "width": 0.1524,
          "layer": 1,
          "curve": 0.0
        },
        {
          "x1": 14.7828,
          "y1": 3.6576,
          "x2": 12.6492,
          "y2": 5.7912,
          "width": 0.1524,
          "layer": 1,
          "curve": 0.0
        },
        {
          "x1": 12.6492,
          "y1": 6.2484,
          "x2": 12.6,
          "y2": 6.3,
          "width": 0.1524,
          "layer": 1,
          "curve": 0.0
        },
        {
          "x1": 14.7828,
          "y1": 3.6576,
          "x2": 14.9,
          "y2": 3.6,
          "width": 0.1524,
          "layer": 1,
          "curve": 0.0
        },
        {
          "x1": 13.5636,
          "y1": 2.286,
          "x2": 13.5636,
          "y2": 0.762,
          "width": 0.1524,
          "layer": 1,
          "curve": 0.0
        },
        {
          "x1": 14.7828,
          "y1": 3.5052,
          "x2": 13.5636,
          "y2": 2.286,
          "width": 0.1524,
          "layer": 1,
          "curve": 0.0
        },
        {
          "x1": 13.5636,
          "y1": 0.762,
          "x2": 13.5,
          "y2": 0.7,
          "width": 0.1524,
          "layer": 1,
          "curve": 0.0
        },
        {
          "x1": 14.7828,
          "y1": 3.5052,
          "x2": 14.9,
          "y2": 3.6,
          "width": 0.1524,
          "layer": 1,
          "curve": 0.0
        },
        {
          "x1": 14.0208,
          "y1": 7.7724,
          "x2": 12.6492,
          "y2": 6.4008,
          "width": 0.1524,
          "layer": 1,
          "curve": 0.0
        },
        {
          "x1": 14.7828,
          "y1": 8.5344,
          "x2": 14.0208,
          "y2": 7.7724,
          "width": 0.1524,
          "layer": 16,
          "curve": 0.0
        },
        {
          "x1": 14.7828,
          "y1": 10.668,
          "x2": 14.7828,
          "y2": 8.5344,
          "width": 0.1524,
          "layer": 16,
          "curve": 0.0
        },
        {
          "x1": 13.716,
          "y1": 11.7348,
          "x2": 14.7828,
          "y2": 10.668,
          "width": 0.1524,
          "layer": 16,
          "curve": 0.0
        },
        {
          "x1": 12.6492,
          "y1": 6.4008,
          "x2": 12.6,
          "y2": 6.3,
          "width": 0.1524,
          "layer": 1,
          "curve": 0.0
        },
        {
          "x1": 13.716,
          "y1": 11.7348,
          "x2": 13.6,
          "y2": 11.77,
          "width": 0.1524,
          "layer": 16,
          "curve": 0.0
        }
      ],
      "vias": [
        {
          "x": 14.0208,
          "y": 7.7724,
          "drill": 0.3048,
          "layerBegin": 1,
          "layerEnd": 16
        }
      ],
      "polygons": []
    },
    {
      "name": "N$6",
      "length": 30.667878850837688,
      "bends": 23,
      "RelComponentID": null,
      "pins": [
        {
          "name": "P$2",
          "gate": "G$1",
          "pad": "2",
          "package": "C604"
        },
        {
          "name": "+",
          "gate": "G$1",
          "pad": "P$1",
          "package": "C608"
        },
        {
          "name": "1",
          "gate": "G$1",
          "pad": "P$1",
          "package": "R602"
        },
        {
          "name": "2",
          "gate": "G$1",
          "pad": "P$2",
          "package": "R601"
        },
        {
          "name": "-",
          "gate": "G$1",
          "pad": "P$2",
          "package": "C606"
        },
        {
          "name": "P$1",
          "gate": "G$1",
          "pad": "1",
          "package": "C605"
        }
      ],
      "wires": [
        {
          "x1": 19.5072,
          "y1": 7.4676,
          "x2": 16.3068,
          "y2": 7.4676,
          "width": 0.1524,
          "layer": 1,
          "curve": 0.0
        },
        {
          "x1": 16.3068,
          "y1": 7.4676,
          "x2": 16.3,
          "y2": 7.5,
          "width": 0.1524,
          "layer": 1,
          "curve": 0.0
        },
        {
          "x1": 19.5072,
          "y1": 7.4676,
          "x2": 19.6,
          "y2": 7.54,
          "width": 0.1524,
          "layer": 1,
          "curve": 0.0
        },
        {
          "x1": 3.6576,
          "y1": 13.2588,
          "x2": 0.9144,
          "y2": 13.2588,
          "width": 0.1524,
          "layer": 1,
          "curve": 0.0
        },
        {
          "x1": 5.1816,
          "y1": 11.7348,
          "x2": 5.0292,
          "y2": 11.8872,
          "width": 0.1524,
          "layer": 1,
          "curve": 0.0
        },
        {
          "x1": 5.0292,
          "y1": 11.8872,
          "x2": 3.6576,
          "y2": 13.2588,
          "width": 0.1524,
          "layer": 1,
          "curve": 0.0
        },
        {
          "x1": 0.9144,
          "y1": 13.2588,
          "x2": 0.8,
          "y2": 13.3,
          "width": 0.1524,
          "layer": 1,
          "curve": 0.0
        },
        {
          "x1": 5.1816,
          "y1": 11.7348,
          "x2": 5.3,
          "y2": 11.7,
          "width": 0.1524,
          "layer": 1,
          "curve": 0.0
        },
        {
          "x1": 16.6116,
          "y1": 13.2588,
          "x2": 16.3068,
          "y2": 13.2588,
          "width": 0.1524,
          "layer": 1,
          "curve": 0.0
        },
        {
          "x1": 19.5072,
          "y1": 10.3632,
          "x2": 16.6116,
          "y2": 13.2588,
          "width": 0.1524,
          "layer": 1,
          "curve": 0.0
        },
        {
          "x1": 16.3068,
          "y1": 13.2588,
          "x2": 16.3,
          "y2": 13.3,
          "width": 0.1524,
          "layer": 1,
          "curve": 0.0
        },
        {
          "x1": 19.5072,
          "y1": 10.3632,
          "x2": 19.6,
          "y2": 10.36,
          "width": 0.1524,
          "layer": 1,
          "curve": 0.0
        },
        {
          "x1": 7.62,
          "y1": 14.478,
          "x2": 5.0292,
          "y2": 11.8872,
          "width": 0.1524,
          "layer": 1,
          "curve": 0.0
        },
        {
          "x1": 7.62,
          "y1": 15.5448,
          "x2": 7.62,
          "y2": 14.478,
          "width": 0.1524,
          "layer": 1,
          "curve": 0.0
        },
        {
          "x1": 7.7724,
          "y1": 15.6972,
          "x2": 7.62,
          "y2": 15.5448,
          "width": 0.1524,
          "layer": 1,
          "curve": 0.0
        },
        {
          "x1": 9.906,
          "y1": 15.6972,
          "x2": 7.7724,
          "y2": 15.6972,
          "width": 0.1524,
          "layer": 1,
          "curve": 0.0
        },
        {
          "x1": 10.668,
          "y1": 14.9352,
          "x2": 9.906,
          "y2": 15.6972,
          "width": 0.1524,
          "layer": 1,
          "curve": 0.0
        },
        {
          "x1": 14.6304,
          "y1": 14.9352,
          "x2": 10.668,
          "y2": 14.9352,
          "width": 0.1524,
          "layer": 1,
          "curve": 0.0
        },
        {
          "x1": 16.1544,
          "y1": 13.4112,
          "x2": 14.6304,
          "y2": 14.9352,
          "width": 0.1524,
          "layer": 1,
          "curve": 0.0
        },
        {
          "x1": 5.0292,
          "y1": 11.8872,
          "x2": 5.3,
          "y2": 11.7,
          "width": 0.1524,
          "layer": 1,
          "curve": 0.0
        },
        {
          "x1": 16.1544,
          "y1": 13.4112,
          "x2": 16.3,
          "y2": 13.3,
          "width": 0.1524,
          "layer": 1,
          "curve": 0.0
        },
        {
          "x1": 19.6596,
          "y1": 10.2108,
          "x2": 19.6596,
          "y2": 7.62,
          "width": 0.1524,
          "layer": 1,
          "curve": 0.0
        },
        {
          "x1": 19.6596,
          "y1": 7.62,
          "x2": 19.6,
          "y2": 7.54,
          "width": 0.1524,
          "layer": 1,
          "curve": 0.0
        },
        {
          "x1": 19.6596,
          "y1": 10.2108,
          "x2": 19.6,
          "y2": 10.36,
          "width": 0.1524,
          "layer": 1,
          "curve": 0.0
        }
      ],
      "vias": [],
      "polygons": []
    },
    {
      "name": "N$7",
      "length": 11.335944932976251,
      "bends": 13,
      "RelComponentID": null,
      "pins": [
        {
          "name": "P$1",
          "gate": "G$1",
          "pad": "1",
          "package": "C604"
        },
        {
          "name": "+",
          "gate": "G$1",
          "pad": "P$1",
          "package": "C606"
        },
        {
          "name": "1",
          "gate": "G$1",
          "pad": "P$1",
          "package": "R610"
        },
        {
          "name": "2",
          "gate": "G$1",
          "pad": "P$2",
          "package": "R604"
        },
        {
          "name": "1",
          "gate": "G$1",
          "pad": "P$1",
          "package": "R605"
        }
      ],
      "wires": [
        {
          "x1": 12.954,
          "y1": 15.8496,
          "x2": 11.1252,
          "y2": 15.8496,
          "width": 0.1524,
          "layer": 1,
          "curve": 0.0
        },
        {
          "x1": 11.1252,
          "y1": 15.8496,
          "x2": 11.0,
          "y2": 15.8,
          "width": 0.1524,
          "layer": 1,
          "curve": 0.0
        },
        {
          "x1": 12.954,
          "y1": 15.8496,
          "x2": 13.0,
          "y2": 15.8,
          "width": 0.1524,
          "layer": 1,
          "curve": 0.0
        },
        {
          "x1": 17.2212,
          "y1": 16.1544,
          "x2": 17.2212,
          "y2": 17.6784,
          "width": 0.1524,
          "layer": 1,
          "curve": 0.0
        },
        {
          "x1": 16.3068,
          "y1": 15.24,
          "x2": 17.2212,
          "y2": 16.1544,
          "width": 0.1524,
          "layer": 1,
          "curve": 0.0
        },
        {
          "x1": 17.2212,
          "y1": 17.6784,
          "x2": 17.3,
          "y2": 17.7,
          "width": 0.1524,
          "layer": 1,
          "curve": 0.0
        },
        {
          "x1": 16.3068,
          "y1": 15.24,
          "x2": 16.3,
          "y2": 15.1,
          "width": 0.1524,
          "layer": 1,
          "curve": 0.0
        },
        {
          "x1": 15.6972,
          "y1": 15.6972,
          "x2": 13.1064,
          "y2": 15.6972,
          "width": 0.1524,
          "layer": 1,
          "curve": 0.0
        },
        {
          "x1": 16.1544,
          "y1": 15.24,
          "x2": 15.6972,
          "y2": 15.6972,
          "width": 0.1524,
          "layer": 1,
          "curve": 0.0
        },
        {
          "x1": 13.1064,
          "y1": 15.6972,
          "x2": 13.0,
          "y2": 15.8,
          "width": 0.1524,
          "layer": 1,
          "curve": 0.0
        },
        {
          "x1": 16.1544,
          "y1": 15.24,
          "x2": 16.3,
          "y2": 15.1,
          "width": 0.1524,
          "layer": 1,
          "curve": 0.0
        },
        {
          "x1": 17.8308,
          "y1": 15.5448,
          "x2": 19.5072,
          "y2": 15.5448,
          "width": 0.1524,
          "layer": 1,
          "curve": 0.0
        },
        {
          "x1": 17.2212,
          "y1": 16.1544,
          "x2": 17.8308,
          "y2": 15.5448,
          "width": 0.1524,
          "layer": 1,
          "curve": 0.0
        },
        {
          "x1": 19.5072,
          "y1": 15.5448,
          "x2": 19.6,
          "y2": 15.44,
          "width": 0.1524,
          "layer": 1,
          "curve": 0.0
        }
      ],
      "vias": [],
      "polygons": []
    },
    {
      "name": "N$8",
      "length": 10.012212115038075,
      "bends": 11,
      "RelComponentID": null,
      "pins": [
        {
          "name": "P$2",
          "gate": "G$1",
          "pad": "2",
          "package": "C605"
        },
        {
          "name": "1",
          "gate": "G$1",
          "pad": "P$1",
          "package": "R609"
        },
        {
          "name": "-",
          "gate": "G$1",
          "pad": "P$2",
          "package": "C608"
        },
        {
          "name": "2",
          "gate": "G$1",
          "pad": "P$2",
          "package": "R608"
        }
      ],
      "wires": [
        {
          "x1": 15.6972,
          "y1": 6.2484,
          "x2": 14.3256,
          "y2": 6.2484,
          "width": 0.1524,
          "layer": 1,
          "curve": 0.0
        },
        {
          "x1": 16.1544,
          "y1": 5.7912,
          "x2": 15.6972,
          "y2": 6.2484,
          "width": 0.1524,
          "layer": 1,
          "curve": 0.0
        },
        {
          "x1": 14.3256,
          "y1": 6.2484,
          "x2": 14.2,
          "y2": 6.3,
          "width": 0.1524,
          "layer": 1,
          "curve": 0.0
        },
        {
          "x1": 16.1544,
          "y1": 5.7912,
          "x2": 16.3,
          "y2": 5.7,
          "width": 0.1524,
          "layer": 1,
          "curve": 0.0
        },
        {
          "x1": 18.4404,
          "y1": 1.3716,
          "x2": 17.2212,
          "y2": 1.3716,
          "width": 0.1524,
          "layer": 1,
          "curve": 0.0
        },
        {
          "x1": 19.5072,
          "y1": 2.4384,
          "x2": 18.4404,
          "y2": 1.3716,
          "width": 0.1524,
          "layer": 1,
          "curve": 0.0
        },
        {
          "x1": 17.2212,
          "y1": 1.3716,
          "x2": 17.1,
          "y2": 1.3,
          "width": 0.1524,
          "layer": 1,
          "curve": 0.0
        },
        {
          "x1": 19.5072,
          "y1": 2.4384,
          "x2": 19.6,
          "y2": 2.46,
          "width": 0.1524,
          "layer": 1,
          "curve": 0.0
        },
        {
          "x1": 16.3068,
          "y1": 2.1336,
          "x2": 16.3068,
          "y2": 5.6388,
          "width": 0.1524,
          "layer": 1,
          "curve": 0.0
        },
        {
          "x1": 17.0688,
          "y1": 1.3716,
          "x2": 16.3068,
          "y2": 2.1336,
          "width": 0.1524,
          "layer": 1,
          "curve": 0.0
        },
        {
          "x1": 16.3068,
          "y1": 5.6388,
          "x2": 16.3,
          "y2": 5.7,
          "width": 0.1524,
          "layer": 1,
          "curve": 0.0
        },
        {
          "x1": 17.0688,
          "y1": 1.3716,
          "x2": 17.1,
          "y2": 1.3,
          "width": 0.1524,
          "layer": 1,
          "curve": 0.0
        }
      ],
      "vias": [],
      "polygons": []
    },
    {
      "name": "N$9",
      "length": 2.5084724160765872,
      "bends": 2,
      "RelComponentID": null,
      "pins": [
        {
          "name": "-",
          "gate": "G$1",
          "pad": "P$2",
          "package": "C607"
        },
        {
          "name": "2",
          "gate": "G$1",
          "pad": "P$2",
          "package": "R606"
        }
      ],
      "wires": [
        {
          "x1": 4.2672,
          "y1": 9.4488,
          "x2": 6.5532,
          "y2": 9.4488,
          "width": 0.1524,
          "layer": 1,
          "curve": 0.0
        },
        {
          "x1": 6.5532,
          "y1": 9.4488,
          "x2": 6.7,
          "y2": 9.4,
          "width": 0.1524,
          "layer": 1,
          "curve": 0.0
        },
        {
          "x1": 4.2672,
          "y1": 9.4488,
          "x2": 4.2,
          "y2": 9.44,
          "width": 0.1524,
          "layer": 1,
          "curve": 0.0
        }
      ],
      "vias": [],
      "polygons": []
    },
    {
      "name": "N$10",
      "length": 6.2564537994492042,
      "bends": 4,
      "RelComponentID": null,
      "pins": [
        {
          "name": "E",
          "gate": "G$1",
          "pad": "1",
          "package": "Q62"
        },
        {
          "name": "2",
          "gate": "G$1",
          "pad": "P$2",
          "package": "R605"
        }
      ],
      "wires": [
        {
          "x1": 14.7828,
          "y1": 12.4968,
          "x2": 13.1064,
          "y2": 14.1732,
          "width": 0.1524,
          "layer": 1,
          "curve": 0.0
        },
        {
          "x1": 14.7828,
          "y1": 10.3632,
          "x2": 14.7828,
          "y2": 12.4968,
          "width": 0.1524,
          "layer": 1,
          "curve": 0.0
        },
        {
          "x1": 13.716,
          "y1": 9.2964,
          "x2": 14.7828,
          "y2": 10.3632,
          "width": 0.1524,
          "layer": 1,
          "curve": 0.0
        },
        {
          "x1": 13.1064,
          "y1": 14.1732,
          "x2": 13.0,
          "y2": 14.2,
          "width": 0.1524,
          "layer": 1,
          "curve": 0.0
        },
        {
          "x1": 13.716,
          "y1": 9.2964,
          "x2": 13.6,
          "y2": 9.23,
          "width": 0.1524,
          "layer": 1,
          "curve": 0.0
        }
      ],
      "vias": [],
      "polygons": []
    }
  ],
  "constraints": null,
  "border": null
}