<?xml version="1.0" encoding="utf-8"?>
<!DOCTYPE eagle SYSTEM "eagle.dtd">
<eagle version="7.2.0">
<drawing>
<settings>
<setting alwaysvectorfont="no"/>
<setting verticaltext="up"/>
</settings>
<grid distance="1" unitdist="mm" unit="mm" style="lines" multiple="1" display="yes" altdistance="0.025" altunitdist="inch" altunit="inch"/>
<layers>
</layers>
<library>
<packages>
<package name="EVUFXL">
<wire x1="5.3" y1="1.05" x2="5.3" y2="-1.05" width="0" layer="46"/>
<wire x1="3.7" y1="-1.05" x2="3.7" y2="1.05" width="0" layer="46"/>
<wire x1="5.3" y1="1.05" x2="3.7" y2="1.05" width="0" layer="46"/>
<wire x1="5.3" y1="-1.05" x2="3.7" y2="-1.05" width="0" layer="46"/>
<wire x1="-3.7" y1="1.05" x2="-3.7" y2="-1.05" width="0" layer="46"/>
<wire x1="-5.3" y1="-1.05" x2="-5.3" y2="1.05" width="0" layer="46"/>
<wire x1="-3.7" y1="1.05" x2="-5.3" y2="1.05" width="0" layer="46"/>
<wire x1="-3.7" y1="-1.05" x2="-5.3" y2="-1.05" width="0" layer="46"/>
<wire x1="-4.1" y1="5.9" x2="4.1" y2="5.9" width="0.2032" layer="21"/>
<wire x1="4.75" y1="5.35" x2="4.75" y2="-5.85" width="0.2032" layer="51"/>
<wire x1="4.1" y1="-6.4" x2="-4.1" y2="-6.4" width="0.2032" layer="51"/>
<wire x1="-4.75" y1="-5.85" x2="-4.75" y2="5.35" width="0.2032" layer="51"/>
<wire x1="-4.85" y1="0.9" x2="-5.5" y2="0.9" width="0.2032" layer="51"/>
<wire x1="-5.5" y1="0.9" x2="-5.5" y2="-0.9" width="0.2032" layer="51"/>
<wire x1="-5.5" y1="-0.9" x2="-4.85" y2="-0.9" width="0.2032" layer="51"/>
<wire x1="4.85" y1="-0.9" x2="5.5" y2="-0.9" width="0.2032" layer="51"/>
<wire x1="5.5" y1="-0.9" x2="5.5" y2="0.9" width="0.2032" layer="51"/>
<wire x1="5.5" y1="0.9" x2="4.85" y2="0.9" width="0.2032" layer="51"/>
<wire x1="-4.1" y1="5.35" x2="-4.75" y2="5.35" width="0.2032" layer="21"/>
<wire x1="-4.1" y1="5.9" x2="-4.1" y2="5.35" width="0.2032" layer="21"/>
<wire x1="-4.1" y1="-5.85" x2="-4.1" y2="-6.4" width="0.2032" layer="21"/>
<wire x1="-4.75" y1="-5.85" x2="-4.1" y2="-5.85" width="0.2032" layer="21"/>
<wire x1="4.1" y1="-5.85" x2="4.75" y2="-5.85" width="0.2032" layer="21"/>
<wire x1="4.1" y1="-6.4" x2="4.1" y2="-5.85" width="0.2032" layer="21"/>
<wire x1="4.1" y1="5.35" x2="4.1" y2="5.9" width="0.2032" layer="21"/>
<wire x1="4.75" y1="5.35" x2="4.1" y2="5.35" width="0.2032" layer="21"/>
<wire x1="-4.75" y1="2.65" x2="-4.75" y2="5.35" width="0.2032" layer="21"/>
<wire x1="-4.75" y1="-5.85" x2="-4.75" y2="-2.15" width="0.2032" layer="21"/>
<wire x1="4.75" y1="5.35" x2="4.75" y2="2.65" width="0.2032" layer="21"/>
<wire x1="4.75" y1="-2.15" x2="4.75" y2="-5.85" width="0.2032" layer="21"/>
<wire x1="-3.9" y1="2.05" x2="-2.75" y2="3.425" width="0.2032" layer="21" curve="-25.698073"/>
<wire x1="2.05" y1="3.9" x2="3.9" y2="2.05" width="0.2032" layer="21" curve="-34.543485"/>
<wire x1="-1.7" y1="3.9" x2="2.05" y2="3.9" width="0.2032" layer="21"/>
<wire x1="-3.9" y1="2.05" x2="-3.9" y2="-2.05" width="0.2032" layer="21"/>
<wire x1="-2.75" y1="3.425" x2="-1.7" y2="3.9" width="0.2032" layer="21" curve="80.060519"/>
<wire x1="3.9" y1="-2.05" x2="2.75" y2="-3.425" width="0.2032" layer="21" curve="-25.698073"/>
<wire x1="-2.05" y1="-3.9" x2="-3.9" y2="-2.05" width="0.2032" layer="21" curve="-34.543485"/>
<wire x1="1.7" y1="-3.9" x2="-2.05" y2="-3.9" width="0.2032" layer="21"/>
<wire x1="3.9" y1="-2.05" x2="3.9" y2="2.05" width="0.2032" layer="21"/>
<wire x1="2.75" y1="-3.425" x2="1.7" y2="-3.9" width="0.2032" layer="21" curve="80.060519"/>
<circle x="-2.5" y="4.3" radius="0.65" width="0.1016" layer="21"/>
<circle x="0" y="0" radius="3.575" width="0.2032" layer="21"/>
<circle x="0" y="0" radius="2.8" width="0.2032" layer="21"/>
<circle x="2.5" y="-4.3" radius="0.65" width="0.1016" layer="21"/>
<pad name="1" x="-2.5" y="-7" drill="1.1" diameter="1.6764" rot="R270"/>
<pad name="2" x="0" y="-7" drill="1.1" diameter="1.6764" rot="R270"/>
<pad name="3" x="2.5" y="-7" drill="1.1" diameter="1.6764" rot="R270"/>
<pad name="M1" x="4.5" y="0" drill="2.2" shape="square" rot="R270"/>
<pad name="M2" x="-4.5" y="0" drill="2.2" shape="square" rot="R270"/>
<text x="-3" y="6.5" size="1.27" layer="25">&gt;NAME</text>
<text x="-4.5" y="-9.5" size="1.27" layer="27">&gt;VALUE</text>
<rectangle x1="-2.925" y1="-7.325" x2="-2.075" y2="-6.5" layer="51"/>
<rectangle x1="-0.425" y1="-7.325" x2="0.425" y2="-6.5" layer="51"/>
<rectangle x1="2.075" y1="-7.325" x2="2.925" y2="-6.5" layer="51"/>
</package>
</packages>
<symbols>
<symbol name="POT_US-">
<wire x1="0" y1="-5.08" x2="0" y2="-4.572" width="0.1524" layer="94"/>
<wire x1="0" y1="-4.572" x2="-1.016" y2="-3.81" width="0.254" layer="94"/>
<wire x1="-1.016" y1="-3.81" x2="1.27" y2="-2.54" width="0.254" layer="94"/>
<wire x1="1.27" y1="-2.54" x2="-1.016" y2="-1.27" width="0.254" layer="94"/>
<wire x1="-1.016" y1="-1.27" x2="1.27" y2="0" width="0.254" layer="94"/>
<wire x1="1.27" y1="0" x2="-1.016" y2="1.27" width="0.254" layer="94"/>
<wire x1="-1.016" y1="1.27" x2="1.27" y2="2.54" width="0.254" layer="94"/>
<wire x1="1.27" y1="2.54" x2="-1.016" y2="3.81" width="0.254" layer="94"/>
<wire x1="-1.016" y1="3.81" x2="0" y2="4.572" width="0.254" layer="94"/>
<wire x1="0" y1="4.572" x2="0" y2="5.08" width="0.1524" layer="94"/>
<wire x1="1.27" y1="0" x2="2.54" y2="1.27" width="0.2032" layer="94"/>
<wire x1="2.54" y1="-1.27" x2="1.27" y2="0" width="0.2032" layer="94"/>
<wire x1="2.54" y1="1.27" x2="2.54" y2="-1.27" width="0.2032" layer="94"/>
<wire x1="2.032" y1="-4.699" x2="2.032" y2="-2.159" width="0.1524" layer="94"/>
<wire x1="2.032" y1="-2.159" x2="2.667" y2="-3.429" width="0.1524" layer="94"/>
<wire x1="2.667" y1="-3.429" x2="1.397" y2="-3.429" width="0.1524" layer="94"/>
<wire x1="1.397" y1="-3.429" x2="2.032" y2="-2.159" width="0.1524" layer="94"/>
<text x="-5.08" y="-2.54" size="1.778" layer="95" rot="R90">&gt;NAME</text>
<text x="-2.54" y="-2.54" size="1.778" layer="96" rot="R90">&gt;VALUE</text>
<pin name="A" x="0" y="-7.62" visible="off" length="short" direction="pas" rot="R90"/>
<pin name="E" x="0" y="7.62" visible="off" length="short" direction="pas" rot="R270"/>
<pin name="S" x="5.08" y="0" visible="off" length="short" direction="pas" rot="R180"/>
</symbol>
</symbols>
<devicesets>
<deviceset name="EVU-F2LFL3D54">
<gates>
<gate name="G$1" symbol="POT_US-" x="0" y="0"/>
</gates>
<devices>
<device name="" package="EVUFXL">
<connects>
<connect gate="G$1" pin="A" pad="1"/>
<connect gate="G$1" pin="E" pad="3"/>
<connect gate="G$1" pin="S" pad="2"/>
</connects>
<technologies>
<technology name=""/>
</technologies>
</device>
</devices>
</deviceset>
</devicesets>
</library>
</drawing>
</eagle>
