<eagle version="6.5.0" xmlns="eagle">
  <drawing>
    <library>
      <packages>
        <package name="SOT363" xmlns="eagle">
          <circle x="-1.505" y="1.12" radius="0.1542" width="0" layer="21" />
          <text x="-1.45" y="1.35" size="1.106" layer="25" font="vector" ratio="15" distance="40">&gt;NAME</text>
          <smd name="P$1" x="-0.75" y="0.75" dx="0.5" dy="0.5" layer="1" />
          <smd name="P$2" x="-0.75" y="0" dx="0.5" dy="0.4" layer="1" />
          <smd name="P$3" x="-0.75" y="-0.75" dx="0.5" dy="0.5" layer="1" />
          <smd name="P$4" x="0.75" y="-0.75" dx="0.5" dy="0.5" layer="1" />
          <smd name="P$5" x="0.75" y="0" dx="0.5" dy="0.4" layer="1" />
          <smd name="P$6" x="0.75" y="0.75" dx="0.5" dy="0.5" layer="1" />
          <wire x1="-0.275" y1="1.175" x2="0.275" y2="1.175" width="0.127" layer="21" />
          <wire x1="-0.275" y1="-1.175" x2="0.275" y2="-1.175" width="0.127" layer="21" />
        </package>
      </packages>
      <symbols>
        <symbol name="DUALNPN">
          <wire x1="-13.97" y1="5.08" x2="-13.97" y2="2.54" width="0.254" layer="94" />
          <wire x1="-13.97" y1="2.54" x2="-13.97" y2="-2.54" width="0.254" layer="94" />
          <wire x1="-13.97" y1="-2.54" x2="-13.97" y2="-5.08" width="0.254" layer="94" />
          <wire x1="-13.97" y1="2.54" x2="-8.89" y2="7.62" width="0.254" layer="94" />
          <wire x1="-13.97" y1="-2.54" x2="-8.89" y2="-7.62" width="0.254" layer="94" />
          <text x="-10.16" y="15.24" size="1.778" layer="95">&gt;NAME</text>
          <text x="-10.16" y="12.7" size="1.778" layer="96">&gt;VALUE</text>
          <pin name="B1" x="19.05" y="0" length="middle" direction="pas" rot="R180" />
          <wire x1="13.97" y1="-5.08" x2="13.97" y2="-2.54" width="0.254" layer="94" />
          <wire x1="13.97" y1="-2.54" x2="13.97" y2="2.54" width="0.254" layer="94" />
          <wire x1="13.97" y1="2.54" x2="13.97" y2="5.08" width="0.254" layer="94" />
          <wire x1="13.97" y1="-2.54" x2="8.89" y2="-7.62" width="0.254" layer="94" />
          <wire x1="13.97" y1="2.54" x2="8.89" y2="7.62" width="0.254" layer="94" />
          <pin name="C1" x="3.81" y="-7.62" length="middle" direction="pas" />
          <pin name="E1" x="3.81" y="7.62" length="middle" direction="pas" />
          <wire x1="-8.89" y1="-7.62" x2="-8.89" y2="-6.35" width="0.254" layer="94" />
          <wire x1="-8.89" y1="-6.35" x2="-10.16" y2="-7.62" width="0.254" layer="94" />
          <wire x1="-10.16" y1="-7.62" x2="-8.89" y2="-7.62" width="0.254" layer="94" />
          <wire x1="8.89" y1="7.62" x2="8.89" y2="6.35" width="0.254" layer="94" />
          <wire x1="8.89" y1="6.35" x2="10.16" y2="7.62" width="0.254" layer="94" />
          <wire x1="10.16" y1="7.62" x2="8.89" y2="7.62" width="0.254" layer="94" />
          <pin name="E2" x="-3.81" y="-7.62" length="middle" direction="pas" rot="R180" />
          <pin name="C2" x="-3.81" y="7.62" length="middle" direction="pas" rot="R180" />
          <pin name="B2" x="-19.05" y="0" length="middle" direction="pas" />
        </symbol>
      </symbols>
      <devicesets>
        <deviceset name="PMP4201Y">
          <gates>
            <gate name="G$1" symbol="DUALNPN" x="0" y="0" />
          </gates>
          <devices>
            <device name="" package="SOT363" xmlns="eagle">
              <connects>
                <connect gate="G$1" pin="B1" pad="P$1" />
                <connect gate="G$1" pin="B2" pad="P$2" />
                <connect gate="G$1" pin="C1" pad="P$6" />
                <connect gate="G$1" pin="C2" pad="P$3" />
                <connect gate="G$1" pin="E1" pad="P$5" />
                <connect gate="G$1" pin="E2" pad="P$4" />
              </connects>
              <technologies>
                <technology name="" />
              </technologies>
            </device>
          </devices>
        </deviceset>
      </devicesets>
    </library>
  </drawing>
</eagle>