<eagle version="6.5.0" xmlns="eagle">
  <drawing>
    <library>
      <packages>
        <package name="14-SOIC" xmlns="eagle">
          <smd name="14" x="2.7" y="3.81" dx="0.67" dy="1.55" layer="1" rot="R270" />
          <smd name="13" x="2.7" y="2.54" dx="0.67" dy="1.55" layer="1" rot="R270" />
          <smd name="12" x="2.7" y="1.27" dx="0.67" dy="1.55" layer="1" rot="R270" />
          <smd name="11" x="2.7" y="0" dx="0.67" dy="1.55" layer="1" rot="R270" />
          <smd name="10" x="2.7" y="-1.27" dx="0.67" dy="1.55" layer="1" rot="R270" />
          <smd name="9" x="2.7" y="-2.54" dx="0.67" dy="1.55" layer="1" rot="R270" />
          <smd name="8" x="2.7" y="-3.81" dx="0.67" dy="1.55" layer="1" rot="R270" />
          <smd name="1" x="-2.7" y="3.81" dx="0.67" dy="1.55" layer="1" rot="R270" />
          <smd name="2" x="-2.7" y="2.54" dx="0.67" dy="1.55" layer="1" rot="R270" />
          <smd name="3" x="-2.7" y="1.27" dx="0.67" dy="1.55" layer="1" rot="R270" />
          <smd name="4" x="-2.7" y="0" dx="0.67" dy="1.55" layer="1" rot="R270" />
          <smd name="5" x="-2.7" y="-1.27" dx="0.67" dy="1.55" layer="1" rot="R270" />
          <smd name="6" x="-2.7" y="-2.54" dx="0.67" dy="1.55" layer="1" rot="R270" />
          <smd name="7" x="-2.7" y="-3.81" dx="0.67" dy="1.55" layer="1" rot="R270" />
          <circle x="-3.25" y="4.6" radius="0.1542" width="0" layer="21" />
          <wire x1="2" y1="4.375" x2="2" y2="-4.375" width="0.1542" layer="51" />
          <wire x1="2" y1="-4.375" x2="-2" y2="-4.375" width="0.1542" layer="51" />
          <wire x1="-2" y1="-4.375" x2="-2" y2="4.375" width="0.1542" layer="51" />
          <wire x1="2" y1="4.375" x2="-2" y2="4.375" width="0.1542" layer="51" />
          <text x="2.36" y="5.74" size="1.016" layer="25" font="vector" ratio="15" rot="R180">&gt;NAME</text>
        </package>
      </packages>
      <symbols>
        <symbol name="QUADCOMP">
          <text x="2.54" y="26.035" size="1.778" layer="95">&gt;NAME</text>
          <text x="2.54" y="22.86" size="1.778" layer="96">&gt;VALUE</text>
          <wire x1="-5.08" y1="22.86" x2="-5.08" y2="12.7" width="0.4064" layer="94" />
          <wire x1="-5.08" y1="12.7" x2="5.08" y2="17.78" width="0.4064" layer="94" />
          <wire x1="5.08" y1="17.78" x2="-5.08" y2="22.86" width="0.4064" layer="94" />
          <wire x1="-3.81" y1="20.955" x2="-3.81" y2="19.685" width="0.1524" layer="94" />
          <wire x1="-4.445" y1="20.32" x2="-3.175" y2="20.32" width="0.1524" layer="94" />
          <wire x1="-4.445" y1="15.24" x2="-3.175" y2="15.24" width="0.1524" layer="94" />
          <pin name="-IN1" x="-7.62" y="15.24" visible="pad" length="short" direction="pas" />
          <pin name="+IN1" x="-7.62" y="20.32" visible="pad" length="short" direction="pas" />
          <pin name="OUT1" x="7.62" y="17.78" visible="pad" length="short" direction="pas" rot="R180" />
          <wire x1="-5.08" y1="10.16" x2="-5.08" y2="0" width="0.4064" layer="94" />
          <wire x1="-5.08" y1="0" x2="5.08" y2="5.08" width="0.4064" layer="94" />
          <wire x1="5.08" y1="5.08" x2="-5.08" y2="10.16" width="0.4064" layer="94" />
          <wire x1="-3.81" y1="8.255" x2="-3.81" y2="6.985" width="0.1524" layer="94" />
          <wire x1="-4.445" y1="7.62" x2="-3.175" y2="7.62" width="0.1524" layer="94" />
          <wire x1="-4.445" y1="2.54" x2="-3.175" y2="2.54" width="0.1524" layer="94" />
          <pin name="-IN2" x="-7.62" y="2.54" visible="pad" length="short" direction="pas" />
          <pin name="+IN2" x="-7.62" y="7.62" visible="pad" length="short" direction="pas" />
          <pin name="OUT2" x="7.62" y="5.08" visible="pad" length="short" direction="pas" rot="R180" />
          <wire x1="-5.08" y1="-2.54" x2="-5.08" y2="-12.7" width="0.4064" layer="94" />
          <wire x1="-5.08" y1="-12.7" x2="5.08" y2="-7.62" width="0.4064" layer="94" />
          <wire x1="5.08" y1="-7.62" x2="-5.08" y2="-2.54" width="0.4064" layer="94" />
          <wire x1="-3.81" y1="-4.445" x2="-3.81" y2="-5.715" width="0.1524" layer="94" />
          <wire x1="-4.445" y1="-5.08" x2="-3.175" y2="-5.08" width="0.1524" layer="94" />
          <wire x1="-4.445" y1="-10.16" x2="-3.175" y2="-10.16" width="0.1524" layer="94" />
          <pin name="-IN3" x="-7.62" y="-10.16" visible="pad" length="short" direction="pas" />
          <pin name="+IN3" x="-7.62" y="-5.08" visible="pad" length="short" direction="pas" />
          <pin name="OUT3" x="7.62" y="-7.62" visible="pad" length="short" direction="pas" rot="R180" />
          <wire x1="-5.08" y1="-15.24" x2="-5.08" y2="-25.4" width="0.4064" layer="94" />
          <wire x1="-5.08" y1="-25.4" x2="5.08" y2="-20.32" width="0.4064" layer="94" />
          <wire x1="5.08" y1="-20.32" x2="-5.08" y2="-15.24" width="0.4064" layer="94" />
          <wire x1="-3.81" y1="-17.145" x2="-3.81" y2="-18.415" width="0.1524" layer="94" />
          <wire x1="-4.445" y1="-17.78" x2="-3.175" y2="-17.78" width="0.1524" layer="94" />
          <wire x1="-4.445" y1="-22.86" x2="-3.175" y2="-22.86" width="0.1524" layer="94" />
          <pin name="-IN4" x="-7.62" y="-22.86" visible="pad" length="short" direction="pas" />
          <pin name="+IN4" x="-7.62" y="-17.78" visible="pad" length="short" direction="pas" />
          <pin name="OUT4" x="7.62" y="-20.32" visible="pad" length="short" direction="pas" rot="R180" />
          <pin name="V+" x="0" y="30.48" length="middle" rot="R270" />
          <pin name="V-" x="0" y="-33.02" length="middle" rot="R90" />
        </symbol>
      </symbols>
      <devicesets>
        <deviceset name="LM139_COMPARATOR" prefix="U">
          <gates>
            <gate name="G$1" symbol="QUADCOMP" x="0" y="0" />
          </gates>
          <devices>
            <device name="" package="14-SOIC" xmlns="eagle">
              <connects>
                <connect gate="G$1" pin="+IN1" pad="7" />
                <connect gate="G$1" pin="+IN2" pad="5" />
                <connect gate="G$1" pin="+IN3" pad="9" />
                <connect gate="G$1" pin="+IN4" pad="11" />
                <connect gate="G$1" pin="-IN1" pad="6" />
                <connect gate="G$1" pin="-IN2" pad="4" />
                <connect gate="G$1" pin="-IN3" pad="8" />
                <connect gate="G$1" pin="-IN4" pad="10" />
                <connect gate="G$1" pin="OUT1" pad="1" />
                <connect gate="G$1" pin="OUT2" pad="2" />
                <connect gate="G$1" pin="OUT3" pad="14" />
                <connect gate="G$1" pin="OUT4" pad="13" />
                <connect gate="G$1" pin="V+" pad="3" />
                <connect gate="G$1" pin="V-" pad="12" />
              </connects>
              <technologies>
                <technology name="" />
              </technologies>
            </device>
          </devices>
        </deviceset>
      </devicesets>
    </library>
  </drawing>
</eagle>