<eagle version="6.5.0" xmlns="eagle">
  <drawing>
    <library>
      <packages>
        <package name="TO-92" xmlns="eagle">
          <description>&lt;b&gt;TO 92&lt;/b&gt;</description>
          <wire x1="-1.0403" y1="2.4215" x2="-2.0946" y2="-1.651" width="0.1524" layer="21" curve="111.098962" />
          <wire x1="2.0945" y1="-1.651" x2="1.0403" y2="2.421396875" width="0.1524" layer="21" curve="111.099507" />
          <wire x1="-2.0945" y1="-1.651" x2="2.0945" y2="-1.651" width="0.1524" layer="21" />
          <wire x1="-2.6549" y1="-0.254" x2="-2.3807" y2="-0.254" width="0.1524" layer="21" />
          <wire x1="-0.1593" y1="-0.254" x2="0.1593" y2="-0.254" width="0.1524" layer="21" />
          <wire x1="2.3807" y1="-0.254" x2="2.6549" y2="-0.254" width="0.1524" layer="21" />
          <pad name="1" x="-1.27" y="0" drill="0.8128" diameter="1.8796" />
          <pad name="2" x="0" y="1.905" drill="0.8128" diameter="1.8796" />
          <pad name="3" x="1.27" y="0" drill="0.8128" diameter="1.8796" />
          <text x="-2.159" y="-2.794" size="1.016" layer="25" font="vector" ratio="15">&gt;NAME</text>
        </package>
      </packages>
      <symbols>
        <symbol name="PNP">
          <pin name="B" x="-10.16" y="2.54" length="middle" direction="pas" />
          <wire x1="-5.08" y1="7.62" x2="-5.08" y2="5.08" width="0.254" layer="94" />
          <wire x1="-5.08" y1="5.08" x2="-5.08" y2="0" width="0.254" layer="94" />
          <wire x1="-5.08" y1="0" x2="-5.08" y2="-2.54" width="0.254" layer="94" />
          <wire x1="-5.08" y1="5.08" x2="0" y2="10.16" width="0.254" layer="94" />
          <wire x1="-5.08" y1="0" x2="0" y2="-5.08" width="0.254" layer="94" />
          <pin name="C" x="5.08" y="10.16" length="middle" direction="pas" rot="R180" />
          <pin name="E" x="5.08" y="-5.08" length="middle" direction="pas" rot="R180" />
          <text x="-10.16" y="17.78" size="1.778" layer="95">&gt;NAME</text>
          <text x="-10.16" y="15.24" size="1.778" layer="96">&gt;VALUE</text>
          <wire x1="-5.08" y1="0" x2="-4.318" y2="-2.032" width="0.254" layer="94" />
          <wire x1="-4.318" y1="-2.032" x2="-3.048" y2="-0.762" width="0.254" layer="94" />
          <wire x1="-3.048" y1="-0.762" x2="-5.08" y2="0" width="0.254" layer="94" />
        </symbol>
      </symbols>
      <devicesets>
        <deviceset name="PN2907ABU">
          <gates>
            <gate name="G$1" symbol="PNP" x="0" y="0" />
          </gates>
          <devices>
            <device name="" package="TO-92" xmlns="eagle">
              <connects>
                <connect gate="G$1" pin="B" pad="2" />
                <connect gate="G$1" pin="C" pad="3" />
                <connect gate="G$1" pin="E" pad="1" />
              </connects>
              <technologies>
                <technology name="" />
              </technologies>
            </device>
          </devices>
        </deviceset>
      </devicesets>
    </library>
  </drawing>
</eagle>