<eagle version="6.5.0" xmlns="eagle">
  <drawing>
    <library>
      <packages>
        <package name="TANT_3216-METRIC" xmlns="eagle">
          <smd name="P$1" x="-1.525" y="0" dx="1.78" dy="1.27" layer="1" />
          <smd name="P$2" x="1.525" y="0" dx="1.78" dy="1.27" layer="1" />
          <circle x="-2.82" y="0.31" radius="0.1542" width="0" layer="21" />
          <text x="-3.4" y="1" size="1.016" layer="25" font="vector" ratio="15">&gt;NAME</text>
          <wire x1="-1.6" y1="0.8" x2="-1.6" y2="0" width="0.127" layer="51" />
          <wire x1="-1.6" y1="0" x2="-1.6" y2="-0.8" width="0.127" layer="51" />
          <wire x1="-1.6" y1="-0.8" x2="1.6" y2="-0.8" width="0.127" layer="51" />
          <wire x1="1.6" y1="-0.8" x2="1.6" y2="0.8" width="0.127" layer="51" />
          <wire x1="1.6" y1="0.8" x2="-1.6" y2="0.8" width="0.127" layer="51" />
          <wire x1="-0.4" y1="0.4" x2="-0.4" y2="0" width="0.127" layer="51" />
          <wire x1="-0.4" y1="0" x2="-0.4" y2="-0.4" width="0.127" layer="51" />
          <wire x1="-0.4" y1="0" x2="-1.6" y2="0" width="0.127" layer="51" />
          <wire x1="0.6" y1="0.4" x2="0.2" y2="0" width="0.127" layer="51" curve="90" cap="flat" />
          <wire x1="0.2" y1="0" x2="0.6" y2="-0.4" width="0.127" layer="51" curve="90" cap="flat" />
          <wire x1="0.2" y1="0" x2="1.6" y2="0" width="0.127" layer="51" />
          <wire x1="-0.4" y1="0.8" x2="0.4" y2="0.8" width="0.127" layer="21" />
          <wire x1="-0.4" y1="-0.8" x2="0.4" y2="-0.8" width="0.127" layer="21" />
          <text x="-2.54" y="-0.635" size="1.27" layer="51">+</text>
        </package>
      </packages>
      <symbols>
        <symbol name="TANT_CAP">
          <wire x1="-2.54" y1="0" x2="2.54" y2="0" width="0.254" layer="94" xmlns="eagle" />
          <wire x1="0" y1="-1.016" x2="0" y2="-2.54" width="0.1524" layer="94" xmlns="eagle" />
          <wire x1="0" y1="-1" x2="2.4892" y2="-1.8542" width="0.254" layer="94" curve="-37.878202" cap="flat" xmlns="eagle" />
          <wire x1="-2.4669" y1="-1.8504" x2="0" y2="-1.0161" width="0.254" layer="94" curve="-37.376341" cap="flat" xmlns="eagle" />
          <text x="1.016" y="0.635" size="1.778" layer="95" xmlns="eagle">&gt;NAME</text>
          <text x="1.016" y="-4.191" size="1.778" layer="96" xmlns="eagle">&gt;VALUE</text>
          <rectangle x1="-2.253" y1="0.668" x2="-1.364" y2="0.795" layer="94" xmlns="eagle" />
          <rectangle x1="-1.872" y1="0.287" x2="-1.745" y2="1.176" layer="94" xmlns="eagle" />
          <pin name="+" x="0" y="2.54" visible="off" length="short" direction="pas" swaplevel="1" rot="R270" xmlns="eagle" />
          <pin name="-" x="0" y="-5.08" visible="off" length="short" direction="pas" swaplevel="1" rot="R90" xmlns="eagle" />
        </symbol>
      </symbols>
      <devicesets>
        <deviceset name="TANT_CAP">
          <gates>
            <gate name="G$1" symbol="TANT_CAP" x="0" y="0" />
          </gates>
          <devices>
            <device name="3216-METRIC" package="TANT_3216-METRIC" xmlns="eagle">
              <connects>
                <connect gate="G$1" pin="+" pad="P$1" />
                <connect gate="G$1" pin="-" pad="P$2" />
              </connects>
              <technologies>
                <technology name="" />
              </technologies>
            </device>
          </devices>
        </deviceset>
      </devicesets>
    </library>
  </drawing>
</eagle>