<eagle version="6.5.0" xmlns="eagle">
  <drawing>
    <library>
      <packages>
        <package name="POWERJACK" xmlns="eagle">
          <pad name="P$1" x="0" y="0" drill="2" shape="long" />
          <pad name="P$2" x="0" y="6" drill="2" />
          <pad name="P$3" x="-4.7" y="3" drill="2" />
          <circle x="3.21" y="-1.47" radius="0.1542" width="0" layer="21" />
          <wire x1="-4.7" y1="13.7" x2="-4.7" y2="5" width="0.127" layer="21" />
          <wire x1="4.7" y1="0" x2="4.7" y2="13.7" width="0.127" layer="21" />
          <wire x1="4.7" y1="13.7" x2="-4.7" y2="13.7" width="0.127" layer="21" />
          <wire x1="4.7" y1="0" x2="-4.7" y2="0" width="0.127" layer="51" />
          <wire x1="-4.7" y1="0" x2="-4.7" y2="5" width="0.127" layer="51" />
          <wire x1="-2.5" y1="13.7" x2="-2.5" y2="14.4" width="0.127" layer="51" />
          <wire x1="-2.5" y1="14.4" x2="2.5" y2="14.4" width="0.127" layer="51" />
          <wire x1="2.5" y1="14.4" x2="2.5" y2="13.7" width="0.127" layer="51" />
          <text x="5" y="6.3" size="1.27" layer="25" rot="R270">&gt;NAME</text>
        </package>
      </packages>
      <symbols>
        <symbol name="POWERJACK">
          <pin name="SLEEVE" x="10.16" y="5.08" length="middle" rot="R180" />
          <pin name="SHUNT" x="10.16" y="0" length="middle" rot="R180" />
          <pin name="TIP" x="10.16" y="-2.54" length="middle" rot="R180" />
          <wire x1="5.08" y1="-2.54" x2="-2.54" y2="-2.54" width="0.254" layer="94" />
          <wire x1="-2.54" y1="-2.54" x2="-5.08" y2="0" width="0.254" layer="94" />
          <wire x1="-5.08" y1="0" x2="-7.62" y2="-2.54" width="0.254" layer="94" />
          <wire x1="5.08" y1="0" x2="0" y2="0" width="0.254" layer="94" />
          <wire x1="0" y1="0" x2="0" y2="-2.286" width="0.254" layer="94" />
          <wire x1="0" y1="-2.286" x2="-0.254" y2="-2.032" width="0.254" layer="94" />
          <wire x1="-0.254" y1="-2.032" x2="0.254" y2="-2.032" width="0.254" layer="94" />
          <wire x1="0.254" y1="-2.032" x2="0" y2="-2.286" width="0.254" layer="94" />
          <wire x1="5.08" y1="5.08" x2="-7.62" y2="5.08" width="0.254" layer="94" />
          <text x="-7.62" y="10.16" size="1.27" layer="95">&gt;NAME</text>
          <text x="-7.62" y="7.62" size="1.27" layer="96">&gt;VALUE</text>
        </symbol>
      </symbols>
      <devicesets>
        <deviceset name="PJ-102AH">
          <gates>
            <gate name="G$1" symbol="POWERJACK" x="0" y="0" />
          </gates>
          <devices>
            <device name="" package="POWERJACK" xmlns="eagle">
              <connects>
                <connect gate="G$1" pin="SHUNT" pad="P$3" />
                <connect gate="G$1" pin="SLEEVE" pad="P$1" />
                <connect gate="G$1" pin="TIP" pad="P$2" />
              </connects>
              <technologies>
                <technology name="" />
              </technologies>
            </device>
          </devices>
        </deviceset>
      </devicesets>
    </library>
  </drawing>
</eagle>