<?xml version="1.0" encoding="utf-8"?>
<!DOCTYPE eagle SYSTEM "eagle.dtd">
<eagle version="6.6.0">
<drawing>
<settings>
<setting alwaysvectorfont="no"/>
<setting verticaltext="up"/>
</settings>
<grid distance="0.1" unitdist="inch" unit="inch" style="lines" multiple="1" display="no" altdistance="0.01" altunitdist="inch" altunit="inch"/>
<layers>
</layers>
<library>
<packages>
<package name="PTA4543">
<pad name="P$1" x="-29.25" y="1.75" drill="1.5"/>
<pad name="P$2" x="-29.25" y="-1.75" drill="1.5"/>
<pad name="P$3" x="29.25" y="1.75" drill="1.5"/>
<hole x="-23.9" y="4.2" drill="2"/>
<hole x="23.9" y="4.2" drill="2"/>
<hole x="-25.1" y="-4.2" drill="2"/>
<hole x="25.1" y="-4.2" drill="2"/>
<wire x1="-30.7" y1="6" x2="-30.7" y2="3.2" width="0.127" layer="21"/>
<wire x1="-30.7" y1="3.2" x2="-30.7" y2="-6" width="0.127" layer="21"/>
<wire x1="-30.7" y1="-6" x2="30.7" y2="-6" width="0.127" layer="21"/>
<wire x1="30.7" y1="-6" x2="30.7" y2="6" width="0.127" layer="21"/>
<wire x1="30.7" y1="6" x2="-27.9" y2="6" width="0.127" layer="21"/>
<circle x="-31.1" y="2.8" radius="0.1542" width="0" layer="21"/>
<wire x1="-27.9" y1="6" x2="-30.7" y2="6" width="0.127" layer="21"/>
<wire x1="-30.7" y1="3.2" x2="-27.9" y2="6" width="0.127" layer="21"/>
<text x="-30.9" y="-6" size="1.27" layer="25" rot="R90">&gt;NAME</text>
</package>
</packages>
<symbols>
<symbol name="POT">
<wire x1="-0.762" y1="2.54" x2="-0.762" y2="-2.54" width="0.254" layer="94"/>
<wire x1="0.762" y1="-2.54" x2="0.762" y2="2.54" width="0.254" layer="94"/>
<wire x1="2.54" y1="0" x2="1.651" y2="0" width="0.1524" layer="94"/>
<wire x1="0.762" y1="2.54" x2="-0.762" y2="2.54" width="0.254" layer="94"/>
<wire x1="-0.762" y1="-2.54" x2="0.762" y2="-2.54" width="0.254" layer="94"/>
<wire x1="-2.54" y1="-3.683" x2="-2.54" y2="-1.143" width="0.1524" layer="94"/>
<wire x1="-2.54" y1="-1.143" x2="-3.175" y2="-2.413" width="0.1524" layer="94"/>
<wire x1="-3.175" y1="-2.413" x2="-1.905" y2="-2.413" width="0.1524" layer="94"/>
<wire x1="-1.905" y1="-2.413" x2="-2.54" y2="-1.143" width="0.1524" layer="94"/>
<wire x1="1.651" y1="0" x2="-2.286" y2="2.54" width="0.1524" layer="94"/>
<wire x1="-2.667" y1="1.905" x2="-2.286" y2="2.54" width="0.1524" layer="94"/>
<wire x1="-2.286" y1="2.54" x2="-1.905" y2="3.175" width="0.1524" layer="94"/>
<text x="-5.715" y="-3.81" size="1.778" layer="95" ratio="10" rot="R90">&gt;NAME</text>
<text x="-3.81" y="-3.81" size="1.778" layer="96" ratio="10" rot="R90">&gt;VALUE</text>
<text x="-1.905" y="-4.953" size="1.778" layer="94" rot="R90">1</text>
<text x="-1.905" y="-0.508" size="1.778" layer="94" rot="R90">3</text>
<pin name="1" x="0" y="-5.08" visible="pad" length="short" direction="pas" rot="R90"/>
<pin name="3" x="0" y="5.08" visible="pad" length="short" direction="pas" rot="R270"/>
<pin name="2" x="5.08" y="0" visible="pad" length="short" direction="pas" rot="R180"/>
</symbol>
</symbols>
<devicesets>
<deviceset name="PTA2043-2015CPB103">
<gates>
<gate name="G$1" symbol="POT" x="0" y="0"/>
</gates>
<devices>
<device name="" package="PTA4543">
<connects>
<connect gate="G$1" pin="1" pad="P$1"/>
<connect gate="G$1" pin="2" pad="P$2"/>
<connect gate="G$1" pin="3" pad="P$3"/>
</connects>
<technologies>
<technology name=""/>
</technologies>
</device>
</devices>
</deviceset>
</devicesets>
</library>
</drawing>
</eagle>
