<?xml version="1.0" encoding="utf-8"?>
<!DOCTYPE eagle SYSTEM "eagle.dtd">
<eagle version="6.6.0">
<drawing>
<settings>
<setting alwaysvectorfont="no"/>
<setting verticaltext="up"/>
</settings>
<grid distance="0.1" unitdist="inch" unit="inch" style="lines" multiple="1" display="no" altdistance="0.01" altunitdist="inch" altunit="inch"/>
<layers>
<layer number="1" name="Top" color="4" fill="1" visible="yes" active="yes"/>
<layer number="16" name="Bottom" color="1" fill="1" visible="yes" active="yes"/>
<layer number="17" name="Pads" color="2" fill="1" visible="yes" active="yes"/>
<layer number="18" name="Vias" color="2" fill="1" visible="yes" active="yes"/>
<layer number="19" name="Unrouted" color="6" fill="1" visible="yes" active="yes"/>
<layer number="20" name="Dimension" color="15" fill="1" visible="yes" active="yes"/>
<layer number="21" name="tPlace" color="7" fill="1" visible="yes" active="yes"/>
<layer number="22" name="bPlace" color="7" fill="1" visible="yes" active="yes"/>
<layer number="23" name="tOrigins" color="15" fill="1" visible="yes" active="yes"/>
<layer number="24" name="bOrigins" color="15" fill="1" visible="yes" active="yes"/>
<layer number="25" name="tNames" color="7" fill="1" visible="yes" active="yes"/>
<layer number="26" name="bNames" color="7" fill="1" visible="yes" active="yes"/>
<layer number="27" name="tValues" color="7" fill="1" visible="yes" active="yes"/>
<layer number="28" name="bValues" color="7" fill="1" visible="yes" active="yes"/>
<layer number="29" name="tStop" color="7" fill="3" visible="yes" active="yes"/>
<layer number="30" name="bStop" color="7" fill="6" visible="yes" active="yes"/>
<layer number="31" name="tCream" color="7" fill="4" visible="yes" active="yes"/>
<layer number="32" name="bCream" color="7" fill="5" visible="yes" active="yes"/>
<layer number="33" name="tFinish" color="6" fill="3" visible="yes" active="yes"/>
<layer number="34" name="bFinish" color="6" fill="6" visible="yes" active="yes"/>
<layer number="35" name="tGlue" color="7" fill="4" visible="yes" active="yes"/>
<layer number="36" name="bGlue" color="7" fill="5" visible="yes" active="yes"/>
<layer number="37" name="tTest" color="7" fill="1" visible="yes" active="yes"/>
<layer number="38" name="bTest" color="7" fill="1" visible="yes" active="yes"/>
<layer number="39" name="tKeepout" color="4" fill="11" visible="yes" active="yes"/>
<layer number="40" name="bKeepout" color="1" fill="11" visible="yes" active="yes"/>
<layer number="41" name="tRestrict" color="4" fill="10" visible="yes" active="yes"/>
<layer number="42" name="bRestrict" color="1" fill="10" visible="yes" active="yes"/>
<layer number="43" name="vRestrict" color="2" fill="10" visible="yes" active="yes"/>
<layer number="44" name="Drills" color="7" fill="1" visible="yes" active="yes"/>
<layer number="45" name="Holes" color="7" fill="1" visible="yes" active="yes"/>
<layer number="46" name="Milling" color="3" fill="1" visible="yes" active="yes"/>
<layer number="47" name="Measures" color="7" fill="1" visible="yes" active="yes"/>
<layer number="48" name="Document" color="7" fill="1" visible="yes" active="yes"/>
<layer number="49" name="Reference" color="7" fill="1" visible="yes" active="yes"/>
<layer number="50" name="dxf" color="7" fill="1" visible="yes" active="yes"/>
<layer number="51" name="tDocu" color="7" fill="1" visible="yes" active="yes"/>
<layer number="52" name="bDocu" color="7" fill="1" visible="yes" active="yes"/>
<layer number="53" name="tGND_GNDA" color="7" fill="1" visible="yes" active="yes"/>
<layer number="54" name="bGND_GNDA" color="7" fill="1" visible="yes" active="yes"/>
<layer number="56" name="wert" color="7" fill="1" visible="yes" active="yes"/>
<layer number="57" name="tCAD" color="7" fill="1" visible="yes" active="yes"/>
<layer number="91" name="Nets" color="2" fill="1" visible="yes" active="yes"/>
<layer number="92" name="Busses" color="1" fill="1" visible="yes" active="yes"/>
<layer number="93" name="Pins" color="2" fill="1" visible="yes" active="yes"/>
<layer number="94" name="Symbols" color="4" fill="1" visible="yes" active="yes"/>
<layer number="95" name="Names" color="7" fill="1" visible="yes" active="yes"/>
<layer number="96" name="Values" color="7" fill="1" visible="yes" active="yes"/>
<layer number="97" name="Info" color="7" fill="1" visible="yes" active="yes"/>
<layer number="98" name="Guide" color="6" fill="1" visible="yes" active="yes"/>
<layer number="99" name="SpiceOrder" color="7" fill="1" visible="yes" active="yes"/>
</layers>
<library>
<packages>
<package name="SOT23-BEC">
<description>&lt;b&gt;TO-236&lt;/b&gt; ITT Intermetall</description>
<smd name="C" x="0" y="1" dx="0.8" dy="0.9" layer="1"/>
<smd name="E" x="0.95" y="-1" dx="0.8" dy="0.9" layer="1"/>
<smd name="B" x="-0.95" y="-1" dx="0.8" dy="0.9" layer="1"/>
<text x="-1.37" y="1.67" size="1.016" layer="25" font="vector" ratio="15">&gt;NAME</text>
<circle x="-1.835" y="-0.105" radius="0.1524" width="0" layer="21"/>
<wire x1="-0.8" y1="0.6604" x2="-1.4224" y2="0.6604" width="0.1524" layer="21"/>
<wire x1="-1.4224" y1="0.6604" x2="-1.4224" y2="0" width="0.1524" layer="21"/>
<wire x1="0.8" y1="0.6604" x2="1.4224" y2="0.6604" width="0.1524" layer="21"/>
<wire x1="1.4224" y1="0.6604" x2="1.4224" y2="0" width="0.1524" layer="21"/>
<wire x1="-0.2" y1="-0.6604" x2="0.2" y2="-0.6604" width="0.1524" layer="21"/>
</package>
</packages>
<symbols>
<symbol name="PNP">
<wire x1="2.086" y1="1.678" x2="1.578" y2="2.594" width="0.1524" layer="94"/>
<wire x1="1.578" y1="2.594" x2="0.516" y2="1.478" width="0.1524" layer="94"/>
<wire x1="0.516" y1="1.478" x2="2.086" y2="1.678" width="0.1524" layer="94"/>
<wire x1="2.54" y1="2.54" x2="1.808" y2="2.124" width="0.1524" layer="94"/>
<wire x1="2.54" y1="-2.54" x2="0.508" y2="-1.524" width="0.1524" layer="94"/>
<wire x1="1.905" y1="1.778" x2="1.524" y2="2.413" width="0.254" layer="94"/>
<wire x1="1.524" y1="2.413" x2="0.762" y2="1.651" width="0.254" layer="94"/>
<wire x1="0.762" y1="1.651" x2="1.778" y2="1.778" width="0.254" layer="94"/>
<wire x1="1.778" y1="1.778" x2="1.524" y2="2.159" width="0.254" layer="94"/>
<wire x1="1.524" y1="2.159" x2="1.143" y2="1.905" width="0.254" layer="94"/>
<wire x1="1.143" y1="1.905" x2="1.524" y2="1.905" width="0.254" layer="94"/>
<text x="-10.16" y="7.62" size="1.778" layer="95">&gt;NAME</text>
<text x="-10.16" y="5.08" size="1.778" layer="96">&gt;VALUE</text>
<rectangle x1="-0.254" y1="-2.54" x2="0.508" y2="2.54" layer="94"/>
<pin name="B" x="-2.54" y="0" visible="off" length="short" direction="pas"/>
<pin name="E" x="2.54" y="5.08" visible="off" length="short" direction="pas" rot="R270"/>
<pin name="C" x="2.54" y="-5.08" visible="off" length="short" direction="pas" rot="R90"/>
</symbol>
</symbols>
<devicesets>
<deviceset name="MMBT3906" prefix="Q">
<gates>
<gate name="G$1" symbol="PNP" x="0" y="0"/>
</gates>
<devices>
<device name="SMD" package="SOT23-BEC">
<connects>
<connect gate="G$1" pin="B" pad="B"/>
<connect gate="G$1" pin="C" pad="C"/>
<connect gate="G$1" pin="E" pad="E"/>
</connects>
<technologies>
<technology name="LT1"/>
</technologies>
</device>
</devices>
</deviceset>
</devicesets>
</library>
</drawing>
</eagle>
